Division,WeightClassKg,Place,Name,Team,BodyweightKg,Best3SquatKg,Best3BenchKg,Best3DeadliftKg,TotalKg,Equipment,Event,Sex,BirthDate
Boys,51.71,1,Christian Southard,Aubrey,51.17,142.88,102.06,165.56,410.5,Unlimited,SBD,M,
Boys,51.71,2,Noah Rayford,Denison,49.99,136.08,102.06,136.08,374.21,Unlimited,SBD,M,
Boys,51.71,3,Draven Coleman,Princeton,51.62,122.47,58.97,142.88,324.32,Unlimited,SBD,M,
Boys,51.71,4,Travis Emshoff,Collinsville,50.98,113.4,65.77,136.08,315.25,Unlimited,SBD,M,
Boys,51.71,DQ,Will Sallaway,Prosper Walnut Grove,46.18,102.06,,,,Unlimited,SBD,M,
Boys,55.79,1,Trey Shirey,Prosper,55.61,206.38,147.42,219.99,573.79,Unlimited,SBD,M,
Boys,55.79,2,Jeremey Berryhill,Prosper Walnut Grove,55.43,156.49,95.25,151.95,403.7,Unlimited,SBD,M,
Boys,55.79,3,Bryson Helms,Farmersville,54.7,138.35,81.65,127.01,347,Unlimited,SBD,M,
Boys,55.79,4,Knydon Alvarado,Princeton,54.98,124.74,68.04,142.88,335.66,Unlimited,SBD,M,
Boys,55.79,5,Kai Aquinaldo,Aubrey,54.88,120.2,70.31,115.67,306.17,Unlimited,SBD,M,
Boys,55.79,DQ,Ryan Dearmond,Tom Bean,54.61,163.29,97.52,,,Unlimited,SBD,M,
Boys,55.79,DQ,Michael Watson,Melissa,54.61,117.93,81.65,,,Unlimited,SBD,M,
Boys,59.87,1,Jeremiah Dunn,Prosper,59.51,217.72,142.88,199.58,560.19,Unlimited,SBD,M,
Boys,59.87,2,Daniel Ruiz,Tom Bean,59.87,174.63,106.59,226.8,508.02,Unlimited,SBD,M,
Boys,59.87,3,Hayden Vo,Prosper Rock Hill,59.42,163.29,104.33,183.7,451.32,Unlimited,SBD,M,
Boys,59.87,4,Wayne Aquinaldo,Aubrey,58.24,156.49,108.86,158.76,424.11,Unlimited,SBD,M,
Boys,59.87,5,Vivaan Sharma,Frisco Heritage,56.34,151.95,83.91,170.1,405.97,Unlimited,SBD,M,
Boys,59.87,6,Austin Caldwell,Collinsville,58.88,136.08,92.99,151.95,381.02,Unlimited,SBD,M,
Boys,59.87,7,Cristoval Vasquez,Little Elm,58.97,142.88,83.91,151.95,378.75,Unlimited,SBD,M,
Boys,59.87,8,Griffin Shelley,McKinney,58.6,138.35,72.57,156.49,367.41,Unlimited,SBD,M,
Boys,59.87,9,Bradford Elisha,McKinney North,56.25,113.4,72.57,133.81,319.78,Unlimited,SBD,M,
Boys,59.87,10,Kyler Stein,McKinney Boyd,58.69,92.99,68.04,124.74,285.76,Unlimited,SBD,M,
Boys,67.13,1,Martinez Emmanuel,Princeton,65.77,244.94,183.7,254.01,682.66,Unlimited,SBD,M,
Boys,67.13,2,Rafe McComack,Farmersville,65.68,251.74,176.9,215.46,644.1,Unlimited,SBD,M,
Boys,67.13,3,Yeray Penaloza,Farmersville,66.5,206.38,127.01,185.97,519.36,Unlimited,SBD,M,
Boys,67.13,4,Rosales Anthony,Princeton,63.32,199.58,106.59,183.7,489.88,Unlimited,SBD,M,
Boys,67.13,5,Sean Gallagher,McKinney Boyd,63.41,183.7,106.59,199.58,489.88,Unlimited,SBD,M,
Boys,67.13,6,Mathew Evans,Lucas Lovejoy,66.22,183.7,120.2,165.56,469.47,Unlimited,SBD,M,
Boys,67.13,7,Tyler Stuckey,Aubrey,61.87,192.78,113.4,156.49,462.66,Unlimited,SBD,M,
Boys,67.13,8,Diego Comer,Prosper Walnut Grove,65.32,163.29,102.06,181.44,446.79,Unlimited,SBD,M,
Boys,67.13,9,Urban Casper,Princeton,64.77,179.17,106.59,151.95,437.72,Unlimited,SBD,M,
Boys,67.13,10,Cai Howard,Little Elm,66.22,170.1,102.06,158.76,430.91,Unlimited,SBD,M,
Boys,67.13,11,Tim Grindstaff,Collinsville,66.95,147.42,104.33,165.56,417.3,Unlimited,SBD,M,
Boys,67.13,12,Christian Miles,Prosper,65.41,149.69,102.06,163.29,415.04,Unlimited,SBD,M,
Boys,67.13,13,Aiden Hernandez,Little Elm,64.14,165.56,81.65,156.49,403.7,Unlimited,SBD,M,
Boys,67.13,14,Roman Capule,Aubrey,65.59,138.35,102.06,129.27,369.68,Unlimited,SBD,M,
Boys,67.13,15,Evan Strough,Little Elm,65.77,102.06,83.91,174.63,360.61,Unlimited,SBD,M,
Boys,67.13,16,Gunner Holley,Melissa,64.68,117.93,90.72,127.01,335.66,Unlimited,SBD,M,
Boys,67.13,DQ,Damain Delarosa,Tom Bean,64.32,124.74,88.45,,,Unlimited,SBD,M,
Boys,67.13,DQ,Eli Shifflet,Ponder,62.78,145.15,,,,Unlimited,SBD,M,
Boys,74.84,1,Ethan Hunt,Denison,73.94,242.67,181.44,256.28,680.39,Unlimited,SBD,M,
Boys,74.84,2,Zander Paton,Melissa,74.39,238.14,154.22,265.35,657.71,Unlimited,SBD,M,
Boys,74.84,3,Leo Anguiano,Prosper,70.4,226.8,181.44,226.8,635.03,Unlimited,SBD,M,
Boys,74.84,4,Gordon Swartz,Farmersville,73.3,219.99,140.61,219.99,580.6,Unlimited,SBD,M,
Boys,74.84,5,Shaun Carson,Princeton,71.76,215.46,145.15,192.78,553.38,Unlimited,SBD,M,
Boys,74.84,6,Richie Eminovski,Pottsboro,72.39,195.04,145.15,204.12,544.31,Unlimited,SBD,M,
Boys,74.84,7,Marcus Agustin,Prosper Rock Hill,74.03,210.92,131.54,201.85,544.31,Unlimited,SBD,M,
Boys,74.84,8,Rocky Sylvester,Lewisville Marcus,72.76,201.85,129.27,185.97,517.1,Unlimited,SBD,M,
Boys,74.84,9,Kale Jones #1,Ponder,74.48,199.58,124.74,192.78,517.1,Unlimited,SBD,M,
Boys,74.84,10,Jaxson Doramus,Aubrey,74.57,201.85,106.59,195.04,503.49,Unlimited,SBD,M,
Boys,74.84,11,Ricky Hernandez,Princeton,71.85,176.9,108.86,204.12,489.88,Unlimited,SBD,M,
Boys,74.84,12,Aithan Aghassi,McKinney Boyd,72.39,174.63,113.4,192.78,480.81,Unlimited,SBD,M,
Boys,74.84,13,Hernandez Joaquin,McKinney North,71.58,183.7,106.59,165.56,455.86,Unlimited,SBD,M,
Boys,74.84,14,Samuel Mahinay,Prosper Rock Hill,72.94,149.69,83.91,219.99,453.59,Unlimited,SBD,M,
Boys,74.84,15,Elijah Edwards,McKinney,72.3,161.03,77.11,179.17,417.3,Unlimited,SBD,M,
Boys,74.84,16,Landon Miller,Tom Bean,72.76,151.95,102.06,156.49,410.5,Unlimited,SBD,M,
Boys,74.84,17,Ricky Alonzo,Ponder,74.12,140.61,92.99,158.76,392.36,Unlimited,SBD,M,
Boys,74.84,18,Connor Tilden,Ponder,70.67,151.95,77.11,154.22,383.29,Unlimited,SBD,M,
Boys,74.84,19,Braedon Williamson,Aubrey,72.12,138.35,83.91,156.49,378.75,Unlimited,SBD,M,
Boys,74.84,20,Izak Tumey,Tom Bean,68.4,122.47,88.45,165.56,376.48,Unlimited,SBD,M,
Boys,74.84,21,James Robinson,Aubrey,69.76,142.88,83.91,133.81,360.61,Unlimited,SBD,M,
Boys,74.84,22,Devin Martinez,Aubrey,72.94,124.74,92.99,136.08,353.8,Unlimited,SBD,M,
Boys,74.84,23,Bobby Chebweche,Dallas White,74.84,129.27,74.84,142.88,347,Unlimited,SBD,M,
Boys,74.84,DQ,Shadowick Andrew,McKinney North,71.3,201.85,,,,Unlimited,SBD,M,
Boys,74.84,DQ,Logan Boehr,McKinney,68.95,158.76,97.52,,,Unlimited,SBD,M,
Boys,74.84,DQ,Alex Acevedo,Prosper,74.3,238.14,,,,Unlimited,SBD,M,
Boys,82.1,1,Grady Upchurch,Princeton,81.1,260.82,172.37,226.8,659.98,Unlimited,SBD,M,
Boys,82.1,2,Nathan Bloem,Prosper,79.74,244.94,136.08,215.46,596.47,Unlimited,SBD,M,
Boys,82.1,3,Gentry Morrow,Pottsboro,81.92,219.99,129.27,219.99,569.26,Unlimited,SBD,M,
Boys,82.1,4,Cody Nguyen,Ponder,81.74,213.19,147.42,204.12,564.72,Unlimited,SBD,M,
Boys,82.1,5,Devin Gonzales,Little Elm,82.1,190.51,113.4,258.55,562.45,Unlimited,SBD,M,
Boys,82.1,6,Branson Reeves,Prosper,81.74,181.44,154.22,192.78,528.44,Unlimited,SBD,M,
Boys,82.1,7,Cole Travascio,Aubrey,79.2,183.7,138.35,195.04,517.1,Unlimited,SBD,M,
Boys,82.1,8,Peyton Korolevich,McKinney Boyd,79.74,183.7,113.4,190.51,487.61,Unlimited,SBD,M,
Boys,82.1,9,Cooper Horne,Farmersville,81.47,195.04,113.4,174.63,483.08,Unlimited,SBD,M,
Boys,82.1,10,Breyden Tull,Farmersville,79.2,181.44,124.74,172.37,478.54,Unlimited,SBD,M,
Boys,82.1,11,Riley DuFrane,Aubrey,78.83,158.76,104.33,201.85,464.93,Unlimited,SBD,M,
Boys,82.1,12,Lambs Kouassi,Melissa,79.29,147.42,108.86,183.7,439.98,Unlimited,SBD,M,
Boys,82.1,13,Titus Tillman,Prosper Rock Hill,77.84,149.69,83.91,158.76,392.36,Unlimited,SBD,M,
Boys,82.1,DQ,Kendall Schneyer,Little Elm,78.11,,,,,Unlimited,SBD,M,
Boys,82.1,DQ,Toby Davis,Aubrey,81.74,,,,,Unlimited,SBD,M,
Boys,82.1,DQ,Gabe Saunders,Aubrey,78.11,,,,,Unlimited,SBD,M,
Boys,82.1,DQ,Noah Gray,Tom Bean,75.48,,,,,Unlimited,SBD,M,
Boys,82.1,DQ,Elijah Burlison,Farmersville,81.28,192.78,,,,Unlimited,SBD,M,
Boys,82.1,DQ,Reese Prince,Prosper Walnut Grove,80.83,197.31,138.35,204.12,,Unlimited,SBD,M,
Boys,82.1,DQ,Spencer Milla,McKinney,79.11,183.7,95.25,181.44,,Unlimited,SBD,M,
Boys,82.1,DQ,Gavin Rogers,Lewisville Marcus,78.02,192.78,151.95,183.7,,Unlimited,SBD,M,
Boys,89.81,1,Devon Jeffries,Denison,89.09,317.51,215.46,274.42,807.39,Unlimited,SBD,M,
Boys,89.81,2,Luke Sussman,Lucas Lovejoy,88.27,265.35,206.38,265.35,737.09,Unlimited,SBD,M,
Boys,89.81,3,Johnathan Walters,Princeton,87.82,272.16,195.04,226.8,694,Unlimited,SBD,M,
Boys,89.81,4,Ben Sussman,Lucas Lovejoy,86.64,226.8,183.7,238.14,648.64,Unlimited,SBD,M,
Boys,89.81,5,Brandon Palmer,Denison,88.18,247.21,165.56,215.46,628.23,Unlimited,SBD,M,
Boys,89.81,6,Damian Gonzalez,Farmersville,89.18,233.6,167.83,210.92,612.35,Unlimited,SBD,M,
Boys,89.81,7,Cade Shaw,Prosper Walnut Grove,85,192.78,161.03,183.7,537.51,Unlimited,SBD,M,
Boys,89.81,8,Keegan Brinton,Prosper Rock Hill,84.55,185.97,117.93,170.1,474,Unlimited,SBD,M,
Boys,89.81,9,Tyler Kuberski,Ponder,87,181.44,88.45,183.7,453.59,Unlimited,SBD,M,
Boys,89.81,10,Jayden Marquez,McKinney North,82.37,170.1,108.86,163.29,442.25,Unlimited,SBD,M,
Boys,89.81,11,Luke Szatkowski,McKinney Boyd,83.82,161.03,90.72,183.7,435.45,Unlimited,SBD,M,
Boys,89.81,12,Dylan Mitchell,McKinney,88.18,151.95,111.13,170.1,433.18,Unlimited,SBD,M,
Boys,89.81,13,Bryce Turner,Ponder,84.73,179.17,92.99,156.49,428.64,Unlimited,SBD,M,
Boys,89.81,14,Matthew Martinez,McKinney North,82.55,140.61,117.93,156.49,415.04,Unlimited,SBD,M,
Boys,89.81,15,Ty Sweat,McKinney Boyd,85.37,142.88,88.45,176.9,408.23,Unlimited,SBD,M,
Boys,89.81,16,Justin Thompson,Tom Bean,87.72,147.42,79.38,142.88,369.68,Unlimited,SBD,M,
Boys,89.81,17,Michealangelo Marin,Dallas White,89.72,136.08,83.91,140.61,360.61,Unlimited,SBD,M,
Boys,89.81,18,Joseph Munguia,Dallas White,89.27,127.01,81.65,147.42,356.07,Unlimited,SBD,M,
Boys,89.81,19,Logan Gibson #2,Ponder,88.09,102.06,74.84,142.88,319.78,Unlimited,SBD,M,
Boys,89.81,DQ,Michael Testa,McKinney North,83.1,172.37,127.01,,,Unlimited,SBD,M,
Boys,99.79,1,Gavin Prince,Lucas Lovejoy,99.06,288.03,219.99,249.48,757.5,Unlimited,SBD,M,
Boys,99.79,2,Daniel Tyutyunnik,Princeton,97.16,272.16,210.92,272.16,755.23,Unlimited,SBD,M,
Boys,99.79,3,Austin Crawley,Denison,96.43,272.16,199.58,254.01,725.75,Unlimited,SBD,M,
Boys,99.79,4,Will Harrison,Lewisville Marcus,93.71,242.67,158.76,256.28,657.71,Unlimited,SBD,M,
Boys,99.79,5,Miles Morrison,Melissa,94.44,256.28,179.17,206.38,641.83,Unlimited,SBD,M,
Boys,99.79,6,Gabe McMillen,Denison,97.25,260.82,154.22,206.38,621.42,Unlimited,SBD,M,
Boys,99.79,7,Lamar Lewis,Lewisville Marcus,98.43,240.4,147.42,217.72,605.55,Unlimited,SBD,M,
Boys,99.79,8,Mohammad Taha,Prosper Rock Hill,94.35,226.8,154.22,215.46,596.47,Unlimited,SBD,M,
Boys,99.79,10,Logan Gournay,Farmersville,91.35,226.8,120.2,210.92,557.92,Unlimited,SBD,M,
Boys,99.79,11,Grant Renfrow,Prosper Walnut Grove,92.17,185.97,136.08,204.12,526.17,Unlimited,SBD,M,
Boys,99.79,12,Bryson Wyatt,Pottsboro,94.35,201.85,111.13,170.1,483.08,Unlimited,SBD,M,
Boys,99.79,13,Pj Van Rijn,Aubrey,90.36,165.56,97.52,192.78,455.86,Unlimited,SBD,M,
Boys,99.79,14,Wyatt Dereska,Lewisville Marcus,96.25,183.7,102.06,167.83,453.59,Unlimited,SBD,M,
Boys,99.79,15,Dmarion Manuel,Little Elm,89.9,147.42,104.33,181.44,433.18,Unlimited,SBD,M,
Boys,99.79,16,Zane Young,Tom Bean,94.53,149.69,102.06,161.03,412.77,Unlimited,SBD,M,
Boys,99.79,17,Russell Kerlee,Ponder,96.89,158.76,72.57,142.88,374.21,Unlimited,SBD,M,
Boys,99.79,DQ,Stephan Coffman,Aubrey,92.8,,,,,Unlimited,SBD,M,
Boys,99.79,DQ,Nathan Munguia,Princeton,98.16,,,,,Unlimited,SBD,M,
Boys,99.79,DQ,Diego Dominguez,Dallas White,98.7,,,,,Unlimited,SBD,M,
Boys,99.79,DQ,Tremper Raul,Dallas White,98.79,111.13,56.7,,,Unlimited,SBD,M,
Boys,99.79,DQ,Malakai Meyer,Frisco Heritage,98.97,238.14,,,,Unlimited,SBD,M,
Boys,109.77,1,Josh Turner,Denison,108.59,290.3,192.78,249.48,732.55,Unlimited,SBD,M,
Boys,109.77,2,Matthew Ehsan,McKinney,108.41,254.01,183.7,272.16,709.87,Unlimited,SBD,M,
Boys,109.77,3,Grant Frazier,Prosper Walnut Grove,105.6,231.33,165.56,197.31,594.21,Unlimited,SBD,M,
Boys,109.77,4,Raul Rosales,Aubrey,104.69,185.97,113.4,165.56,464.93,Unlimited,SBD,M,
Boys,109.77,5,Aiden Fine,Prosper,101.79,156.49,120.2,183.7,460.4,Unlimited,SBD,M,
Boys,109.77,6,Justin Barksdale,Little Elm,104.69,165.56,95.25,183.7,444.52,Unlimited,SBD,M,
Boys,109.77,DQ,Harris Eli,McKinney North,109.13,201.85,,,,Unlimited,SBD,M,
Boys,109.77,DQ,Roderrick Richardson,Dallas White,101.97,,,,,Unlimited,SBD,M,
Boys,109.77,DQ,Frank Upchurch,Prosper,102.15,215.46,192.78,,,Unlimited,SBD,M,
Boys,109.77,DQ,Micheal Naderi,Prosper Walnut Grove,107.41,208.65,151.95,197.31,,Unlimited,SBD,M,
Boys,124.74,1,Ty Smith,Lucas Lovejoy,111.13,288.03,226.8,240.4,755.23,Unlimited,SBD,M,
Boys,124.74,2,Kamden Dyess,Frisco Heritage,121.2,294.84,204.12,226.8,725.75,Unlimited,SBD,M,
Boys,124.74,3,Caleb Cox,Denison,114.21,272.16,201.85,244.94,718.94,Unlimited,SBD,M,
Boys,124.74,4,Josh Govan,Little Elm,122.2,240.4,156.49,281.23,678.12,Unlimited,SBD,M,
Boys,124.74,5,Orasio Juarez,Farmersville,117.66,258.55,179.17,238.14,675.85,Unlimited,SBD,M,
Boys,124.74,6,Chaston Stephens,McKinney Boyd,123.47,254.01,138.35,247.21,639.57,Unlimited,SBD,M,
Boys,124.74,7,Diego Gonzalez,Little Elm,122.38,260.82,142.88,206.38,610.08,Unlimited,SBD,M,
Boys,124.74,8,Blaine Turner,Ponder,111.95,238.14,129.27,233.6,601.01,Unlimited,SBD,M,
Boys,124.74,9,John Robin,Prosper Walnut Grove,120.75,226.8,158.76,215.46,601.01,Unlimited,SBD,M,
Boys,124.74,10,Cason Cox,Ponder,112.67,217.72,133.81,226.8,578.33,Unlimited,SBD,M,
Boys,124.74,11,Justin Queneau,Farmersville,122.29,226.8,161.03,185.97,573.79,Unlimited,SBD,M,
Boys,124.74,12,Jackson King,Prosper,110.77,192.78,174.63,181.44,548.85,Unlimited,SBD,M,
Boys,124.74,13,Aiden Lowry,McKinney North,118.66,183.7,129.27,210.92,523.9,Unlimited,SBD,M,
Boys,124.74,14,Yurem Perez,Dallas White,116.94,213.19,108.86,197.31,519.36,Unlimited,SBD,M,
Boys,124.74,15,Corby Strange,McKinney Boyd,113.94,188.24,97.52,181.44,467.2,Unlimited,SBD,M,
Boys,124.74,16,Carter Hudson,Lewisville Marcus,111.58,142.88,79.38,172.37,394.63,Unlimited,SBD,M,
Boys,124.74,17,Knox Smith,Aubrey,120.84,117.93,83.91,122.47,324.32,Unlimited,SBD,M,
Boys,124.74,DQ,Machi Lamb,Dallas White,118.48,,,,,Unlimited,SBD,M,
Boys,124.74,DQ,Will Endicott,Prosper,115.21,,,,,Unlimited,SBD,M,
Boys,139.71,1,Nathan Woods,Denison,134.17,290.3,199.58,215.46,705.34,Unlimited,SBD,M,
Boys,139.71,2,Mark Vasquez,Farmersville,134.72,272.16,192.78,235.87,700.8,Unlimited,SBD,M,
Boys,139.71,3,Noah Roten,Denison,132.27,272.16,215.46,197.31,684.92,Unlimited,SBD,M,
Boys,139.71,5,Kristopher Williams,Prosper Walnut Grove,133.9,226.8,158.76,185.97,571.53,Unlimited,SBD,M,
Boys,139.71,DQ,Edgar Corralejo,McKinney Boyd,136.26,219.99,122.47,,,Unlimited,SBD,M,
Boys,139.71+,1,Bryton Starr,Denison,144.51,249.48,163.29,247.21,659.98,Unlimited,SBD,M,
Boys,139.71+,2,Gomez Rick,McKinney North,146.6,226.8,142.88,233.6,603.28,Unlimited,SBD,M,
Boys,139.71+,3,Jharoski Bingham,Princeton,141.16,240.4,172.37,188.24,601.01,Unlimited,SBD,M,
Boys,139.71+,4,Jimmy Graham,Lewisville Marcus,140.7,233.6,151.95,206.38,591.94,Unlimited,SBD,M,
Boys,139.71+,5,Byron Coldicott,Pottsboro,148.6,219.99,136.08,181.44,537.51,Unlimited,SBD,M,
Boys,139.71+,6,Ryder Soderman,McKinney,142.25,201.85,106.59,204.12,512.56,Unlimited,SBD,M,
Boys,139.71+,7,Daniel Montemayor,Little Elm,144.15,165.56,117.93,197.31,480.81,Unlimited,SBD,M,
Boys,139.71+,DQ,Barnes Cory,McKinney North,154.04,226.8,154.22,,,Unlimited,SBD,M,
