Division,WeightClassKg,Place,Name,Team,BodyweightKg,Best3SquatKg,Best3BenchKg,Best3DeadliftKg,TotalKg,Equipment,Event,Sex,BirthDate
Boys,51.71,1,Conner Myrow,Pittsburg,50.71,106.59,65.77,113.4,285.76,Unlimited,SBD,M,
Boys,51.71,2,Jaiden Shadowen,White Oak,50.8,102.06,58.97,108.86,269.89,Unlimited,SBD,M,
Boys,51.71,3,Alejandro Castro,Mount Pleasant,50.35,92.99,54.43,120.2,267.62,Unlimited,SBD,M,
Boys,51.71,4,Landon Hartman,White Oak,51.26,97.52,54.43,106.59,258.55,Unlimited,SBD,M,
Boys,51.71,5,Oscar Aguilar,Gladewater Sabine,48.08,92.99,52.16,90.72,235.87,Unlimited,SBD,M,
Boys,51.71,6,Braden Elliot,White Oak,46.27,77.11,45.36,92.99,215.46,Unlimited,SBD,M,
Boys,55.79,1,Shiloh O Brien,Gladewater Sabine,55.61,161.03,92.99,151.95,405.97,Unlimited,SBD,M,
Boys,55.79,2,Dylan Walls,Gladewater Sabine,54.98,165.56,72.57,158.76,396.89,Unlimited,SBD,M,
Boys,55.79,3,Owen Gee,White Oak,55.34,127.01,79.38,147.42,353.8,Unlimited,SBD,M,
Boys,55.79,4,Chris Smith,Laird Hill Leveretts Chapel,55.61,117.93,90.72,136.08,344.73,Unlimited,SBD,M,
Boys,55.79,5,Ramiro Reyes,Pittsburg,55.7,99.79,61.23,120.2,281.23,Unlimited,SBD,M,
Boys,55.79,6,Hayden Crews,Laird Hill Leveretts Chapel,54.7,70.31,54.43,102.06,226.8,Unlimited,SBD,M,
Boys,59.87,1,Lucas Woolem,Ore City,57.97,183.7,104.33,165.56,453.59,Unlimited,SBD,M,
Boys,59.87,2,Isaac Tapia,Hallsville,59.06,158.76,83.91,165.56,408.23,Unlimited,SBD,M,
Boys,59.87,3,Jayce Parker,White Oak,59.06,147.42,95.25,151.95,394.63,Unlimited,SBD,M,
Boys,59.87,4,Brody Perschbacher,Pittsburg,59.42,142.88,90.72,142.88,376.48,Unlimited,SBD,M,
Boys,59.87,5,Jeremy Weir,Hallsville,59.42,138.35,90.72,142.88,371.95,Unlimited,SBD,M,
Boys,59.87,6,Blake Broach,Mount Pleasant,58.97,129.27,81.65,133.81,344.73,Unlimited,SBD,M,
Boys,59.87,7,Marcos Munoz,Big Sandy Harmony,59.78,127.01,74.84,133.81,335.66,Unlimited,SBD,M,
Boys,59.87,8,Aden Luna,Ore City,58.51,120.2,81.65,127.01,328.85,Unlimited,SBD,M,
Boys,59.87,9,Caleb Inocencio,Ore City,59.69,122.47,68.04,133.81,324.32,Unlimited,SBD,M,
Boys,59.87,10,Chase Carroll,White Oak,59.87,117.93,63.5,133.81,315.25,Unlimited,SBD,M,
Boys,59.87,11,Atticus Day-Aleman,Hughes Springs,58.06,111.13,72.57,120.2,303.91,Unlimited,SBD,M,
Boys,59.87,12,Jerrico Odum,Ore City,56.34,99.79,81.65,97.52,278.96,Unlimited,SBD,M,
Boys,59.87,DQ,Toby Pulce,Jefferson,59.87,,,,,Unlimited,SBD,M,
Boys,59.87,DQ,Caleb Kimble,Queen City,59.87,108.86,68.04,136.08,,Unlimited,SBD,M,
Boys,59.87,DQ,Cooper Pickitt,Big Sandy Harmony,59.69,163.29,88.45,149.69,,Unlimited,SBD,M,
Boys,67.13,1,Parker Harris,Mineola,67.04,183.7,102.06,181.44,467.2,Unlimited,SBD,M,
Boys,67.13,2,Carter Peters,Gladewater Sabine,64.32,165.56,111.13,156.49,433.18,Unlimited,SBD,M,
Boys,67.13,3,Colin Etheridge,Gladewater Sabine,65.5,154.22,104.33,151.95,410.5,Unlimited,SBD,M,
Boys,67.13,4,Hunter Caraway,Harleton,62.41,170.1,83.91,149.69,403.7,Unlimited,SBD,M,
Boys,67.13,5,Kaiden Butler,Pittsburg,65.68,142.88,90.72,156.49,390.09,Unlimited,SBD,M,
Boys,67.13,6,Logan Byrd,Big Sandy Harmony,60.15,136.08,86.18,136.08,358.34,Unlimited,SBD,M,
Boys,67.13,7,Jose Herrera-Flores,Pittsburg,65.77,120.2,77.11,142.88,340.19,Unlimited,SBD,M,
Boys,67.13,8,Tatum Lazzereschi,Hallsville,61.78,127.01,74.84,127.01,328.85,Unlimited,SBD,M,
Boys,67.13,9,Wyatt Peacock,Queen City,63.59,111.13,77.11,136.08,324.32,Unlimited,SBD,M,
Boys,67.13,10,Isaiah Mayes,White Oak,63.05,108.86,72.57,131.54,312.98,Unlimited,SBD,M,
Boys,67.13,11,Seth Escobar,Pittsburg,65.86,127.01,63.5,122.47,312.98,Unlimited,SBD,M,
Boys,67.13,12,Luke Bueno,White Oak,62.14,79.38,52.16,97.52,229.06,Unlimited,SBD,M,
Boys,67.13,DQ,Isaac Thomas,Queen City,67.13,111.13,77.11,136.08,,Unlimited,SBD,M,
Boys,67.13,DQ,Evan Mefford,Hughes Springs,67.13,115.67,74.84,115.67,,Unlimited,SBD,M,
Boys,67.13,DQ,Caleb Correa,Harleton,63.32,147.42,86.18,149.69,,Unlimited,SBD,M,
Boys,74.84,1,Joe Ray,Gladewater Sabine,74.12,247.21,149.69,233.6,630.49,Unlimited,SBD,M,
Boys,74.84,2,Hunter Branson,Hallsville,74.57,219.99,174.63,233.6,628.23,Unlimited,SBD,M,
Boys,74.84,3,Luis Alvarado,Mount Pleasant,74.3,213.19,122.47,192.78,528.44,Unlimited,SBD,M,
Boys,74.84,4,Brody Patton,Big Sandy Harmony,73.3,188.24,129.27,179.17,496.68,Unlimited,SBD,M,
Boys,74.84,5,Jason Oquinn,Harleton,74.75,176.9,106.59,167.83,451.32,Unlimited,SBD,M,
Boys,74.84,6,Lucas Duncan,Harleton,74.84,192.78,92.99,163.29,449.06,Unlimited,SBD,M,
Boys,74.84,7,James Phillips,Hughes Springs,71.4,170.1,97.52,172.37,439.98,Unlimited,SBD,M,
Boys,74.84,8,Blaine Shaw,Hughes Springs,71.76,170.1,106.59,151.95,428.64,Unlimited,SBD,M,
Boys,74.84,9,Blaine Harris,Mineola,73.75,151.95,99.79,163.29,415.04,Unlimited,SBD,M,
Boys,74.84,10,Cash Scalia,White Oak,68.95,147.42,88.45,170.1,405.97,Unlimited,SBD,M,
Boys,74.84,11,Jusber Nena,Cumby,73.75,156.49,106.59,142.88,405.97,Unlimited,SBD,M,
Boys,74.84,12,Jacob Watson,White Oak,74.66,124.74,68.04,138.35,331.12,Unlimited,SBD,M,
Boys,74.84,DQ,Trent Treadway,Queen City,74.84,129.27,79.38,151.95,,Unlimited,SBD,M,
Boys,74.84,DQ,Ty Gala,Hallsville,74.84,206.38,115.67,219.99,,Unlimited,SBD,M,
Boys,74.84,DQ,Conner Casselman,Hallsville,74.84,188.24,108.86,170.1,,Unlimited,SBD,M,
Boys,74.84,DQ,Aj Woods,Harleton,67.59,170.1,90.72,183.7,,Unlimited,SBD,M,
Boys,74.84,DQ,Brendan Scott,Harleton,67.86,163.29,108.86,174.63,,Unlimited,SBD,M,
Boys,74.84,DQ,Michael Stevenson,White Oak,72.57,120.2,83.91,151.95,,Unlimited,SBD,M,
Boys,82.1,1,Medellin Moses,Mineola,81.83,238.14,161.03,235.87,635.03,Unlimited,SBD,M,
Boys,82.1,2,Delvon Federick,Queen City,81.47,235.87,124.74,251.74,612.35,Unlimited,SBD,M,
Boys,82.1,3,Juymill Lewis,Mount Pleasant,81.74,208.65,133.81,222.26,564.72,Unlimited,SBD,M,
Boys,82.1,4,Jordan Vickers,Pittsburg,80.65,192.78,127.01,206.38,526.17,Unlimited,SBD,M,
Boys,82.1,5,Rhyder Richardson,Gladewater Sabine,76.57,190.51,120.2,195.04,505.76,Unlimited,SBD,M,
Boys,82.1,6,Jose Garcia,White Oak,80.74,190.51,117.93,192.78,501.22,Unlimited,SBD,M,
Boys,82.1,7,Demarion Brown,Laird Hill Leveretts Chapel,79.92,190.51,113.4,190.51,494.42,Unlimited,SBD,M,
Boys,82.1,8,Austin Blalock,Mineola,77.84,188.24,124.74,170.1,483.08,Unlimited,SBD,M,
Boys,82.1,9,Cade Wright,Harleton,76.57,183.7,108.86,181.44,474,Unlimited,SBD,M,
Boys,82.1,10,Adam Caldwell,White Oak,77.56,174.63,97.52,185.97,458.13,Unlimited,SBD,M,
Boys,82.1,11,George Lindsey,Hughes Springs,78.2,174.63,102.06,176.9,453.59,Unlimited,SBD,M,
Boys,82.1,12,Tyler May,Gladewater Sabine,79.65,154.22,92.99,151.95,399.16,Unlimited,SBD,M,
Boys,82.1,13,Connor Hodges,White Oak,79.83,151.95,77.11,161.03,390.09,Unlimited,SBD,M,
Boys,82.1,14,Thomas Sullivan,White Oak,80.74,154.22,83.91,142.88,381.02,Unlimited,SBD,M,
Boys,82.1,15,Kanyon Compton,Queen City,80.92,122.47,74.84,151.95,349.27,Unlimited,SBD,M,
Boys,82.1,DQ,Cameron Johnson,Harleton,82.1,213.19,129.27,199.58,,Unlimited,SBD,M,
Boys,82.1,DQ,Xayden Else,Jefferson,82.1,158.76,68.04,142.88,,Unlimited,SBD,M,
Boys,82.1,DQ,Jonathan Turner,Mount Pleasant,82.1,192.78,122.47,192.78,,Unlimited,SBD,M,
Boys,82.1,DQ,Davyon Mapps,Diana New Diana,76.29,199.58,117.93,210.92,,Unlimited,SBD,M,
Boys,82.1,DQ,Aaron Garcia,Pittsburg,75.39,151.95,79.38,156.49,,Unlimited,SBD,M,
Boys,89.81,1,Caleb Allen,Hallsville,87.72,240.4,151.95,222.26,614.62,Unlimited,SBD,M,
Boys,89.81,2,Joseph Royce,Gladewater Sabine,89.63,215.46,170.1,224.53,610.08,Unlimited,SBD,M,
Boys,89.81,3,Walt Surholt,Hallsville,88,226.8,149.69,226.8,603.28,Unlimited,SBD,M,
Boys,89.81,4,Christian Nard,Queen City,85.09,206.38,120.2,215.46,542.04,Unlimited,SBD,M,
Boys,89.81,5,Lane Green,Diana New Diana,82.46,181.44,133.81,183.7,498.95,Unlimited,SBD,M,
Boys,89.81,6,Trent Wheat,Laird Hill Leveretts Chapel,88.27,188.24,113.4,192.78,494.42,Unlimited,SBD,M,
Boys,89.81,7,Eddie Guerra,Mineola,83.46,190.51,106.59,192.78,489.88,Unlimited,SBD,M,
Boys,89.81,8,Cason Patterson,Gladewater Sabine,85.37,183.7,127.01,165.56,476.27,Unlimited,SBD,M,
Boys,89.81,9,Mason Gatlin,Gladewater Sabine,89.63,158.76,124.74,172.37,455.86,Unlimited,SBD,M,
Boys,89.81,10,Zachary Massey,Hughes Springs,83.19,161.03,102.06,154.22,417.3,Unlimited,SBD,M,
Boys,89.81,11,Gavyn Johnson,Hallsville,89.72,127.01,81.65,129.27,337.93,Unlimited,SBD,M,
Boys,89.81,12,Marshal O Brien,White Oak,87.27,95.25,65.77,124.74,285.76,Unlimited,SBD,M,
Boys,89.81,DQ,Maxx Cantu,Hughes Springs,89.81,151.95,104.33,151.95,,Unlimited,SBD,M,
Boys,89.81,DQ,Myles Khron,Harleton,89.81,151.95,104.33,181.44,,Unlimited,SBD,M,
Boys,89.81,DQ,Seth Robertson,Mount Pleasant,89.81,176.9,99.79,190.51,,Unlimited,SBD,M,
Boys,89.81,DQ,Holdin Miller,White Oak,86.18,195.04,122.47,195.04,,Unlimited,SBD,M,
Boys,99.79,1,Noel Fajardo,Harleton,99.61,256.28,145.15,267.62,669.05,Unlimited,SBD,M,
Boys,99.79,2,Felipe Juarez,Hallsville,94.71,244.94,154.22,263.08,662.24,Unlimited,SBD,M,
Boys,99.79,3,Sam Black,Gladewater Sabine,99.43,272.16,142.88,242.67,657.71,Unlimited,SBD,M,
Boys,99.79,4,Devon Burtness,Mount Pleasant,97.34,256.28,174.63,224.53,655.44,Unlimited,SBD,M,
Boys,99.79,5,Ryder Marshall,Mount Pleasant,97.52,219.99,165.56,242.67,628.23,Unlimited,SBD,M,
Boys,99.79,6,Bruno DeLeon,Mount Pleasant,96.71,204.12,147.42,201.85,553.38,Unlimited,SBD,M,
Boys,99.79,7,Clayton Eitelman,Hallsville,99.06,217.72,136.08,199.58,553.38,Unlimited,SBD,M,
Boys,99.79,8,Sebastian Rodriguez,Diana New Diana,96.16,208.65,136.08,201.85,546.58,Unlimited,SBD,M,
Boys,99.79,9,Konner Ellison,Big Sandy Harmony,95.8,183.7,127.01,199.58,510.29,Unlimited,SBD,M,
Boys,99.79,10,Gage Davison,White Oak,99.79,206.38,92.99,192.78,492.15,Unlimited,SBD,M,
Boys,99.79,11,Brandon Laxton,Harleton,94.89,192.78,120.2,167.83,480.81,Unlimited,SBD,M,
Boys,99.79,12,Kentrell Perry,Jefferson,99.79,174.63,131.54,174.63,480.81,Unlimited,SBD,M,
Boys,99.79,13,Dillon Sanchez,White Oak,95.8,188.24,104.33,185.97,478.54,Unlimited,SBD,M,
Boys,99.79,14,Kent Odum,Ore City,90.17,145.15,113.4,147.42,405.97,Unlimited,SBD,M,
Boys,99.79,15,Cooper Bridges,White Oak,92.99,151.95,86.18,151.95,390.09,Unlimited,SBD,M,
Boys,99.79,16,Alex Dorris,Jefferson,95.35,151.95,83.91,133.81,369.68,Unlimited,SBD,M,
Boys,99.79,17,Jaun Cedillo,Laird Hill Leveretts Chapel,92.44,92.99,61.23,115.67,269.89,Unlimited,SBD,M,
Boys,99.79,DQ,Corey Modisettte,Laird Hill Leveretts Chapel,99.79,,,,,Unlimited,SBD,M,
Boys,99.79,DQ,Joey Peery,Laird Hill Leveretts Chapel,99.79,,,,,Unlimited,SBD,M,
Boys,99.79,DQ,Juan Villanueva,Mineola,99.79,190.51,124.74,188.24,,Unlimited,SBD,M,
Boys,99.79,DQ,Sammy Avalos,Laird Hill Leveretts Chapel,99.79,111.13,83.91,115.67,,Unlimited,SBD,M,
Boys,99.79,DQ,Billy Prince,Hughes Springs,99.79,183.7,124.74,204.12,,Unlimited,SBD,M,
Boys,99.79,DQ,Karson Brown,Mount Pleasant,96.43,174.63,115.67,174.63,,Unlimited,SBD,M,
Boys,109.77,1,Jose Gonzalez #28,Mount Pleasant,102.42,265.35,197.31,238.14,700.8,Unlimited,SBD,M,
Boys,109.77,2,Dawson Brooks,Gladewater Sabine,109.5,256.28,192.78,231.33,680.39,Unlimited,SBD,M,
Boys,109.77,3,Bryce Lockhart,Harleton,107.59,249.48,170.1,226.8,646.37,Unlimited,SBD,M,
Boys,109.77,4,Bryson Myers,Mineola,106.68,240.4,154.22,213.19,607.81,Unlimited,SBD,M,
Boys,109.77,5,Luis Inocencio,Ore City,100.79,222.26,138.35,199.58,560.19,Unlimited,SBD,M,
Boys,109.77,6,Grayson Howard,Diana New Diana,109.68,217.72,120.2,217.72,555.65,Unlimited,SBD,M,
Boys,109.77,7,Jackson Thorp,White Oak,108.86,213.19,117.93,195.04,526.17,Unlimited,SBD,M,
Boys,109.77,8,Bobby Smith,Hughes Springs,100.79,179.17,120.2,188.24,487.61,Unlimited,SBD,M,
Boys,109.77,9,Eddrick Irving,Mineola,106.14,188.24,122.47,167.83,478.54,Unlimited,SBD,M,
Boys,109.77,10,David Liedtke,Hughes Springs,107.59,179.17,102.06,192.78,474,Unlimited,SBD,M,
Boys,109.77,DQ,Alec Vickers,Laird Hill Leveretts Chapel,109.77,,,,,Unlimited,SBD,M,
Boys,109.77,DQ,Jatavion Harris,Jefferson,101.15,183.7,111.13,176.9,,Unlimited,SBD,M,
Boys,124.74,1,Michael Sanchez,Big Sandy Harmony,120.2,263.08,188.24,231.33,682.66,Unlimited,SBD,M,
Boys,124.74,2,Clayton Miller,Mount Pleasant,112.94,233.6,192.78,226.8,653.17,Unlimited,SBD,M,
Boys,124.74,3,Daniel Jones,Queen City,118.21,260.82,145.15,247.21,653.17,Unlimited,SBD,M,
Boys,124.74,4,Roberto Aguilar,Diana New Diana,123.56,229.06,158.76,229.06,616.89,Unlimited,SBD,M,
Boys,124.74,5,Alexzavior Pryor,Jefferson,114.94,260.82,142.88,210.92,614.62,Unlimited,SBD,M,
Boys,124.74,6,Javaryon Brumsey,Mineola,116.85,254.01,142.88,215.46,612.35,Unlimited,SBD,M,
Boys,124.74,7,Peyton Murray,Harleton,120.2,254.01,138.35,219.99,612.35,Unlimited,SBD,M,
Boys,124.74,8,Luis Gomez,Jefferson,121.29,213.19,158.76,195.04,566.99,Unlimited,SBD,M,
Boys,124.74,9,Kelton Lee,Gladewater Sabine,118.48,215.46,147.42,183.7,546.58,Unlimited,SBD,M,
Boys,124.74,10,Jack Floyd,Harleton,120.56,224.53,106.59,185.97,517.1,Unlimited,SBD,M,
Boys,124.74,11,Jaxon Joseph,Jefferson,112.58,195.04,113.4,170.1,478.54,Unlimited,SBD,M,
Boys,124.74,12,Alex Gaspar,Pittsburg,110.22,172.37,111.13,181.44,464.93,Unlimited,SBD,M,
Boys,124.74,13,Grayson DuPont,Mineola,124.65,176.9,113.4,167.83,458.13,Unlimited,SBD,M,
Boys,124.74,14,JaMaurie Williams,Jefferson,120.38,181.44,108.86,156.49,446.79,Unlimited,SBD,M,
Boys,124.74,15,Dylan Anderson,White Oak,119.93,163.29,111.13,170.1,444.52,Unlimited,SBD,M,
Boys,124.74,16,Bryant Breach,Queen City,111.95,149.69,88.45,120.2,358.34,Unlimited,SBD,M,
Boys,124.74,17,Isaiah May,Ore City,117.03,149.69,74.84,131.54,356.07,Unlimited,SBD,M,
Boys,124.74,DQ,Garrett Allsup,Hallsville,124.74,240.4,142.88,206.38,,Unlimited,SBD,M,
Boys,124.74,DQ,Tyson Bell,Queen City,110.59,201.85,129.27,210.92,,Unlimited,SBD,M,
Boys,124.74,DQ,Casen Cox,Big Sandy Harmony,114.94,197.31,131.54,181.44,,Unlimited,SBD,M,
Boys,139.71,1,Bryce Clark,Jefferson,138.89,317.51,244.94,240.4,802.86,Unlimited,SBD,M,
Boys,139.71,2,Zackary Hulscher,Jefferson,137.17,283.5,147.42,240.4,671.32,Unlimited,SBD,M,
Boys,139.71,3,Trenten Akers,Hughes Springs,136.53,249.48,138.35,226.8,614.62,Unlimited,SBD,M,
Boys,139.71,4,Kayden Johnson,Harleton,128.64,224.53,122.47,190.51,537.51,Unlimited,SBD,M,
Boys,139.71,5,Riley Newkirk,Queen City,135.71,204.12,124.74,181.44,510.29,Unlimited,SBD,M,
Boys,139.71,6,Chilo Applegate,Mineola,126.73,185.97,129.27,192.78,508.02,Unlimited,SBD,M,
Boys,139.71,7,Colton Fugler,Harleton,137.98,215.46,120.2,170.1,505.76,Unlimited,SBD,M,
Boys,139.71,8,Javonte Smith,Pittsburg,134.63,167.83,104.33,197.31,469.47,Unlimited,SBD,M,
Boys,139.71,9,Cris Marmolejo,Gladewater Sabine,131.36,176.9,92.99,179.17,449.06,Unlimited,SBD,M,
Boys,139.71,DQ,Ballard Trip,Big Sandy Harmony,138.53,174.63,97.52,124.74,,Unlimited,SBD,M,
Boys,139.71,DQ,Gavin Meadows,White Oak,125.92,192.78,124.74,181.44,,Unlimited,SBD,M,
Boys,139.71,DQ,David Jackson,Queen City,125.83,249.48,138.35,219.99,,Unlimited,SBD,M,
Boys,139.71+,1,Juan Cervantes,Mineola,140.52,240.4,174.63,226.8,641.83,Unlimited,SBD,M,
Boys,139.71+,2,Zane Sears,Harleton,154.77,210.92,140.61,188.24,539.77,Unlimited,SBD,M,
Boys,139.71+,3,Joey Langley,White Oak,165.11,183.7,90.72,195.04,469.47,Unlimited,SBD,M,
Boys,139.71+,4,Brody Smith,Hughes Springs,148.51,138.35,97.52,142.88,378.75,Unlimited,SBD,M,
