Division,WeightClassKg,Place,Name,Team,BodyweightKg,Best3SquatKg,Best3BenchKg,Best3DeadliftKg,TotalKg,Equipment,Event,Sex,BirthDate
Boys,51.71,1,Allan Cellars,Killeen,46.72,102.06,54.43,122.47,278.96,Unlimited,SBD,M,
Boys,51.71,2,Miguel Juarez,Rosebud-Lott,48.08,92.99,52.16,113.4,258.55,Unlimited,SBD,M,
Boys,51.71,3,Malcolm Aycock,Waco University,48.53,81.65,49.9,111.13,242.67,Unlimited,SBD,M,
Boys,51.71,4,Anthony Anderson,Belton,48.53,90.72,52.16,90.72,233.6,Unlimited,SBD,M,
Boys,51.71,5,Kavon Breedlove,Lake Belton,51.71,79.38,52.16,102.06,233.6,Unlimited,SBD,M,
Boys,51.71,6,Mark Degano,Killeen Shoemaker,49.44,83.91,43.09,99.79,226.8,Unlimited,SBD,M,
Boys,51.71,7,Braden James,Copperas Cove,41.73,74.84,38.56,77.11,190.51,Unlimited,SBD,M,
Boys,51.71,DQ,Corbin Wittman,Belton,48.99,124.74,,,,Unlimited,SBD,M,
Boys,55.79,1,Timothy Kruger,Rosebud-Lott,55.34,142.88,90.72,133.81,367.41,Unlimited,SBD,M,
Boys,55.79,2,Christopher Varona,Copperas Cove,54.88,133.81,61.23,136.08,331.12,Unlimited,SBD,M,
Boys,55.79,3,Eric Mondragon,Waco University,55.79,115.67,77.11,136.08,328.85,Unlimited,SBD,M,
Boys,55.79,4,Owen Rivera,Belton,55.34,117.93,83.91,124.74,326.59,Unlimited,SBD,M,
Boys,55.79,5,Blake Bulls,Lake Belton,54.43,83.91,47.63,102.06,233.6,Unlimited,SBD,M,
Boys,55.79,6,Carl Huffman,Lake Belton,55.34,61.23,61.23,111.13,233.6,Unlimited,SBD,M,
Boys,55.79,DQ,Mikey Nguyen,Temple,55.79,,,,,Unlimited,SBD,M,
Boys,59.87,1,Kato Mattair,Rosebud-Lott,58.97,156.49,104.33,174.63,435.45,Unlimited,SBD,M,
Boys,59.87,2,Aidan Valdez,Rosebud-Lott,59.42,145.15,95.25,158.76,399.16,Unlimited,SBD,M,
Boys,59.87,3,Jace Estores,Copperas Cove,59.87,129.27,81.65,142.88,353.8,Unlimited,SBD,M,
Boys,59.87,4,Héctor Sánchez,Killeen,58.51,111.13,74.84,156.49,342.46,Unlimited,SBD,M,
Boys,59.87,5,Josiah Briggs,Lake Belton,58.06,74.84,65.77,90.72,231.33,Unlimited,SBD,M,
Boys,59.87,6,Ethan Garcia,Lake Belton,59.87,70.31,38.56,74.84,183.7,Unlimited,SBD,M,
Boys,59.87,DQ,Flavio Gabriel,Killeen Shoemaker,59.87,,,,,Unlimited,SBD,M,
Boys,67.13,1,Dewayne Simmons,Waco,66.22,188.24,115.67,204.12,508.02,Unlimited,SBD,M,
Boys,67.13,2,Quintarius Fisher,Waco,67.13,179.17,122.47,204.12,505.76,Unlimited,SBD,M,
Boys,67.13,3,Tristan Pettit,Copperas Cove,67.13,183.7,104.33,206.38,494.42,Unlimited,SBD,M,
Boys,67.13,4,Chason Rochelle,Waco Midway,65.32,195.04,102.06,195.04,492.15,Unlimited,SBD,M,
Boys,67.13,5,Damario Molten Moreno,Waco Midway,65.32,192.78,90.72,206.38,489.88,Unlimited,SBD,M,
Boys,67.13,6,Dustin Ferrell,Waco Midway,64.86,183.7,92.99,199.58,476.27,Unlimited,SBD,M,
Boys,67.13,7,Lil'Steven Loyd,Waco,67.13,176.9,102.06,188.24,467.2,Unlimited,SBD,M,
Boys,67.13,8,Gino Zecca,Belton,66.22,167.83,104.33,181.44,453.59,Unlimited,SBD,M,
Boys,67.13,9,Adrian Cashaw,Waco Midway,63.96,183.7,108.86,142.88,435.45,Unlimited,SBD,M,
Boys,67.13,10,Emanuel Santiago-Rodriguez,Temple,65.32,156.49,97.52,170.1,424.11,Unlimited,SBD,M,
Boys,67.13,11,Tavian Spencer,Killeen Harker Heights,66.22,151.95,95.25,138.35,385.55,Unlimited,SBD,M,
Boys,67.13,12,Josiah Callands,Killeen Harker Heights,66.22,124.74,99.79,142.88,367.41,Unlimited,SBD,M,
Boys,67.13,13,Justin Dixon,Rosebud-Lott,66.68,129.27,81.65,140.61,351.53,Unlimited,SBD,M,
Boys,67.13,14,Angel Lemus,Killeen Shoemaker,63.05,117.93,68.04,163.29,349.27,Unlimited,SBD,M,
Boys,67.13,15,Jeff Raoelina,Copperas Cove,63.96,133.81,83.91,131.54,349.27,Unlimited,SBD,M,
Boys,67.13,16,Joseph Steptore,Killeen Harker Heights,65.32,115.67,81.65,145.15,342.46,Unlimited,SBD,M,
Boys,67.13,17,Terrence Dunn,Waco University,67.13,113.4,77.11,147.42,337.93,Unlimited,SBD,M,
Boys,67.13,18,Jaxson Salazar,Lake Belton,63.05,104.33,72.57,136.08,312.98,Unlimited,SBD,M,
Boys,67.13,19,Julian Garza,Cameron Yoe,60.33,106.59,72.57,129.27,308.44,Unlimited,SBD,M,
Boys,67.13,20,Konner Winter,Killeen Harker Heights,64.41,102.06,65.77,124.74,292.57,Unlimited,SBD,M,
Boys,67.13,DQ,Taize Fajardo,Killeen Harker Heights,66.22,,,,,Unlimited,SBD,M,
Boys,67.13,DQ,Bryan Stanfield,Temple,65.77,136.08,77.11,,,Unlimited,SBD,M,
Boys,67.13,DQ,Sherman Davis,Temple,67.13,,,,,Unlimited,SBD,M,
Boys,67.13,DQ,Kaden Grim,Waco University,67.13,,,,,Unlimited,SBD,M,
Boys,74.84,1,Josiah Harrison,Temple,72.12,226.8,142.88,240.4,610.08,Unlimited,SBD,M,
Boys,74.84,2,Atticus Miller,Waco,74.39,204.12,140.61,249.48,594.21,Unlimited,SBD,M,
Boys,74.84,3,Patrick Hart,Lake Belton,73.48,183.7,129.27,195.04,508.02,Unlimited,SBD,M,
Boys,74.84,4,Kyson Ignacio,Copperas Cove,71.67,172.37,102.06,197.31,471.74,Unlimited,SBD,M,
Boys,74.84,5,Hugo Costilla,Rosebud-Lott,74.39,181.44,115.67,172.37,469.47,Unlimited,SBD,M,
Boys,74.84,6,Giani Zecca,Belton,73.94,181.44,108.86,176.9,467.2,Unlimited,SBD,M,
Boys,74.84,7,Jax Holliman,Lake Belton,71.21,161.03,113.4,165.56,439.98,Unlimited,SBD,M,
Boys,74.84,8,Zechariah Ruiz,Waco University,71.21,156.49,108.86,170.1,435.45,Unlimited,SBD,M,
Boys,74.84,9,Brylie Agpoa,Killeen Shoemaker,74.39,161.03,86.18,183.7,430.91,Unlimited,SBD,M,
Boys,74.84,10,Anthony Beverly,Killeen,73.03,161.03,102.06,165.56,428.64,Unlimited,SBD,M,
Boys,74.84,11,Thomas Morter,Belton,74.39,161.03,90.72,172.37,424.11,Unlimited,SBD,M,
Boys,74.84,12,Blake Baty,Lake Belton,73.48,161.03,90.72,149.69,401.43,Unlimited,SBD,M,
Boys,74.84,13,Taylan Houston,Killeen,69.4,124.74,95.25,176.9,396.89,Unlimited,SBD,M,
Boys,74.84,14,Castrillo Riley,Waco Midway,70.31,142.88,95.25,149.69,387.82,Unlimited,SBD,M,
Boys,74.84,15,Bryan Villafranco Espinosa,Temple,71.67,129.27,99.79,158.76,387.82,Unlimited,SBD,M,
Boys,74.84,16,Andru Spence,Waco Midway,69.85,142.88,92.99,149.69,385.55,Unlimited,SBD,M,
Boys,74.84,17,Cody Avant,Rosebud-Lott,68.04,154.22,70.31,149.69,374.21,Unlimited,SBD,M,
Boys,74.84,18,Adrian Garcia,Killeen Harker Heights,74.84,86.18,58.97,151.95,297.1,Unlimited,SBD,M,
Boys,74.84,19,Carter Paulson,Killeen Shoemaker,68.49,90.72,54.43,102.06,247.21,Unlimited,SBD,M,
Boys,74.84,DQ,Sebastian Rivera,Killeen Shoemaker,74.84,,,,,Unlimited,SBD,M,
Boys,74.84,DQ,Josue Castillo Reyes,Killeen,68.95,142.88,,,,Unlimited,SBD,M,
Boys,74.84,DQ,Logan Ricks,Belton,71.67,204.12,111.13,,,Unlimited,SBD,M,
Boys,74.84,DQ,Matthew Birdwell,Killeen Shoemaker,74.84,,,,,Unlimited,SBD,M,
Boys,82.1,1,Trent Ingram,Waco Midway,80.29,226.8,138.35,210.92,576.06,Unlimited,SBD,M,
Boys,82.1,2,Kevin Alafa,Belton,81.19,201.85,129.27,210.92,542.04,Unlimited,SBD,M,
Boys,82.1,3,Alvin Clarkson-Williams,Rosebud-Lott,82.1,199.58,133.81,172.37,505.76,Unlimited,SBD,M,
Boys,82.1,4,Aiden Brudnicki,Copperas Cove,81.65,181.44,124.74,188.24,494.42,Unlimited,SBD,M,
Boys,82.1,5,Logan Tays,Rosebud-Lott,76.66,172.37,102.06,165.56,439.98,Unlimited,SBD,M,
Boys,82.1,6,Jayden Alba,Lake Belton,80.29,151.95,104.33,172.37,428.64,Unlimited,SBD,M,
Boys,82.1,7,Logan Jones,Copperas Cove,81.19,147.42,95.25,179.17,421.84,Unlimited,SBD,M,
Boys,82.1,8,Colton Burk,Copperas Cove,75.75,142.88,97.52,170.1,410.5,Unlimited,SBD,M,
Boys,82.1,9,Patricio Gandara,Lake Belton,78.93,142.88,83.91,158.76,385.55,Unlimited,SBD,M,
Boys,82.1,10,Hunter Crabtree,Killeen Harker Heights,80.74,108.86,83.91,154.22,347,Unlimited,SBD,M,
Boys,82.1,11,Austin Winters,Killeen Harker Heights,79.38,102.06,79.38,136.08,317.51,Unlimited,SBD,M,
Boys,82.1,12,Joesph Casmus,Lake Belton,79.38,106.59,83.91,120.2,310.71,Unlimited,SBD,M,
Boys,82.1,DQ,Jasiyah Riley,Killeen Shoemaker,82.1,,,,,Unlimited,SBD,M,
Boys,89.81,1,Jer'Vonnie Williams,Temple,84.37,235.87,129.27,249.48,614.62,Unlimited,SBD,M,
Boys,89.81,2,Gabriel Maxey,Copperas Cove,86.18,224.53,149.69,210.92,585.13,Unlimited,SBD,M,
Boys,89.81,3,Brandon Molina,Killeen,85.73,199.58,113.4,226.8,539.77,Unlimited,SBD,M,
Boys,89.81,4,Daniel Clarke,Copperas Cove,89.36,206.38,124.74,192.78,523.9,Unlimited,SBD,M,
Boys,89.81,5,Jaylen Gude,Waco,89.36,192.78,115.67,208.65,517.1,Unlimited,SBD,M,
Boys,89.81,6,Chris Hiatt,Waco Midway,88,204.12,120.2,188.24,512.56,Unlimited,SBD,M,
Boys,89.81,7,Jovani Clinton,Killeen Shoemaker,83.91,172.37,149.69,188.24,510.29,Unlimited,SBD,M,
Boys,89.81,8,Kamareon Kindle,Waco University,82.55,183.7,120.2,201.85,505.76,Unlimited,SBD,M,
Boys,89.81,9,Javon Bryant,Waco,89.81,190.51,111.13,201.85,503.49,Unlimited,SBD,M,
Boys,89.81,10,Chase Hamilton,Copperas Cove,89.36,195.04,115.67,190.51,501.22,Unlimited,SBD,M,
Boys,89.81,11,Gavin Nutt,Killeen Harker Heights,89.36,165.56,138.35,183.7,487.61,Unlimited,SBD,M,
Boys,89.81,12,Travellis Harrison,Lake Belton,82.55,170.1,97.52,204.12,471.74,Unlimited,SBD,M,
Boys,89.81,13,Brandon Evans,Killeen,88,179.17,102.06,183.7,464.93,Unlimited,SBD,M,
Boys,89.81,14,Andrew Solomon,Temple,87.09,156.49,108.86,188.24,453.59,Unlimited,SBD,M,
Boys,89.81,15,Cade Twist,Lake Belton,87.54,158.76,113.4,170.1,442.25,Unlimited,SBD,M,
Boys,89.81,16,Elijah Parada,Temple,84.37,149.69,97.52,176.9,424.11,Unlimited,SBD,M,
Boys,89.81,17,Gavin Reeves,Waco Midway,85.28,176.9,106.59,136.08,419.57,Unlimited,SBD,M,
Boys,89.81,18,Juarez Jose,Rosebud-Lott,83.01,136.08,97.52,142.88,376.48,Unlimited,SBD,M,
Boys,89.81,19,Christian Benner,Lake Belton,84.37,147.42,90.72,138.35,376.48,Unlimited,SBD,M,
Boys,89.81,20,Avion Lucas,Killeen Shoemaker,87.09,136.08,81.65,158.76,376.48,Unlimited,SBD,M,
Boys,89.81,21,Adam Namkng,Lake Belton,83.91,131.54,92.99,149.69,374.21,Unlimited,SBD,M,
Boys,89.81,22,Marcuantonio Caballero,Killeen,88.45,147.42,68.04,158.76,374.21,Unlimited,SBD,M,
Boys,89.81,DQ,Junior Sanders,Copperas Cove,89.81,,,,,Unlimited,SBD,M,
Boys,89.81,DQ,Luis Huerta,Temple,89.81,,,,,Unlimited,SBD,M,
Boys,99.79,1,Daniel Rodriguez,Rosebud-Lott,91.63,249.48,161.03,254.01,664.51,Unlimited,SBD,M,
Boys,99.79,2,Luis Pineda,Cameron Yoe,95.25,204.12,131.54,219.99,555.65,Unlimited,SBD,M,
Boys,99.79,3,Mason Smith,Waco,97.07,201.85,127.01,199.58,528.44,Unlimited,SBD,M,
Boys,99.79,4,Jay'Mion Dugas,Waco,97.98,199.58,115.67,213.19,528.44,Unlimited,SBD,M,
Boys,99.79,5,Hayden Holman,Belton,93.44,176.9,122.47,195.04,494.42,Unlimited,SBD,M,
Boys,99.79,6,Romeo Orta,Waco,98.43,190.51,127.01,176.9,494.42,Unlimited,SBD,M,
Boys,99.79,7,Emilio Rodriguez-Washington,Killeen Shoemaker,96.62,188.24,104.33,179.17,471.74,Unlimited,SBD,M,
Boys,99.79,8,Bradlee Baker,Lake Belton,98.43,183.7,97.52,167.83,449.06,Unlimited,SBD,M,
Boys,99.79,9,Mark Martinez,Waco University,92.53,142.88,104.33,176.9,424.11,Unlimited,SBD,M,
Boys,99.79,10,Ladainian Carter,Killeen,90.72,136.08,68.04,190.51,394.63,Unlimited,SBD,M,
Boys,99.79,DQ,Elvis Martinez,Waco University,99.79,,,,,Unlimited,SBD,M,
Boys,99.79,DQ,Hayden Hourany,Belton,99.79,,,,,Unlimited,SBD,M,
Boys,109.77,1,Devon Taitano,Copperas Cove,106.59,260.82,156.49,226.8,644.1,Unlimited,SBD,M,
Boys,109.77,2,Jay Haynes,Killeen Shoemaker,106.59,226.8,133.81,233.6,594.21,Unlimited,SBD,M,
Boys,109.77,3,Ricky Haynes,Cameron Yoe,104.78,217.72,149.69,217.72,585.13,Unlimited,SBD,M,
Boys,109.77,4,Garrett Cook,Rosebud-Lott,101.6,210.92,142.88,226.8,580.6,Unlimited,SBD,M,
Boys,109.77,5,Ray'Shawn Toliver,Waco,108.86,192.78,136.08,204.12,532.97,Unlimited,SBD,M,
Boys,109.77,6,Michael Morgan,Copperas Cove,101.15,183.7,147.42,197.31,528.44,Unlimited,SBD,M,
Boys,109.77,7,Ethan Love,Lake Belton,100.24,213.19,124.74,181.44,519.36,Unlimited,SBD,M,
Boys,109.77,8,Evan Lazott,Lake Belton,105.69,192.78,129.27,183.7,505.76,Unlimited,SBD,M,
Boys,109.77,9,Kobe Hadley,Copperas Cove,106.59,195.04,106.59,176.9,478.54,Unlimited,SBD,M,
Boys,109.77,10,Larry Martin,Waco University,102.06,192.78,88.45,195.04,476.27,Unlimited,SBD,M,
Boys,109.77,11,Christian Griffith,Belton,107.95,172.37,97.52,181.44,451.32,Unlimited,SBD,M,
Boys,109.77,12,Brady Hall,Copperas Cove,107.95,149.69,86.18,127.01,362.87,Unlimited,SBD,M,
Boys,109.77,DQ,Dayshawn McHenry,Killeen,109.77,,,,,Unlimited,SBD,M,
Boys,124.74,1,Rion Childers,Copperas Cove,120.66,278.96,176.9,226.8,682.66,Unlimited,SBD,M,
Boys,124.74,2,Eric Grooms,Waco University,117.48,215.46,140.61,249.48,605.55,Unlimited,SBD,M,
Boys,124.74,3,Brendon Tays,Rosebud-Lott,119.75,247.21,154.22,192.78,594.21,Unlimited,SBD,M,
Boys,124.74,4,Michael Collins,Waco Midway,124.74,233.6,124.74,229.06,587.4,Unlimited,SBD,M,
Boys,124.74,5,Konner Ziegelt,Waco Midway,112.49,238.14,136.08,197.31,571.53,Unlimited,SBD,M,
Boys,124.74,6,Lane Gardner,Waco Midway,119.75,226.8,124.74,210.92,562.45,Unlimited,SBD,M,
Boys,124.74,7,Xavier Watkins,Killeen Shoemaker,116.57,190.51,111.13,206.38,508.02,Unlimited,SBD,M,
Boys,124.74,8,Bradley Fillmore,Temple,122.02,188.24,122.47,181.44,492.15,Unlimited,SBD,M,
Boys,124.74,9,Hunter Loraus,Lake Belton,122.92,183.7,120.2,163.29,467.2,Unlimited,SBD,M,
Boys,124.74,10,Fredrick Clarke,Killeen,110.68,156.49,77.11,151.95,385.55,Unlimited,SBD,M,
Boys,124.74,DQ,Marvin Morgenroth,Lake Belton,112.49,124.74,86.18,,,Unlimited,SBD,M,
Boys,139.71,1,Kareem Edmon,Killeen Shoemaker,134.72,247.21,149.69,274.42,671.32,Unlimited,SBD,M,
Boys,139.71,2,DeAndre Smith,Waco,136.53,294.84,158.76,217.72,671.32,Unlimited,SBD,M,
Boys,139.71,3,Gerardo Garcia,Waco,136.98,238.14,161.03,215.46,614.62,Unlimited,SBD,M,
Boys,139.71,4,Jacob Johnson,Lake Belton,134.26,226.8,127.01,215.46,569.26,Unlimited,SBD,M,
Boys,139.71,5,Grayson Burden,Copperas Cove,139.25,215.46,136.08,217.72,569.26,Unlimited,SBD,M,
Boys,139.71,6,Carlos Navarro,Waco University,129.27,249.48,124.74,188.24,562.45,Unlimited,SBD,M,
Boys,139.71,7,Eithen Storminger,Lake Belton,136.53,129.27,77.11,151.95,358.34,Unlimited,SBD,M,
Boys,139.71+,1,Enrique Rangel,Waco University,151.5,294.84,192.78,206.38,694,Unlimited,SBD,M,
Boys,139.71+,2,Norris Manning,Copperas Cove,148.32,222.26,156.49,219.99,598.74,Unlimited,SBD,M,
Boys,139.71+,3,Tyden Cepull,Copperas Cove,158.76,208.65,145.15,204.12,557.92,Unlimited,SBD,M,
Boys,139.71+,4,Elario Chavez,Killeen,147.87,197.31,147.42,183.7,528.44,Unlimited,SBD,M,
Boys,139.71+,5,Jose Vidal,Cameron Yoe,140.61,183.7,170.1,170.1,523.9,Unlimited,SBD,M,
Boys,139.71+,6,Payton Baker,Copperas Cove,146.06,208.65,136.08,172.37,517.1,Unlimited,SBD,M,
Boys,139.71+,7,Caleb Ighomon,Lake Belton,147.87,197.31,97.52,165.56,460.4,Unlimited,SBD,M,
Boys,139.71+,8,Rylie Shanhan,Copperas Cove,147.87,183.7,124.74,149.69,458.13,Unlimited,SBD,M,
Boys,139.71+,9,Marvin Hatcher,Killeen Harker Heights,159.21,136.08,117.93,145.15,399.16,Unlimited,SBD,M,
Boys,139.71+,DQ,Endrei Sauls,Temple,153.77,317.51,174.63,,,Unlimited,SBD,M,
