Division,WeightClassKg,Place,Name,Team,BodyweightKg,Best3SquatKg,Best3BenchKg,Best3DeadliftKg,TotalKg,Equipment,Event,Sex,BirthDate
Boys,51.71,1,Oscar Aguilar,Gladewater Sabine,51.21,108.86,65.77,111.13,285.76,Unlimited,SBD,M,
Boys,51.71,2,Sj Slusser,Gladewater,51.26,92.99,61.23,111.13,265.35,Unlimited,SBD,M,
Boys,51.71,3,Payton Bullard,Gladewater Sabine,45.86,68.04,34.02,74.84,176.9,Unlimited,SBD,M,
Boys,55.79,1,Jace Newton,Cleveland Tarkington,55.57,131.54,81.65,172.37,385.55,Unlimited,SBD,M,
Boys,55.79,2,Vicente Ordorica,Gladewater Sabine,55.75,124.74,102.06,124.74,351.53,Unlimited,SBD,M,
Boys,55.79,3,Bryce Kelly,Hughes Springs,54.39,138.35,61.23,142.88,342.46,Unlimited,SBD,M,
Boys,55.79,4,Anthony Aguilar,Gladewater Sabine,54.39,120.2,83.91,136.08,340.19,Unlimited,SBD,M,
Boys,55.79,5,Austin Fisher,White Oak,55.7,120.2,74.84,131.54,326.59,Unlimited,SBD,M,
Boys,55.79,6,Chance Fleetwood,Gladewater,54.88,120.2,79.38,120.2,319.78,Unlimited,SBD,M,
Boys,55.79,7,Carter Gilbreath,White Oak,52.07,115.67,56.7,136.08,308.44,Unlimited,SBD,M,
Boys,55.79,8,Meric Alban,White Oak,53.89,102.06,56.7,102.06,260.82,Unlimited,SBD,M,
Boys,59.87,1,Lucas Woolem,Ore City,59.38,188.24,115.67,163.29,467.2,Unlimited,SBD,M,
Boys,59.87,2,Juan Ordorica,Gladewater Sabine,56.97,158.76,104.33,172.37,435.45,Unlimited,SBD,M,
Boys,59.87,3,Owen Gee,White Oak,58.38,167.83,88.45,174.63,430.91,Unlimited,SBD,M,
Boys,59.87,4,Jayden Dorsey,Gladewater,59.6,92.99,68.04,115.67,276.69,Unlimited,SBD,M,
Boys,59.87,5,Noah Jenkins,Gladewater,57.02,83.91,49.9,122.47,256.28,Unlimited,SBD,M,
Boys,59.87,DQ,Connor Patton,Gladewater,57.7,83.91,,,,Unlimited,SBD,M,
Boys,59.87,DQ,Mason Ritter,Diana New Diana,59.78,122.47,,,,Unlimited,SBD,M,
Boys,67.13,1,Moises Cardenas,Cleveland Tarkington,66.13,247.21,133.81,244.94,625.96,Unlimited,SBD,M,
Boys,67.13,2,Carter Peters,Gladewater Sabine,67.04,210.92,142.88,190.51,544.31,Unlimited,SBD,M,
Boys,67.13,3,Dylan Walls,Gladewater Sabine,63.78,195.04,122.47,174.63,492.15,Unlimited,SBD,M,
Boys,67.13,4,Kenix Alejo,Mineola,66.22,165.56,77.11,167.83,410.5,Unlimited,SBD,M,
Boys,67.13,5,Cohen Taylor,Longview Spring Hill,64,158.76,92.99,156.49,408.23,Unlimited,SBD,M,
Boys,67.13,6,Colton Dodson,Diana New Diana,66.77,142.88,83.91,161.03,387.82,Unlimited,SBD,M,
Boys,67.13,7,Caleb Inocencio,Ore City,63.87,136.08,72.57,145.15,353.8,Unlimited,SBD,M,
Boys,67.13,8,Jerrico Odum,Ore City,60.78,117.93,97.52,136.08,351.53,Unlimited,SBD,M,
Boys,67.13,9,Jayden Wright,Gladewater,66.32,106.59,65.77,147.42,319.78,Unlimited,SBD,M,
Boys,67.13,10,Kaiden Minor,Longview Spring Hill,60.78,102.06,79.38,124.74,306.17,Unlimited,SBD,M,
Boys,67.13,11,Juan Lopez,Ore City,60.78,90.72,68.04,104.33,263.08,Unlimited,SBD,M,
Boys,74.84,1,Joe Ray,Gladewater Sabine,74.43,249.48,154.22,235.87,639.57,Unlimited,SBD,M,
Boys,74.84,2,Blaine Shaw,Hughes Springs,72.98,199.58,140.61,188.24,528.44,Unlimited,SBD,M,
Boys,74.84,3,Cash Scalia,White Oak,74.62,190.51,113.4,195.04,498.95,Unlimited,SBD,M,
Boys,74.84,4,Christian Barrientos,Hughes Springs,70.94,165.56,133.81,195.04,494.42,Unlimited,SBD,M,
Boys,74.84,5,Jacoby Morrow,Jefferson,74.84,174.63,92.99,165.56,433.18,Unlimited,SBD,M,
Boys,74.84,6,Ethan Maxwell,Jefferson,67.81,151.95,92.99,142.88,387.82,Unlimited,SBD,M,
Boys,74.84,7,Derek Canon,Gladewater,71.67,108.86,70.31,117.93,297.1,Unlimited,SBD,M,
Boys,74.84,8,Marco Hernandez,Gladewater,74.07,102.06,65.77,129.27,297.1,Unlimited,SBD,M,
Boys,82.1,1,Austin Blalock,Mineola,76.97,206.38,147.42,199.58,553.38,Unlimited,SBD,M,
Boys,82.1,2,Davyon Mapps,Diana New Diana,81.1,195.04,129.27,226.8,551.11,Unlimited,SBD,M,
Boys,82.1,3,David Reyes,Hughes Springs,81.69,181.44,131.54,190.51,503.49,Unlimited,SBD,M,
Boys,82.1,4,Thomas Sullivan,White Oak,82.01,192.78,117.93,174.63,485.34,Unlimited,SBD,M,
Boys,82.1,5,Riggin Barclay,Cleveland Tarkington,79.88,190.51,111.13,181.44,483.08,Unlimited,SBD,M,
Boys,82.1,6,Kaleb Cases,Cleveland Tarkington,78.29,170.1,111.13,183.7,464.93,Unlimited,SBD,M,
Boys,82.1,7,Jayden Morris,Diana New Diana,76.84,179.17,120.2,158.76,458.13,Unlimited,SBD,M,
Boys,82.1,8,Daniel Castillo,Longview Spring Hill,81.74,156.49,111.13,151.95,419.57,Unlimited,SBD,M,
Boys,82.1,9,Dane Fielder,Longview Spring Hill,80.56,151.95,102.06,163.29,417.3,Unlimited,SBD,M,
Boys,82.1,10,Doug Boyd,Hughes Springs,81.06,133.81,102.06,174.63,410.5,Unlimited,SBD,M,
Boys,89.81,1,Zach Massey,Hughes Springs,86.41,192.78,142.88,192.78,528.44,Unlimited,SBD,M,
Boys,89.81,2,Emerson McFaul,Longview Spring Hill,88,185.97,117.93,195.04,498.95,Unlimited,SBD,M,
Boys,89.81,3,Beau Hobbs,Mineola,89.63,192.78,122.47,181.44,496.68,Unlimited,SBD,M,
Boys,89.81,4,Jeff Andrews,Ore City,85.59,179.17,124.74,183.7,487.61,Unlimited,SBD,M,
Boys,89.81,5,Kandon Sheridan,Diana New Diana,88.63,188.24,106.59,192.78,487.61,Unlimited,SBD,M,
Boys,89.81,6,Kingston Straznicky,Mineola,85.14,149.69,133.81,183.7,467.2,Unlimited,SBD,M,
Boys,89.81,7,Xavier Henderson,White Oak,88.54,181.44,122.47,163.29,467.2,Unlimited,SBD,M,
Boys,89.81,8,Ryan Barton,Longview Spring Hill,83.51,163.29,111.13,188.24,462.66,Unlimited,SBD,M,
Boys,89.81,9,Connor Hodges,White Oak,87.95,174.63,106.59,181.44,462.66,Unlimited,SBD,M,
Boys,99.79,1,Talan Ferguson,Longview Spring Hill,97.57,274.42,217.72,215.46,707.6,Unlimited,SBD,M,
Boys,99.79,2,Billy Prince,Hughes Springs,99.65,235.87,145.15,276.69,657.71,Unlimited,SBD,M,
Boys,99.79,3,Tre Inocencio,Ore City,97.98,235.87,151.95,222.26,610.08,Unlimited,SBD,M,
Boys,99.79,4,Sebastian Rodriguez,Diana New Diana,99.7,222.26,142.88,199.58,564.72,Unlimited,SBD,M,
Boys,99.79,5,Hayden Woods,Cleveland Tarkington,95.53,217.72,145.15,199.58,562.45,Unlimited,SBD,M,
Boys,99.79,6,Eddrick Irving,Mineola,99.65,222.26,124.74,197.31,544.31,Unlimited,SBD,M,
Boys,99.79,7,Ty Akin,Diana New Diana,99.43,204.12,142.88,192.78,539.77,Unlimited,SBD,M,
Boys,99.79,8,Brady Johnson,Longview Spring Hill,99.79,204.12,156.49,176.9,537.51,Unlimited,SBD,M,
Boys,99.79,9,Ethan Torrez,Cleveland Tarkington,97.02,185.97,142.88,201.85,530.7,Unlimited,SBD,M,
Boys,99.79,10,Antonio Amaya,Longview Spring Hill,92.62,192.78,124.74,192.78,510.29,Unlimited,SBD,M,
Boys,99.79,11,Jatavion Harris,Jefferson,96.48,181.44,111.13,183.7,476.27,Unlimited,SBD,M,
Boys,99.79,12,Juneroel Bais,Gladewater Sabine,96.34,183.7,102.06,172.37,458.13,Unlimited,SBD,M,
Boys,99.79,13,Brock Brown,Longview Spring Hill,99.25,183.7,86.18,181.44,451.32,Unlimited,SBD,M,
Boys,99.79,14,Kent Odum,Ore City,92.94,156.49,124.74,151.95,433.18,Unlimited,SBD,M,
Boys,109.77,1,Bobby Smith,Hughes Springs,106.1,195.04,151.95,206.38,553.38,Unlimited,SBD,M,
Boys,109.77,2,Brantley McDougal,Longview Spring Hill,109.77,181.44,136.08,188.24,505.76,Unlimited,SBD,M,
Boys,109.77,3,Alex Dorris,Jefferson,101.51,195.04,111.13,165.56,471.74,Unlimited,SBD,M,
Boys,109.77,4,Malik Hatton,Gladewater,105.73,158.76,102.06,181.44,442.25,Unlimited,SBD,M,
Boys,109.77,5,JaMaurie Williams,Jefferson,107.77,165.56,92.99,174.63,433.18,Unlimited,SBD,M,
Boys,109.77,DQ,Kentrell Perry,Jefferson,105.01,,,,,Unlimited,SBD,M,
Boys,124.74,1,Javaryon Brumsey,Mineola,119.93,288.03,142.88,226.8,657.71,Unlimited,SBD,M,
Boys,124.74,2,Dylan Anderson,White Oak,120.16,226.8,142.88,195.04,564.72,Unlimited,SBD,M,
Boys,124.74,3,Brian Murphy,White Oak,123.6,158.76,97.52,195.04,451.32,Unlimited,SBD,M,
Boys,124.74,4,Isaiah May,Ore City,120.02,156.49,90.72,131.54,378.75,Unlimited,SBD,M,
Boys,124.74,DQ,Kelton Lee,Gladewater Sabine,124.38,,,,,Unlimited,SBD,M,
Boys,124.74,DQ,Zae Pryor,Jefferson,116.26,249.48,,,,Unlimited,SBD,M,
Boys,124.74,DQ,Joshua Jeffery,Diana New Diana,113.9,213.19,,,,Unlimited,SBD,M,
Boys,124.74,DQ,Justin Scarborough,Cleveland Tarkington,118.57,,,,,Unlimited,SBD,M,
Boys,124.74,DQ,Dontae Tolbert,Gladewater Sabine,115.67,174.63,120.2,,,Unlimited,SBD,M,
Boys,139.71,1,Donald Veasley,Ore City,128.64,226.8,165.56,222.26,614.62,Unlimited,SBD,M,
Boys,139.71,2,Chilo Applegate,Mineola,130.5,219.99,131.54,206.38,557.92,Unlimited,SBD,M,
Boys,139.71,3,Terrell Willis,Gladewater,134.04,192.78,113.4,215.46,521.63,Unlimited,SBD,M,
Boys,139.71+,1,Cris Marmolejo,Gladewater Sabine,146.51,217.72,113.4,199.58,530.7,Unlimited,SBD,M,
Boys,139.71+,2,Talon Robinson,Gladewater,144.06,197.31,102.06,190.51,489.88,Unlimited,SBD,M,
Boys,139.71+,DQ,Trent Akers,Hughes Springs,144.88,258.55,,,,Unlimited,SBD,M,
