Division,WeightClassKg,Place,Name,Team,BodyweightKg,Best3SquatKg,Best3BenchKg,Best3DeadliftKg,TotalKg,Equipment,Event,Sex,BirthDate
Boys,51.71,1,Karsen Reyes,Kenedy,48.81,190.51,102.06,170.1,462.66,Unlimited,SBD,M,
Boys,51.71,2,Cash Crutcher,Whiteface,49.26,170.1,142.88,149.69,462.66,Unlimited,SBD,M,
Boys,51.71,3,Xavier Ellis,Kress,50.89,136.08,95.25,192.78,424.11,Unlimited,SBD,M,
Boys,51.71,4,Jaime Reyna,Olton,50.53,151.95,90.72,179.17,421.84,Unlimited,SBD,M,
Boys,51.71,5,Parker McDonald,Ganado,50.53,156.49,97.52,156.49,410.5,Unlimited,SBD,M,
Boys,51.71,6,Gunnar Whitaker,Ropesville Ropes,51.62,165.56,97.52,140.61,403.7,Unlimited,SBD,M,
Boys,51.71,7,Davion Wilson,Itasca,50.53,149.69,97.52,151.95,399.16,Unlimited,SBD,M,
Boys,51.71,8,Jose Chapa,Ben Bolt-Palito Blanco,50.98,151.95,77.11,161.03,390.09,Unlimited,SBD,M,
Boys,51.71,9,Xavier Marroquin,Strawn,51.07,136.08,90.72,154.22,381.02,Unlimited,SBD,M,
Boys,51.71,10,Nathan De Leon,Electra,50.98,149.69,81.65,136.08,367.41,Unlimited,SBD,M,
Boys,51.71,11,Juan Rios,Big Lake Reagan County,51.53,136.08,70.31,142.88,349.27,Unlimited,SBD,M,
Boys,51.71,12,Daylan Sless,Louise,51.62,122.47,81.65,140.61,344.73,Unlimited,SBD,M,
Boys,51.71,13,Logan Maddox,Dawson,51.26,136.08,68.04,136.08,340.19,Unlimited,SBD,M,
Boys,51.71,14,Korbyn Carver,Fruitvale,46.63,97.52,58.97,115.67,272.16,Unlimited,SBD,M,
Boys,51.71,DQ,Chris Minor,Ralls,50.98,,,,,Unlimited,SBD,M,
Boys,55.79,1,Jadrian Torres,Agua Dulce,54.7,192.78,129.27,197.31,519.36,Unlimited,SBD,M,
Boys,55.79,2,Imanol Mendez,Louise,54.61,192.78,136.08,188.24,517.1,Unlimited,SBD,M,
Boys,55.79,3,Fabian Viernes,Bovina,55.79,192.78,129.27,190.51,512.56,Unlimited,SBD,M,
Boys,55.79,4,Rayden Reyna,Kenedy,53.98,183.7,127.01,188.24,498.95,Unlimited,SBD,M,
Boys,55.79,5,Jorge Leija,Sonora,54.25,188.24,113.4,176.9,478.54,Unlimited,SBD,M,
Boys,55.79,6,Frankie-Raye Gonzalez,La Villa,55.07,181.44,95.25,190.51,467.2,Unlimited,SBD,M,
Boys,55.79,7,Johnny Denis,Shamrock,54.88,161.03,99.79,181.44,442.25,Unlimited,SBD,M,
Boys,55.79,8,Ismael Cavazos,La Villa,54.7,156.49,108.86,167.83,433.18,Unlimited,SBD,M,
Boys,55.79,9,Angel Salinas,Amarillo Highland Park,54.88,151.95,102.06,172.37,426.38,Unlimited,SBD,M,
Boys,55.79,10,Ryan Dearmond,Tom Bean,54.07,170.1,79.38,172.37,421.84,Unlimited,SBD,M,
Boys,55.79,11,Sebastian Ortega,Celeste,54.88,161.03,97.52,156.49,415.04,Unlimited,SBD,M,
Boys,55.79,12,Alvin Thao,Itasca,55.43,149.69,95.25,158.76,403.7,Unlimited,SBD,M,
Boys,55.79,13,Joel Jones,Perrin-Whitt,54.79,145.15,81.65,167.83,394.63,Unlimited,SBD,M,
Boys,55.79,14,Jake Harris,Garrison,54.52,142.88,106.59,142.88,392.36,Unlimited,SBD,M,
Boys,55.79,15,Timothy Kruger,Rosebud-Lott,54.61,145.15,95.25,145.15,385.55,Unlimited,SBD,M,
Boys,59.87,1,David Fraga,Kenedy,59.15,195.04,142.88,210.92,548.85,Unlimited,SBD,M,
Boys,59.87,2,Tevin Meade,Miles,59.6,197.31,136.08,208.65,542.04,Unlimited,SBD,M,
Boys,59.87,3,Johnathan Guerrero,Yorktown,59.24,208.65,113.4,201.85,523.9,Unlimited,SBD,M,
Boys,59.87,4,Dre Patt,Honey Grove,58.15,217.72,108.86,195.04,521.63,Unlimited,SBD,M,
Boys,59.87,5,Kato Mattair,Rosebud-Lott,58.79,174.63,115.67,185.97,476.27,Unlimited,SBD,M,
Boys,59.87,6,Mark Odom,Burton,59.69,183.7,102.06,190.51,476.27,Unlimited,SBD,M,
Boys,59.87,7,Ethan Crouch,Miles,58.42,179.17,106.59,188.24,474,Unlimited,SBD,M,
Boys,59.87,8,Michael Salazar,Sundown,58.15,170.1,102.06,192.78,464.93,Unlimited,SBD,M,
Boys,59.87,9,Carter Sicking,Muenster,58.69,172.37,124.74,161.03,458.13,Unlimited,SBD,M,
Boys,59.87,10,Jeremiah Norigea,Kress,59.6,163.29,102.06,163.29,428.64,Unlimited,SBD,M,
Boys,59.87,DQ,Dario Reyes,Shelbyville,58.42,195.04,,,,Unlimited,SBD,M,
Boys,59.87,DQ,Daniel Ruiz,Tom Bean,58.79,158.76,,,,Unlimited,SBD,M,
Boys,67.13,1,Wyatt Steinberger,Windthorst,66.77,226.8,165.56,258.55,650.91,Unlimited,SBD,M,
Boys,67.13,2,Mauricio Gallegos,Center Point,65.68,254.01,158.76,226.8,639.57,Unlimited,SBD,M,
Boys,67.13,3,Avery Yarbrough,Garrison,66.04,222.26,138.35,242.67,603.28,Unlimited,SBD,M,
Boys,67.13,4,Jesus Montoya,Post,66.68,240.4,158.76,197.31,596.47,Unlimited,SBD,M,
Boys,67.13,5,Jeremiah Rosales #2,Lockney,65.86,233.6,136.08,204.12,573.79,Unlimited,SBD,M,
Boys,67.13,6,Devin Espinoza,Gilmer Union Hill,64.77,199.58,136.08,201.85,537.51,Unlimited,SBD,M,
Boys,67.13,7,Austin Medina,Miles,66.22,208.65,131.54,195.04,535.24,Unlimited,SBD,M,
Boys,67.13,8,Ryan Barbara,Chilton,65.77,199.58,120.2,208.65,528.44,Unlimited,SBD,M,
Boys,67.13,9,Xander Jackson,Quanah,67.13,219.99,106.59,197.31,523.9,Unlimited,SBD,M,
Boys,67.13,10,Carlos Bolaños,Normangee,66.22,204.12,108.86,206.38,519.36,Unlimited,SBD,M,
Boys,67.13,11,Jacob Ramirez,Coleman,63.46,174.63,104.33,195.04,474,Unlimited,SBD,M,
Boys,67.13,12,Jasi Galindo,Eldorado,65.32,113.4,136.08,113.4,362.87,Unlimited,SBD,M,
Boys,74.84,1,Anthony Gallegos,La Pryor,72.48,272.16,195.04,233.6,700.8,Unlimited,SBD,M,
Boys,74.84,2,Michael Fulton,Roscoe Collegiate,73.21,235.87,174.63,233.6,644.1,Unlimited,SBD,M,
Boys,74.84,3,Kason Amador,Kress,72.94,213.19,149.69,235.87,598.74,Unlimited,SBD,M,
Boys,74.84,4,Liam Gale,Normangee,72.85,222.26,142.88,231.33,596.47,Unlimited,SBD,M,
Boys,74.84,5,Gerald Dykes,Milano,74.8,215.46,142.88,231.33,589.67,Unlimited,SBD,M,
Boys,74.84,6,Brayden May,Kerens,74.03,226.8,170.1,183.7,580.6,Unlimited,SBD,M,
Boys,74.84,7,Adiryn Herevia,Tahoka,73.39,226.8,154.22,188.24,569.26,Unlimited,SBD,M,
Boys,74.84,8,Dakota Higgins,Rising Star,73.98,192.78,140.61,224.53,557.92,Unlimited,SBD,M,
Boys,74.84,9,Esiah Gracia,Santa Maria,70.85,197.31,142.88,215.46,555.65,Unlimited,SBD,M,
Boys,74.84,10,Ben Brumfield,Three Way,73.39,204.12,138.35,204.12,546.58,Unlimited,SBD,M,
Boys,74.84,DQ,Cole Mormon,Lindsay,73.3,204.12,149.69,,,Unlimited,SBD,M,
Boys,74.84,DQ,Cole Heard,Beckville,74.48,240.4,,,,Unlimited,SBD,M,
Boys,74.84,DQ,Markeydrick Taylor,Chilton,70.67,,,,,Unlimited,SBD,M,
Boys,82.1,1,Omarion Rasberry,Garrison,78.65,278.96,172.37,285.76,737.09,Unlimited,SBD,M,
Boys,82.1,2,Matthew Lim,Jewett Leon,78.74,265.35,129.27,294.84,689.46,Unlimited,SBD,M,
Boys,82.1,3,Steven Hernandez,Tahoka,80.1,272.16,165.56,219.99,657.71,Unlimited,SBD,M,
Boys,82.1,4,Elias Ramos,Anson,79.47,238.14,149.69,235.87,623.69,Unlimited,SBD,M,
Boys,82.1,5,Junior Garcia,Amarillo Highland Park,80.65,247.21,145.15,231.33,623.69,Unlimited,SBD,M,
Boys,82.1,6,Ezequiel Medina,Louise,80.83,240.4,136.08,242.67,619.15,Unlimited,SBD,M,
Boys,82.1,7,Rhett Walterscheid,Muenster,79.83,233.6,151.95,217.72,603.28,Unlimited,SBD,M,
Boys,82.1,8,Noah Castillo,Bangs,81.56,226.8,145.15,219.99,591.94,Unlimited,SBD,M,
Boys,82.1,9,Price Mullin,Hico,77.52,224.53,147.42,217.72,589.67,Unlimited,SBD,M,
Boys,82.1,10,Nehemias Martinez,La Villa,81.83,222.26,156.49,199.58,578.33,Unlimited,SBD,M,
Boys,82.1,11,Nathan Wood,Junction,79.47,208.65,136.08,217.72,562.45,Unlimited,SBD,M,
Boys,82.1,12,Dominic Huerta,Agua Dulce,79.83,199.58,156.49,176.9,532.97,Unlimited,SBD,M,
Boys,82.1,DQ,William Perry,Santa Anna,80.83,,,,,Unlimited,SBD,M,
Boys,82.1,DQ,Antonio Rodriguez,Kerens,80.83,204.12,170.1,,,Unlimited,SBD,M,
Boys,82.1,DQ,Dd Starnes,Centerville,81.01,,,,,Unlimited,SBD,M,
Boys,89.81,1,Tayden Grimes,Woodsboro,86.55,308.44,165.56,260.82,734.82,Unlimited,SBD,M,
Boys,89.81,2,Christian Lopez,La Pryor,87.27,290.3,167.83,267.62,725.75,Unlimited,SBD,M,
Boys,89.81,3,Daniel Rodriguez,Rosebud-Lott,88.36,283.5,185.97,249.48,718.94,Unlimited,SBD,M,
Boys,89.81,4,Hayden Heselmeyer,Thrall,88.54,285.76,176.9,254.01,716.68,Unlimited,SBD,M,
Boys,89.81,5,Luke Brooker,Whiteface,88.63,260.82,208.65,238.14,707.6,Unlimited,SBD,M,
Boys,89.81,6,Jesse Martinez,La Villa,89.63,272.16,165.56,258.55,696.26,Unlimited,SBD,M,
Boys,89.81,7,Andres Ruelas,Milano,88.99,283.5,181.44,226.8,691.73,Unlimited,SBD,M,
Boys,89.81,8,Alejandro Rodriguez,Post,88.36,265.35,176.9,238.14,680.39,Unlimited,SBD,M,
Boys,89.81,9,Adam Lindgren,Garrison,86.91,285.76,161.03,208.65,655.44,Unlimited,SBD,M,
Boys,89.81,10,Trace Riggs,Thrall,86.18,242.67,163.29,238.14,644.1,Unlimited,SBD,M,
Boys,89.81,11,Jesse Butcher,Amarillo Highland Park,89.54,215.46,181.44,242.67,639.57,Unlimited,SBD,M,
Boys,89.81,12,Demarcus Acoff,Jonesboro,88.36,224.53,170.1,215.46,610.08,Unlimited,SBD,M,
Boys,89.81,13,Reyce' Bailey,Maud,84.46,226.8,145.15,233.6,605.55,Unlimited,SBD,M,
Boys,89.81,14,Noah Holt,Rio Vista,87.82,226.8,149.69,229.06,605.55,Unlimited,SBD,M,
Boys,89.81,DQ,Ángel Cruz,Whitewright,89.81,272.16,188.24,,,Unlimited,SBD,M,
Boys,89.81,DQ,Simon Thurman,Lindsay,88.81,260.82,142.88,,,Unlimited,SBD,M,
Boys,99.79,1,Josue Aguilera,La Villa,98.7,317.51,206.38,299.37,823.27,Unlimited,SBD,M,
Boys,99.79,2,Damian Castaneda,Whiteface,98.34,294.84,226.8,265.35,786.98,Unlimited,SBD,M,
Boys,99.79,3,Zeke Munoz,Coleman,97.11,308.44,199.58,256.28,764.3,Unlimited,SBD,M,
Boys,99.79,4,Beau Hernandez,Rocksprings,94.62,281.23,195.04,238.14,714.41,Unlimited,SBD,M,
Boys,99.79,5,Deven Cuba,Thorndale,94.17,272.16,181.44,254.01,707.6,Unlimited,SBD,M,
Boys,99.79,6,Levodrick Phillips,Jewett Leon,98.79,272.16,192.78,242.67,707.6,Unlimited,SBD,M,
Boys,99.79,7,Adrian Hernandez,Lockney,98.25,278.96,192.78,219.99,691.73,Unlimited,SBD,M,
Boys,99.79,8,Kanyon Willeford,Hawley,94.35,244.94,195.04,247.21,687.19,Unlimited,SBD,M,
Boys,99.79,9,Pablo Herevia,Tahoka,95.07,260.82,170.1,226.8,657.71,Unlimited,SBD,M,
Boys,99.79,10,Jesse Traxler,Garrison,94.44,254.01,158.76,238.14,650.91,Unlimited,SBD,M,
Boys,99.79,11,Brody Mahan,Honey Grove,98.7,235.87,174.63,231.33,641.83,Unlimited,SBD,M,
Boys,99.79,12,Zane Smith,Alvord,96.07,229.06,142.88,249.48,621.42,Unlimited,SBD,M,
Boys,99.79,DQ,Tylan Balthrop,Roscoe Highland,96.71,272.16,181.44,,,Unlimited,SBD,M,
Boys,109.77,1,Benedicto Beatriz,Garrison,109.13,301.64,206.38,265.35,773.37,Unlimited,SBD,M,
Boys,109.77,2,Gavin Pollard,Garrison,108.32,306.17,217.72,247.21,771.11,Unlimited,SBD,M,
Boys,109.77,3,Abram Ross,Mart,107.77,303.91,185.97,263.08,752.96,Unlimited,SBD,M,
Boys,109.77,4,Noel Fajardo,Harleton,102.15,274.42,188.24,272.16,734.82,Unlimited,SBD,M,
Boys,109.77,5,Rudy Jimenez,Lockney,108.23,283.5,192.78,249.48,725.75,Unlimited,SBD,M,
Boys,109.77,6,Armando Cruz,Floydada,105.6,278.96,197.31,229.06,705.34,Unlimited,SBD,M,
Boys,109.77,7,Sam Stewart,Tolar,105.05,244.94,183.7,254.01,682.66,Unlimited,SBD,M,
Boys,109.77,8,Keagan Fenner,Burton,105.32,247.21,133.81,299.37,680.39,Unlimited,SBD,M,
Boys,109.77,9,Isaac Carillo,La Pryor,106.23,267.62,167.83,229.06,664.51,Unlimited,SBD,M,
Boys,109.77,10,Isaac Vasquez,Flatonia,109.04,249.48,183.7,213.19,646.37,Unlimited,SBD,M,
Boys,109.77,11,Kyle Leidel,Muenster,101.74,247.21,179.17,197.31,623.69,Unlimited,SBD,M,
Boys,109.77,12,Justin Schumacher,Lindsay,101.79,226.8,156.49,240.4,623.69,Unlimited,SBD,M,
Boys,109.77,DQ,Roy Medrano,La Pryor,108.14,274.42,,,,Unlimited,SBD,M,
Boys,124.74,1,Oscar Camacho,Coleman,114.99,322.05,219.99,285.76,827.81,Unlimited,SBD,M,
Boys,124.74,2,Adolfo Flores,La Pryor,120.11,340.19,229.06,258.55,827.81,Unlimited,SBD,M,
Boys,124.74,3,Briley Rogers,Pineland West Sabine,122.29,317.51,204.12,265.35,786.98,Unlimited,SBD,M,
Boys,124.74,4,Logan Castaneda,Meadow,118.02,290.3,210.92,254.01,755.23,Unlimited,SBD,M,
Boys,124.74,5,Layton Williams,Alba-Golden,122.79,306.17,170.1,265.35,741.62,Unlimited,SBD,M,
Boys,124.74,6,Alejandro Delgado,Agua Dulce,122.56,265.35,199.58,226.8,691.73,Unlimited,SBD,M,
Boys,124.74,7,Keaton Crowley,Centerville,122.11,238.14,210.92,238.14,687.19,Unlimited,SBD,M,
Boys,124.74,8,Xavyn Garcia,Sundown,113.76,276.69,190.51,217.72,684.92,Unlimited,SBD,M,
Boys,124.74,9,D'marius Williams,Mart,115.76,272.16,147.42,244.94,664.51,Unlimited,SBD,M,
Boys,124.74,DQ,Grant McPherson,Muenster,112.63,263.08,181.44,,,Unlimited,SBD,M,
Boys,124.74,DQ,Alex Rodriguez,Rosebud-Lott,124.1,294.84,,,,Unlimited,SBD,M,
Boys,124.74,DQ,Cj Call,Quanah,123.38,240.4,149.69,,,Unlimited,SBD,M,
Boys,139.71,1,Kaleb Yount,Thorndale,129.18,303.91,242.67,265.35,811.93,Unlimited,SBD,M,
Boys,139.71,2,Jabrahlyn Jones,Garrison,137.98,319.78,204.12,288.03,811.93,Unlimited,SBD,M,
Boys,139.71,3,Nik Adams,Hamilton,128.37,317.51,183.7,267.62,768.84,Unlimited,SBD,M,
Boys,139.71,4,Jesse Ellington,Grapeland,138.62,265.35,204.12,265.35,734.82,Unlimited,SBD,M,
Boys,139.71,5,Israel Reyes,Shamrock,130.82,317.51,161.03,242.67,721.21,Unlimited,SBD,M,
Boys,139.71,6,Eli Juarez,Freer,134.44,303.91,176.9,226.8,707.6,Unlimited,SBD,M,
Boys,139.71,7,Austin Allen,Simms Bowie,138.8,290.3,183.7,231.33,705.34,Unlimited,SBD,M,
Boys,139.71,8,Caden Pritchard,Lockney,136.17,285.76,192.78,222.26,700.8,Unlimited,SBD,M,
Boys,139.71,9,Javier Perez,Freer,133.17,308.44,158.76,229.06,696.26,Unlimited,SBD,M,
Boys,139.71,10,Noah Pin,Bangs,129.73,306.17,149.69,238.14,694,Unlimited,SBD,M,
Boys,139.71,11,Ethan Holley,Petrolia,127.19,204.12,204.12,215.46,623.69,Unlimited,SBD,M,
Boys,139.71,DQ,Mason Morris,Gilmer Union Hill,139.43,,,,,Unlimited,SBD,M,
Boys,139.71,DQ,Jared Gumpert,Petrolia,136.89,,,,,Unlimited,SBD,M,
Boys,139.71+,1,Kadden Williams,Overton,189.6,317.51,213.19,244.94,775.64,Unlimited,SBD,M,
Boys,139.71+,2,Hunter Hall,Yorktown,148.14,317.51,197.31,240.4,755.23,Unlimited,SBD,M,
Boys,139.71+,3,Rhett Tucker,Simms Bowie,165.92,306.17,172.37,251.74,730.28,Unlimited,SBD,M,
Boys,139.71+,4,Koldin Averette,Forsan,156.31,254.01,165.56,263.08,682.66,Unlimited,SBD,M,
Boys,139.71+,5,Christian Ashby,Colorado City Colorado,143.06,238.14,192.78,249.48,680.39,Unlimited,SBD,M,
Boys,139.71+,6,Justin Ellington,Grapeland,144.61,256.28,174.63,233.6,664.51,Unlimited,SBD,M,
Boys,139.71+,7,Calvin Thompson,Schulenburg,148.6,272.16,151.95,204.12,628.23,Unlimited,SBD,M,
Boys,139.71+,8,Luka Garza,Agua Dulce,156.4,226.8,154.22,226.8,607.81,Unlimited,SBD,M,
Boys,139.71+,9,Justin Blackman,Perrin-Whitt,157.76,195.04,108.86,190.51,494.42,Unlimited,SBD,M,
Boys,139.71+,DQ,Nyk Alcala,Ralls,145.51,,,,,Unlimited,SBD,M,
Boys,139.71+,DQ,Brody Newton,Bangs,142.25,219.99,163.29,,,Unlimited,SBD,M,
