Division,WeightClassKg,Place,Name,Team,BodyweightKg,Best3SquatKg,Best3BenchKg,Best3DeadliftKg,TotalKg,Equipment,Event,Sex,BirthDate
Boys,55.79,1,Bryce Wiley,Conroe The Woodlands,54.43,161.03,83.91,165.56,410.5,Unlimited,SBD,M,
Boys,59.87,1,Ander Herrasti,Conroe The Woodlands,58.88,124.74,72.57,131.54,328.85,Unlimited,SBD,M,
Boys,67.13,1,Kaden Mcmillian,Montgomery,63.96,174.63,106.59,183.7,464.93,Unlimited,SBD,M,
Boys,67.13,2,Justin Thames,Conroe The Woodlands,61.23,127.01,79.38,165.56,371.95,Unlimited,SBD,M,
Boys,74.84,1,Andrew Pitre,Conroe The Woodlands,72.03,174.63,92.99,188.24,455.86,Unlimited,SBD,M,
Boys,74.84,2,Claudio Vilchis,Conroe The Woodlands,69.85,136.08,79.38,142.88,358.34,Unlimited,SBD,M,
Boys,74.84,3,Naseem Obeid,Conroe The Woodlands,72.03,90.72,61.23,97.52,249.48,Unlimited,SBD,M,
Boys,82.1,1,Christian Ronning,Montgomery Lake Creek,81.19,165.56,97.52,174.63,437.72,Unlimited,SBD,M,
Boys,82.1,2,Shane Lea,Montgomery Lake Creek,80.74,154.22,92.99,188.24,435.45,Unlimited,SBD,M,
Boys,82.1,3,Gael Fresquez,Conroe The Woodlands,77.84,142.88,102.06,163.29,408.23,Unlimited,SBD,M,
Boys,82.1,4,Nolan Carpenter,Montgomery Lake Creek,79.2,142.88,97.52,167.83,408.23,Unlimited,SBD,M,
Boys,82.1,5,Mason Ford,Montgomery Lake Creek,78.02,142.88,113.4,142.88,399.16,Unlimited,SBD,M,
Boys,89.81,1,Carter Knight,Montgomery Lake Creek,85.28,183.7,106.59,226.8,517.1,Unlimited,SBD,M,
Boys,89.81,2,Jack Currie,Montgomery Lake Creek,89.81,170.1,104.33,206.38,480.81,Unlimited,SBD,M,
Boys,89.81,3,Lee Barney,Montgomery Lake Creek,89.81,165.56,102.06,179.17,446.79,Unlimited,SBD,M,
Boys,89.81,4,Wyatt Corley,Montgomery,88.9,165.56,83.91,183.7,433.18,Unlimited,SBD,M,
Boys,89.81,5,Brady Staton,Conroe The Woodlands,89.09,151.95,102.06,165.56,419.57,Unlimited,SBD,M,
Boys,89.81,6,Michael Fortune,Conroe The Woodlands,82.55,138.35,90.72,145.15,374.21,Unlimited,SBD,M,
Boys,89.81,7,Parker Reeves,Conroe The Woodlands,83.64,136.08,88.45,142.88,367.41,Unlimited,SBD,M,
Boys,89.81,8,Tyson Clinton,Conroe The Woodlands,88.36,136.08,74.84,154.22,365.14,Unlimited,SBD,M,
Boys,89.81,9,Luke Smith,Conroe The Woodlands,83.73,124.74,79.38,142.88,347,Unlimited,SBD,M,
Boys,99.79,1,Jakob Wetzel,Montgomery Lake Creek,93.98,158.76,106.59,195.04,460.4,Unlimited,SBD,M,
Boys,109.77,1,Cooper Hydock,Montgomery,103.42,263.08,136.08,233.6,632.76,Unlimited,SBD,M,
Boys,109.77,2,Haiden Mellor,Montgomery,108.86,158.76,97.52,142.88,399.16,Unlimited,SBD,M,
Boys,109.77,3,Anthony Myers,Montgomery,101.6,138.35,86.18,136.08,360.61,Unlimited,SBD,M,
Boys,109.77,4,Mekhi Oubre,Conroe The Woodlands,105.6,122.47,65.77,129.27,317.51,Unlimited,SBD,M,
Boys,124.74,1,Frankie Long,Montgomery Lake Creek,124.74,195.04,120.2,176.9,492.15,Unlimited,SBD,M,
Boys,124.74,2,Blayne Lusk,Montgomery Lake Creek,117.48,183.7,97.52,197.31,478.54,Unlimited,SBD,M,
Boys,124.74,3,Casey Murray,Conroe The Woodlands,114.76,145.15,77.11,176.9,399.16,Unlimited,SBD,M,
