Division,WeightClassKg,Place,Name,Team,BodyweightKg,Best3SquatKg,Best3BenchKg,Best3DeadliftKg,TotalKg,Equipment,Event,Sex,BirthDate
Girls,44.23,1,Michaela Grimm,Copperas Cove,38.06,88.45,43.09,88.45,219.99,Unlimited,SBD,F,
Girls,44.23,2,Destiny Benavides,Waco University,41.73,56.7,27.22,83.91,167.83,Unlimited,SBD,F,
Girls,44.23,3,Valeria Perez,Waco University,40.32,49.9,24.95,54.43,129.27,Unlimited,SBD,F,
Girls,47.85,1,Aryana Ybarra,Waco Midway,47.81,86.18,47.63,95.25,229.06,Unlimited,SBD,F,
Girls,47.85,2,Katherine Grimm,Copperas Cove,45.13,70.31,40.82,77.11,188.24,Unlimited,SBD,F,
Girls,51.94,1,Kairah Rosas,Waco Midway,50.12,97.52,52.16,104.33,254.01,Unlimited,SBD,F,
Girls,51.94,2,Stormi Guinaldo,Temple,50.85,79.38,40.82,95.25,215.46,Unlimited,SBD,F,
Girls,51.94,3,Hanna Smith,Waco,50.98,61.23,38.56,90.72,190.51,Unlimited,SBD,F,
Girls,51.94,DQ,Kate Burke,Temple,50.17,86.18,47.63,,,Unlimited,SBD,F,
Girls,56.02,1,A Mya Moss,Copperas Cove,54.75,117.93,68.04,127.01,312.98,Unlimited,SBD,F,
Girls,56.02,2,Amanda Melendez,Temple,54.75,102.06,54.43,117.93,274.42,Unlimited,SBD,F,
Girls,56.02,3,Kyan Ramos,Copperas Cove,55.34,111.13,56.7,106.59,274.42,Unlimited,SBD,F,
Girls,56.02,4,Adriana Geraci-Medina,Copperas Cove,53.25,104.33,54.43,108.86,267.62,Unlimited,SBD,F,
Girls,56.02,5,Joselyn Quintanilla,Belton,55.52,99.79,43.09,106.59,249.48,Unlimited,SBD,F,
Girls,56.02,6,Briley Campbell,Belton,52.3,90.72,49.9,104.33,244.94,Unlimited,SBD,F,
Girls,56.02,7,Emily Stout,Waco University,54.48,99.79,52.16,92.99,244.94,Unlimited,SBD,F,
Girls,56.02,8,Madison Sapp,Temple,55.2,79.38,47.63,113.4,240.4,Unlimited,SBD,F,
Girls,56.02,9,Leann Holmes,Temple,54.7,83.91,58.97,79.38,222.26,Unlimited,SBD,F,
Girls,56.02,10,Kiara Lara,Waco Midway,52.66,77.11,47.63,92.99,217.72,Unlimited,SBD,F,
Girls,56.02,11,Riley Salazar,Waco Midway,53.25,68.04,43.09,77.11,188.24,Unlimited,SBD,F,
Girls,56.02,12,Trinity Meekins,Waco,53.98,72.57,31.75,83.91,188.24,Unlimited,SBD,F,
Girls,60.1,1,Leah Aguilar,Waco University,57.7,120.2,63.5,131.54,315.25,Unlimited,SBD,F,
Girls,60.1,2,Kelis Smith,Belton,59.06,106.59,63.5,113.4,283.5,Unlimited,SBD,F,
Girls,60.1,3,Jennylynn Martinez,Copperas Cove,56.65,90.72,68.04,106.59,265.35,Unlimited,SBD,F,
Girls,60.1,4,Skylynn Childers,Copperas Cove,56.15,90.72,45.36,97.52,233.6,Unlimited,SBD,F,
Girls,60.1,5,Natalia Coronado-Juarez,Waco,57.92,90.72,56.7,86.18,233.6,Unlimited,SBD,F,
Girls,60.1,6,Nina Bankston,Temple,59.19,72.57,47.63,111.13,231.33,Unlimited,SBD,F,
Girls,60.1,7,Ariunna Wilson,Temple,58.69,74.84,47.63,106.59,229.06,Unlimited,SBD,F,
Girls,60.1,8,Haleigh Poser,Copperas Cove,58.74,74.84,49.9,79.38,204.12,Unlimited,SBD,F,
Girls,60.1,9,Madison Snell,Temple,56.43,49.9,40.82,49.9,140.61,Unlimited,SBD,F,
Girls,67.36,1,Jacci Myers,Belton,67.13,145.15,88.45,158.76,392.36,Unlimited,SBD,F,
Girls,67.36,2,Lole Reyes,Belton,64.32,140.61,77.11,145.15,362.87,Unlimited,SBD,F,
Girls,67.36,3,Haven Crubaugh,Waco Midway,66.18,117.93,68.04,117.93,303.91,Unlimited,SBD,F,
Girls,67.36,4,Kaylee Rodarte,Copperas Cove,65.63,115.67,56.7,127.01,299.37,Unlimited,SBD,F,
Girls,67.36,5,Bella Reyes,Belton,63.05,92.99,52.16,104.33,249.48,Unlimited,SBD,F,
Girls,67.36,6,Aisha Mmanga,Waco University,64.41,86.18,43.09,106.59,235.87,Unlimited,SBD,F,
Girls,67.36,7,Emmalie Coronado,Waco,62.14,65.77,43.09,83.91,192.78,Unlimited,SBD,F,
Girls,67.36,8,Sirrah Stephens,Temple,64,86.18,24.95,68.04,179.17,Unlimited,SBD,F,
Girls,67.36,DQ,Larissa Rodriguez-Orozco,Waco,65.73,104.33,,,,Unlimited,SBD,F,
Girls,75.07,1,Zoe Guerrero,Temple,72.67,92.99,58.97,111.13,263.08,Unlimited,SBD,F,
Girls,75.07,2,Brayton Torres,Belton,70.72,97.52,56.7,102.06,256.28,Unlimited,SBD,F,
Girls,75.07,3,Brooklyn Williams,Temple,74.8,90.72,56.7,97.52,244.94,Unlimited,SBD,F,
Girls,75.07,4,Ava Fritz,Temple,67.99,83.91,47.63,83.91,215.46,Unlimited,SBD,F,
Girls,75.07,5,Jasmin Tapia,Waco University,71.71,72.57,27.22,70.31,170.1,Unlimited,SBD,F,
Girls,75.07,6,Emily Caro,Waco University,74.89,40.82,24.95,77.11,142.88,Unlimited,SBD,F,
Girls,75.07,DQ,Azlynn Mueller,Waco Midway,72.39,163.29,,,,Unlimited,SBD,F,
Girls,75.07,DQ,Shakiyah Campbell,Temple,74.84,52.16,,,,Unlimited,SBD,F,
Girls,82.33,1,Aysiah Wiser,Temple,75.75,131.54,61.23,136.08,328.85,Unlimited,SBD,F,
Girls,82.33,2,Gianna Laga,Belton,77.34,106.59,68.04,124.74,299.37,Unlimited,SBD,F,
Girls,82.33,3,Laniah Webb,Temple,80.01,81.65,56.7,124.74,263.08,Unlimited,SBD,F,
Girls,82.33,4,Tatiana Duncan,Waco University,80.78,83.91,49.9,102.06,235.87,Unlimited,SBD,F,
Girls,82.33,5,Anahi Perez,Belton,79.24,86.18,49.9,90.72,226.8,Unlimited,SBD,F,
Girls,82.33,DQ,Jaica Donaldson,Copperas Cove,78.11,,,,,Unlimited,SBD,F,
Girls,82.33,DQ,Alyssa Hardman,Temple,80.15,,,,,Unlimited,SBD,F,
Girls,82.33,DQ,Gabriela Magana,Belton,76.2,106.59,58.97,,,Unlimited,SBD,F,
Girls,90.04,1,Isabel Micus,Waco Midway,88.86,147.42,88.45,140.61,376.48,Unlimited,SBD,F,
Girls,90.04,2,Jazmine Letterman,Copperas Cove,89.04,131.54,56.7,131.54,319.78,Unlimited,SBD,F,
Girls,90.04,3,Mariah Gaines,Temple,87,97.52,61.23,124.74,283.5,Unlimited,SBD,F,
Girls,90.04,4,Kaylyn Wolf,Temple,85.59,86.18,54.43,124.74,265.35,Unlimited,SBD,F,
Girls,90.04,5,Desaray Salazar,Waco,87.09,86.18,54.43,120.2,260.82,Unlimited,SBD,F,
Girls,90.04,DQ,Albanieh Thomas,Waco Midway,84.59,,,,,Unlimited,SBD,F,
Girls,100.02,1,Jolina Toala,Copperas Cove,94.8,167.83,88.45,165.56,421.84,Unlimited,SBD,F,
Girls,100.02,2,Faith Echols,Waco Midway,99.2,181.44,72.57,156.49,410.5,Unlimited,SBD,F,
Girls,100.02,3,Sophia Gonzales,Waco University,95.8,142.88,81.65,138.35,362.87,Unlimited,SBD,F,
Girls,100.02,4,Destany Serrato,Waco University,94.53,115.67,56.7,102.06,274.42,Unlimited,SBD,F,
Girls,100.02,5,Patricia Brown,Temple,94.17,86.18,49.9,92.99,229.06,Unlimited,SBD,F,
Girls,100.02,6,Samarra Brooks,Temple,94.94,61.23,40.82,102.06,204.12,Unlimited,SBD,F,
Girls,117.71,1,Anastasia Duncan,Temple,109.45,122.47,68.04,124.74,315.25,Unlimited,SBD,F,
Girls,117.71,2,Jazaria Clinton,Temple,106.87,99.79,61.23,127.01,288.03,Unlimited,SBD,F,
Girls,117.71,3,Ianna Guy,Waco University,117.48,111.13,56.7,120.2,288.03,Unlimited,SBD,F,
Girls,117.71,4,Zoe Shilo,Temple,109.95,97.52,43.09,113.4,254.01,Unlimited,SBD,F,
Girls,117.71,DQ,Kassandra De La Rosa,Belton,101.47,,,,,Unlimited,SBD,F,
Girls,117.71+,1,Samantha Thaemert,Waco University,143.56,117.93,77.11,149.69,344.73,Unlimited,SBD,F,
Girls,117.71+,2,Ashley Farmer,Belton,120.79,129.27,70.31,122.47,322.05,Unlimited,SBD,F,
Girls,117.71+,3,Sarah Dix,Waco,120.84,115.67,77.11,129.27,322.05,Unlimited,SBD,F,
Girls,117.71+,4,Jazmyne Jackson,Waco Midway,123.74,115.67,65.77,115.67,297.1,Unlimited,SBD,F,
Girls,117.71+,5,Destiny Ward,Waco,127.46,104.33,63.5,113.4,281.23,Unlimited,SBD,F,
