Division,WeightClassKg,Place,Name,Team,BodyweightKg,Best3SquatKg,Best3BenchKg,Best3DeadliftKg,TotalKg,Equipment,Event,Sex,BirthDate
Boys,55.79,DQ,Nathan Hostetter,Richardson Berkner,53.98,,,,,Unlimited,SBD,M,
Boys,59.87,1,Addison Cole,Richardson,59.87,95.25,83.91,129.27,308.44,Unlimited,SBD,M,
Boys,67.13,1,Isiah Lee,Dallas Highland Park,67.13,167.83,97.52,174.63,439.98,Unlimited,SBD,M,
Boys,67.13,2,Conner Abel,Richardson Pearce,66.22,151.95,97.52,174.63,424.11,Unlimited,SBD,M,
Boys,67.13,3,Traylor Mitchell,Richardson Berkner,66.68,151.95,81.65,176.9,410.5,Unlimited,SBD,M,
Boys,74.84,1,Logan Auld,Richardson,74.39,165.56,136.08,156.49,458.13,Unlimited,SBD,M,
Boys,74.84,2,Lloyd Wyatt,Richardson Lake Highlands,69.4,158.76,90.72,181.44,430.91,Unlimited,SBD,M,
Boys,74.84,3,Chris Covin,Dallas Highland Park,70.31,154.22,102.06,158.76,415.04,Unlimited,SBD,M,
Boys,74.84,4,Matthew White,Dallas Highland Park,74.84,158.76,92.99,163.29,415.04,Unlimited,SBD,M,
Boys,74.84,5,Jerimiah Lyons,Richardson Pearce,72.57,158.76,92.99,142.88,394.63,Unlimited,SBD,M,
Boys,74.84,6,Patton Vargas,Dallas Highland Park,72.57,131.54,79.38,147.42,358.34,Unlimited,SBD,M,
Boys,74.84,7,Angel Gutierrez,Richardson,69.4,129.27,70.31,133.81,333.39,Unlimited,SBD,M,
Boys,82.1,1,Areion Coln,Richardson,78.93,206.38,151.95,190.51,548.85,Unlimited,SBD,M,
Boys,82.1,2,Harrison Day,Richardson Lake Highlands,79.83,188.24,102.06,185.97,476.27,Unlimited,SBD,M,
Boys,82.1,3,Zach Newcomer,Richardson Berkner,81.65,165.56,102.06,206.38,474,Unlimited,SBD,M,
Boys,82.1,4,Coleman Roper,Richardson,81.65,167.83,122.47,172.37,462.66,Unlimited,SBD,M,
Boys,82.1,5,Zach Simpson,Richardson Pearce,81.65,161.03,102.06,163.29,426.38,Unlimited,SBD,M,
Boys,82.1,6,Leonardo Loayza,Richardson,77.11,151.95,102.06,156.49,410.5,Unlimited,SBD,M,
Boys,82.1,7,Sean Ponce,Richardson Pearce,78.47,145.15,86.18,170.1,401.43,Unlimited,SBD,M,
Boys,82.1,8,White Sloan,Dallas Highland Park,79.38,161.03,83.91,154.22,399.16,Unlimited,SBD,M,
Boys,82.1,9,Jeremiah Jones,Richardson Lake Highlands,81.65,147.42,83.91,151.95,383.29,Unlimited,SBD,M,
Boys,82.1,10,Othniel Oyeole,Richardson Berkner,75.75,113.4,63.5,170.1,347,Unlimited,SBD,M,
Boys,82.1,11,Shaw Harrison,Dallas Highland Park,79.38,115.67,81.65,106.59,303.91,Unlimited,SBD,M,
Boys,89.81,1,Juan Ariz,Richardson Lake Highlands,88.45,174.63,120.2,188.24,483.08,Unlimited,SBD,M,
Boys,89.81,2,Christian Rhodes,Richardson Lake Highlands,88,163.29,90.72,192.78,446.79,Unlimited,SBD,M,
Boys,89.81,3,Will Patton,Richardson,87.54,154.22,120.2,149.69,424.11,Unlimited,SBD,M,
Boys,89.81,4,Sam Zay Zay,Richardson Berkner,86.18,142.88,88.45,165.56,396.89,Unlimited,SBD,M,
Boys,89.81,5,Brienne Chavez,Richardson Berkner,88.45,133.81,79.38,151.95,365.14,Unlimited,SBD,M,
Boys,89.81,6,Sevyn Sheppard,Richardson Berkner,86.64,113.4,79.38,158.76,351.53,Unlimited,SBD,M,
Boys,99.79,1,Justin Murphy #7,Richardson,99.34,208.65,176.9,254.01,639.57,Unlimited,SBD,M,
Boys,99.79,2,Jack Gillis,Richardson Pearce,95.25,226.8,147.42,229.06,603.28,Unlimited,SBD,M,
Boys,99.79,3,Michael Odelami,Richardson Lake Highlands,97.07,195.04,131.54,226.8,553.38,Unlimited,SBD,M,
Boys,99.79,4,Luke Johson,Richardson Pearce,90.72,204.12,138.35,197.31,539.77,Unlimited,SBD,M,
Boys,99.79,5,Chicobey Doyle,Richardson Berkner,90.72,185.97,113.4,213.19,512.56,Unlimited,SBD,M,
Boys,99.79,6,Connor Gordon,Richardson,94.35,172.37,124.74,183.7,480.81,Unlimited,SBD,M,
Boys,99.79,7,Signor Will,Dallas Highland Park,95.25,195.04,106.59,174.63,476.27,Unlimited,SBD,M,
Boys,99.79,8,Leinert Harrison,Dallas Highland Park,97.52,183.7,104.33,176.9,464.93,Unlimited,SBD,M,
Boys,99.79,9,Pinson Primo,Dallas Highland Park,92.99,124.74,95.25,174.63,394.63,Unlimited,SBD,M,
Boys,99.79,10,Brady Servin,Richardson Pearce,99.79,124.74,72.57,142.88,340.19,Unlimited,SBD,M,
Boys,109.77,1,Timothy Billups,Richardson Lake Highlands,108.41,213.19,108.86,204.12,526.17,Unlimited,SBD,M,
Boys,109.77,2,Diego Granados,Richardson,102.06,183.7,124.74,197.31,505.76,Unlimited,SBD,M,
Boys,109.77,3,Nazher Freeman,Richardson,104.33,165.56,124.74,185.97,476.27,Unlimited,SBD,M,
Boys,109.77,4,Will Miltenberger,Richardson Pearce,102.06,174.63,111.13,183.7,469.47,Unlimited,SBD,M,
Boys,109.77,5,Mason Busch,Richardson Lake Highlands,109.32,154.22,90.72,181.44,426.38,Unlimited,SBD,M,
Boys,109.77,6,Himony Kraim,Richardson Berkner,106.59,163.29,86.18,170.1,419.57,Unlimited,SBD,M,
Boys,109.77,7,McDowell Mason,Dallas Highland Park,102.06,156.49,92.99,156.49,405.97,Unlimited,SBD,M,
Boys,109.77,8,Drew Morgan,Richardson Pearce,106.59,133.81,95.25,163.29,392.36,Unlimited,SBD,M,
Boys,109.77,9,Emmanuel Ventura-Nair,Richardson Pearce,103.42,142.88,92.99,151.95,387.82,Unlimited,SBD,M,
Boys,124.74,1,Angel Flores,Richardson Pearce,113.4,213.19,124.74,219.99,557.92,Unlimited,SBD,M,
Boys,124.74,2,Andrew Rea,Richardson Lake Highlands,112.94,199.58,117.93,195.04,512.56,Unlimited,SBD,M,
Boys,124.74,3,Joshua Lopez,Richardson,122.92,190.51,131.54,183.7,505.76,Unlimited,SBD,M,
Boys,124.74,4,Jordan Oltmanns,Richardson Pearce,120.2,192.78,97.52,192.78,483.08,Unlimited,SBD,M,
Boys,124.74,5,Zay Gipson,Richardson Berkner,113.4,181.44,106.59,170.1,458.13,Unlimited,SBD,M,
Boys,124.74,6,Jayden Sunsin,Richardson,120.66,147.42,111.13,165.56,424.11,Unlimited,SBD,M,
Boys,124.74,7,Luna Jesse,Dallas Highland Park,113.4,170.1,92.99,,263.08,Unlimited,SB,M,
Boys,124.74,DQ,Landon Clark,Richardson Berkner,124.74,,,,,Unlimited,SBD,M,
Boys,139.71,1,Ben Martinez,Richardson Lake Highlands,125.19,210.92,113.4,192.78,517.1,Unlimited,SBD,M,
Boys,139.71,2,Matthew Lewis,Richardson,132,195.04,120.2,183.7,498.95,Unlimited,SBD,M,
Boys,139.71,3,Jacorian Green,Richardson Berkner,130.18,156.49,,170.1,326.59,Unlimited,SD,M,
Boys,139.71+,1,King David Ibeabuchi,Richardson Lake Highlands,141.52,213.19,133.81,213.19,560.19,Unlimited,SBD,M,
