Division,WeightClassKg,Place,Name,Team,BodyweightKg,Best3SquatKg,Best3BenchKg,Best3DeadliftKg,TotalKg,Equipment,Event,Sex,BirthDate
Boys,51.71,1,Jaycob Leos,Victoria East,,136.08,70.31,142.88,349.27,Unlimited,SBD,M,
Boys,51.71,NS,Jordan Hudson,Bishop,,,,,,Unlimited,SBD,M,
Boys,51.71,NS,Julian Valdivia,Refugio,,,,,,Unlimited,SBD,M,
Boys,55.79,1,Jayden Moya,Refugio,55.79,154.22,90.72,183.7,428.64,Unlimited,SBD,M,
Boys,55.79,2,James Miori,Victoria West,55.79,142.88,70.31,142.88,356.07,Unlimited,SBD,M,
Boys,55.79,NS,Joel Chesnutt,Woodsboro,,,,,,Unlimited,SBD,M,
Boys,55.79,NS,Shel Htoo,Port Lavaca Calhoun,,,,,,Unlimited,SBD,M,
Boys,59.87,1,Alex Tafolla,Port Lavaca Calhoun,59.69,154.22,90.72,192.78,437.72,Unlimited,SBD,M,
Boys,59.87,2,Wyatt Young,Bishop,58.69,83.91,52.16,102.06,238.14,Unlimited,SBD,M,
Boys,59.87,3,Landen Contreras,Bishop,59.78,83.91,47.63,92.99,224.53,Unlimited,SBD,M,
Boys,59.87,NS,Juan Garza,Aransas Pass,,,,,,Unlimited,SBD,M,
Boys,59.87,DQ,Tristan Trevino,Woodsboro,59.69,117.93,,,,Unlimited,SBD,M,
Boys,59.87,DQ,Eian Duncan,Refugio,56.88,,,,,Unlimited,SBD,M,
Boys,67.13,1,Mason Gwosdz,Victoria East,66.13,256.28,145.15,231.33,632.76,Unlimited,SBD,M,
Boys,67.13,2,Antonio Pena,Ingleside,66.86,197.31,124.74,195.04,517.1,Unlimited,SBD,M,
Boys,67.13,3,Yovanny Villa,Victoria East,64.23,167.83,99.79,163.29,430.91,Unlimited,SBD,M,
Boys,67.13,4,Carson Lopez,Ingleside,65.95,158.76,88.45,142.88,390.09,Unlimited,SBD,M,
Boys,67.13,5,Eliseo Ortega,Bishop,67.13,158.76,81.65,149.69,390.09,Unlimited,SBD,M,
Boys,67.13,6,Alexis Santos,Stockdale,66.5,147.42,83.91,154.22,385.55,Unlimited,SBD,M,
Boys,67.13,7,Jose Mendoza,Runge,66.41,136.08,65.77,149.69,351.53,Unlimited,SBD,M,
Boys,67.13,8,Jayce Gameswell,Port Lavaca Calhoun,65.86,124.74,81.65,142.88,349.27,Unlimited,SBD,M,
Boys,67.13,9,Adrian Sanchez-Lara,Victoria West,64.23,122.47,79.38,145.15,347,Unlimited,SBD,M,
Boys,67.13,10,Colbin Gutierrez,Runge,65.86,127.01,77.11,131.54,335.66,Unlimited,SBD,M,
Boys,67.13,11,Blake Davis,Port Lavaca Calhoun,61.69,115.67,74.84,138.35,328.85,Unlimited,SBD,M,
Boys,67.13,12,Timothy Rocha,Woodsboro,64.95,102.06,79.38,122.47,303.91,Unlimited,SBD,M,
Boys,67.13,13,Anthony Cruz,Karnes City,63.05,83.91,45.36,83.91,213.19,Unlimited,SBD,M,
Boys,67.13,NS,Nicholas Salinas,Karnes City,,,,,,Unlimited,SBD,M,
Boys,67.13,NS,Carson Davis,Ingleside,,,,,,Unlimited,SBD,M,
Boys,67.13,NS,Robby Jaso,Refugio,,,,,,Unlimited,SBD,M,
Boys,67.13,DQ,Eythan Diaz,Refugio,62.6,,,,,Unlimited,SBD,M,
Boys,67.13,DQ,Glenn Giddens,Woodsboro,66.68,165.56,,,,Unlimited,SBD,M,
Boys,67.13,DQ,Tristan Dominic,Woodsboro,66.22,120.2,,,,Unlimited,SBD,M,
Boys,67.13,DQ,Julian Perales,Karnes City,64.95,124.74,,,,Unlimited,SBD,M,
Boys,74.84,1,Randal Delgado,Victoria East,73.94,260.82,165.56,233.6,659.98,Unlimited,SBD,M,
Boys,74.84,2,Ricky Ayala,Stockdale,68.76,167.83,106.59,197.31,471.74,Unlimited,SBD,M,
Boys,74.84,3,Isreal Soto,Karnes City,74.39,183.7,102.06,174.63,460.4,Unlimited,SBD,M,
Boys,74.84,4,Anthonie Cordova,Ingleside,71.49,165.56,97.52,181.44,444.52,Unlimited,SBD,M,
Boys,74.84,5,C J Rucker,Stockdale,69.4,170.1,97.52,170.1,437.72,Unlimited,SBD,M,
Boys,74.84,6,Camden Derricoatte,Stockdale,68.4,167.83,97.52,170.1,435.45,Unlimited,SBD,M,
Boys,74.84,7,Marcus Barron,Ingleside,68.86,156.49,95.25,147.42,399.16,Unlimited,SBD,M,
Boys,74.84,8,Mattison Ferrell,Ingleside,71.94,142.88,86.18,142.88,371.95,Unlimited,SBD,M,
Boys,74.84,9,Noah Alvarado,Victoria West,74.84,122.47,92.99,136.08,351.53,Unlimited,SBD,M,
Boys,74.84,10,Anthony Garcia,Bishop,72.39,113.4,88.45,142.88,344.73,Unlimited,SBD,M,
Boys,74.84,11,Jonathan Solansky,Refugio,68.04,102.06,68.04,147.42,317.51,Unlimited,SBD,M,
Boys,74.84,12,Wyatt Merritt,Karnes City,72.94,95.25,52.16,83.91,231.33,Unlimited,SBD,M,
Boys,74.84,NS,Justice Cuellar,Karnes City,,,,,,Unlimited,SBD,M,
Boys,74.84,DQ,Joel Flores,Stockdale,73.48,,,,,Unlimited,SBD,M,
Boys,74.84,DQ,Angel Guerrero,Port Lavaca Calhoun,73.12,226.8,136.08,,,Unlimited,SBD,M,
Boys,82.1,1,Travis Ochoa,Aransas Pass,75.93,197.31,142.88,179.17,519.36,Unlimited,SBD,M,
Boys,82.1,2,Juan Franco,Stockdale,79.02,213.19,131.54,174.63,519.36,Unlimited,SBD,M,
Boys,82.1,3,Noah Pearce,Port Lavaca Calhoun,80.92,197.31,129.27,181.44,508.02,Unlimited,SBD,M,
Boys,82.1,4,Sonny Alaniz,Bishop,76.38,183.7,108.86,174.63,467.2,Unlimited,SBD,M,
Boys,82.1,5,Brayden Gray,Woodsboro,75.66,165.56,108.86,183.7,458.13,Unlimited,SBD,M,
Boys,82.1,6,Gunner McCall,Port Lavaca Calhoun,81.19,149.69,111.13,185.97,446.79,Unlimited,SBD,M,
Boys,82.1,7,Emilio Martinez,Ingleside,81.92,156.49,95.25,183.7,435.45,Unlimited,SBD,M,
Boys,82.1,8,Devin De La Garza,Bishop,77.56,122.47,70.31,124.74,317.51,Unlimited,SBD,M,
Boys,82.1,9,Richard Soliz,Bishop,81.19,92.99,43.09,111.13,247.21,Unlimited,SBD,M,
Boys,89.81,1,Tayden Grimes,Woodsboro,87.45,290.3,172.37,244.94,707.6,Unlimited,SBD,M,
Boys,89.81,2,Ruben Villareal,Port Lavaca Calhoun,85.91,213.19,136.08,204.12,553.38,Unlimited,SBD,M,
Boys,89.81,3,Christian Diaz,Victoria West,86.18,197.31,131.54,215.46,544.31,Unlimited,SBD,M,
Boys,89.81,4,Brenhan Tumlinson,Victoria East,89.81,197.31,129.27,167.83,494.42,Unlimited,SBD,M,
Boys,89.81,5,Kaeveon Williams,Victoria East,84.55,161.03,102.06,149.69,412.77,Unlimited,SBD,M,
Boys,89.81,6,Ethan Engler,Stockdale,89.36,147.42,102.06,149.69,399.16,Unlimited,SBD,M,
Boys,89.81,DQ,Douglas Farrell,Refugio,86.64,,,,,Unlimited,SBD,M,
Boys,89.81,NS,Bo Woody,Port Lavaca Calhoun,,,,,,Unlimited,SBD,M,
Boys,89.81,NS,Blank Blank,Victoria West,,,,,,Unlimited,SBD,M,
Boys,89.81,DQ,Gavin Alvear,Karnes City,88.72,201.85,111.13,,,Unlimited,SBD,M,
Boys,99.79,1,Xavier Hernandez,Stockdale,96.43,256.28,140.61,249.48,646.37,Unlimited,SBD,M,
Boys,99.79,2,Jake Jenkins,Port Lavaca Calhoun,98.34,226.8,147.42,188.24,562.45,Unlimited,SBD,M,
Boys,99.79,3,Johnaven Montalvo,Refugio,94.62,217.72,106.59,201.85,526.17,Unlimited,SBD,M,
Boys,99.79,4,Torre Castillo,Port Lavaca Calhoun,93.35,165.56,129.27,204.12,498.95,Unlimited,SBD,M,
Boys,99.79,5,Kevin Cupp,Victoria East,95.35,190.51,120.2,154.22,464.93,Unlimited,SBD,M,
Boys,99.79,6,Jackson Pogue,Victoria West,99.79,161.03,115.67,183.7,460.4,Unlimited,SBD,M,
Boys,99.79,7,John Baca,Stockdale,90.72,174.63,95.25,158.76,428.64,Unlimited,SBD,M,
Boys,99.79,8,Osvaldo Martinez,Karnes City,92.62,138.35,92.99,140.61,371.95,Unlimited,SBD,M,
Boys,99.79,NS,Cole Sparlek,Woodsboro,,,,,,Unlimited,SBD,M,
Boys,99.79,DQ,Mateo Rodriguez,Karnes City,95.35,,,,,Unlimited,SBD,M,
Boys,109.77,1,Daniel Diaz,Three Rivers,102.69,217.72,154.22,226.8,598.74,Unlimited,SBD,M,
Boys,109.77,2,Cameron Garcia,Three Rivers,102.69,206.38,158.76,185.97,551.11,Unlimited,SBD,M,
Boys,109.77,3,Emilio Ortiz,Port Lavaca Calhoun,109.23,201.85,133.81,197.31,532.97,Unlimited,SBD,M,
Boys,109.77,4,Cadence Wills,Refugio,109.5,165.56,133.81,199.58,498.95,Unlimited,SBD,M,
Boys,109.77,5,Conner Hajovsky,Stockdale,103.15,174.63,104.33,163.29,442.25,Unlimited,SBD,M,
Boys,109.77,6,Lucas Stillman,Ingleside,103.69,165.56,111.13,151.95,428.64,Unlimited,SBD,M,
Boys,109.77,NS,Douglas Feijoo Contreras,Refugio,,,,,,Unlimited,SBD,M,
Boys,109.77,DQ,Gavin Davis,Victoria West,107.14,99.79,,,,Unlimited,SBD,M,
Boys,124.74,1,Manuel Hinojosa,Ingleside,121.38,249.48,151.95,235.87,637.3,Unlimited,SBD,M,
Boys,124.74,2,Gavin Chavez,Port Lavaca Calhoun,120.2,224.53,142.88,190.51,557.92,Unlimited,SBD,M,
Boys,124.74,3,Jonathan Rivera,Victoria East,123.2,213.19,147.42,181.44,542.04,Unlimited,SBD,M,
Boys,124.74,4,Nate Morgan,Ingleside,123.56,185.97,124.74,181.44,492.15,Unlimited,SBD,M,
Boys,124.74,5,Ryan Martinez,Karnes City,120.29,183.7,92.99,170.1,446.79,Unlimited,SBD,M,
Boys,124.74,6,David Martinez,Bishop,117.3,165.56,92.99,151.95,410.5,Unlimited,SBD,M,
Boys,124.74,NS,Andrew Morin,Three Rivers,,,,,,Unlimited,SBD,M,
Boys,124.74,NS,Christian Harmon,Ingleside,,,,,,Unlimited,SBD,M,
Boys,139.71,1,Daisn Pena,Runge,132.72,161.03,90.72,183.7,435.45,Unlimited,SBD,M,
Boys,139.71,2,Julian Moreno,Bishop,134.44,183.7,92.99,138.35,415.04,Unlimited,SBD,M,
Boys,139.71,3,Darren Hernandez,Karnes City,130.73,117.93,92.99,158.76,369.68,Unlimited,SBD,M,
Boys,139.71,NS,Cooper Clark,Victoria West,,,,,,Unlimited,SBD,M,
Boys,139.71+,1,Jose Lugo,Victoria East,147.78,351.53,215.46,249.48,816.47,Unlimited,SBD,M,
Boys,139.71+,2,Dalton Romo,Three Rivers,185.97,122.47,95.25,161.03,378.75,Unlimited,SBD,M,
Boys,139.71+,3,Seay Clark,Karnes City,148.96,124.74,77.11,136.08,337.93,Unlimited,SBD,M,
Boys,139.71+,NS,Artemio Herrera,Port Lavaca Calhoun,,,,,,Unlimited,SBD,M,
