Division,WeightClassKg,Place,Name,Team,BodyweightKg,Best3SquatKg,Best3BenchKg,Best3DeadliftKg,TotalKg,Equipment,Event,Sex,BirthDate
Boys,51.71,1,Tanner McDaniel,Brownwood,50.89,65.77,52.16,83.91,201.85,Unlimited,SBD,M,
Boys,51.71,DQ,Aiden Hull,Tolar,51.62,,45.36,92.99,,Unlimited,SBD,M,
Boys,55.79,1,Brayson Barnard,Tolar,54.43,106.59,65.77,106.59,278.96,Unlimited,SBD,M,
Boys,59.87,1,Adam Perez,De Leon,59.65,188.24,104.33,197.31,489.88,Unlimited,SBD,M,
Boys,59.87,2,Preston Cook,Brownwood,58.79,165.56,102.06,185.97,453.59,Unlimited,SBD,M,
Boys,59.87,3,Marvin Swenson,Stephenville,58.92,138.35,83.91,161.03,383.29,Unlimited,SBD,M,
Boys,59.87,4,Rowdee Robison,Stephenville,57.92,120.2,70.31,149.69,340.19,Unlimited,SBD,M,
Boys,59.87,5,Justin Hurst,Fort Worth Western Hills,58.38,127.01,65.77,136.08,328.85,Unlimited,SBD,M,
Boys,59.87,6,David Greene,Dublin,59.42,104.33,58.97,136.08,299.37,Unlimited,SBD,M,
Boys,59.87,DQ,Malikai Rios,Dublin,57.56,,,,,Unlimited,SBD,M,
Boys,67.13,1,Omar Reyes,Stephenville,66.13,206.38,124.74,190.51,521.63,Unlimited,SBD,M,
Boys,67.13,2,Jermey Ansons,Brownwood,65.95,167.83,113.4,154.22,435.45,Unlimited,SBD,M,
Boys,67.13,3,Joseph Johnson,Tolar,60.78,129.27,111.13,158.76,399.16,Unlimited,SBD,M,
Boys,67.13,4,Stetson Navarro,Stephenville,63.82,142.88,83.91,154.22,381.02,Unlimited,SBD,M,
Boys,67.13,5,Jackson Hice,Stephenville,65.86,138.35,83.91,145.15,367.41,Unlimited,SBD,M,
Boys,67.13,6,Rowdy Hayes,Stephenville,61.46,147.42,81.65,136.08,365.14,Unlimited,SBD,M,
Boys,67.13,7,Jesus Guzman,Fort Worth Diamond Hill-Jarvis,65.77,140.61,79.38,142.88,362.87,Unlimited,SBD,M,
Boys,67.13,8,Kayson Patterson,Brownwood,66.27,124.74,79.38,158.76,362.87,Unlimited,SBD,M,
Boys,67.13,9,Josh Oliver,Fort Worth Western Hills,64.95,142.88,74.84,136.08,353.8,Unlimited,SBD,M,
Boys,67.13,10,Tanner Mills,Stephenville,64.95,120.2,79.38,149.69,349.27,Unlimited,SBD,M,
Boys,67.13,11,Damon Moore,Jonesboro,66.72,117.93,79.38,115.67,312.98,Unlimited,SBD,M,
Boys,67.13,12,Isreal Duran,Fort Worth Diamond Hill-Jarvis,61.14,79.38,49.9,117.93,247.21,Unlimited,SBD,M,
Boys,67.13,DQ,Braxton Champion,Stephenville,66.63,188.24,106.59,,,Unlimited,SBD,M,
Boys,74.84,1,Cole Chaplin,Stephenville,73.39,190.51,129.27,183.7,503.49,Unlimited,SBD,M,
Boys,74.84,2,Tra Watley,Stephenville,74.75,192.78,115.67,192.78,501.22,Unlimited,SBD,M,
Boys,74.84,3,Aj Stewart,De Leon,72.39,181.44,88.45,176.9,446.79,Unlimited,SBD,M,
Boys,74.84,4,Cooper Clemons,Tolar,72.62,161.03,79.38,149.69,390.09,Unlimited,SBD,M,
Boys,74.84,5,Esteban Salas,Milford,73.66,156.49,79.38,151.95,387.82,Unlimited,SBD,M,
Boys,74.84,6,Zach Paul,Jonesboro,74.75,99.79,61.23,127.01,288.03,Unlimited,SBD,M,
Boys,74.84,DQ,Immanuel Vazquez,Stephenville,73.71,170.1,,165.56,,Unlimited,SBD,M,
Boys,74.84,DQ,Corey Layne,Anson,71.99,181.44,,,,Unlimited,SBD,M,
Boys,82.1,1,Elias Ramos,Anson,79.97,244.94,161.03,256.28,662.24,Unlimited,SBD,M,
Boys,82.1,2,Hayden Hernandez,Stephenville,81.78,233.6,145.15,219.99,598.74,Unlimited,SBD,M,
Boys,82.1,3,Levi Pearson,Brownwood,80.74,238.14,129.27,226.8,594.21,Unlimited,SBD,M,
Boys,82.1,4,Sam Lawerence,Jonesboro,77.25,172.37,120.2,215.46,508.02,Unlimited,SBD,M,
Boys,82.1,5,Cutter Gribble,Jonesboro,78.43,145.15,97.52,181.44,424.11,Unlimited,SBD,M,
Boys,82.1,6,Isaac Martinez,Dublin,78.47,136.08,90.72,158.76,385.55,Unlimited,SBD,M,
Boys,82.1,7,Jory McKethen,Dublin,80.78,149.69,68.04,136.08,353.8,Unlimited,SBD,M,
Boys,82.1,8,Cade Cochran,Tolar,80.2,120.2,88.45,142.88,351.53,Unlimited,SBD,M,
Boys,82.1,DQ,Karsten Brigman,Stephenville,81.15,,,,,Unlimited,SBD,M,
Boys,82.1,DQ,Riley Kemp,Dublin,79.97,,,,,Unlimited,SBD,M,
Boys,89.81,1,Sam Stewart,Tolar,88.5,219.99,158.76,249.48,628.23,Unlimited,SBD,M,
Boys,89.81,2,Jacob Bryant,Fort Worth Western Hills,85.96,206.38,131.54,251.74,589.67,Unlimited,SBD,M,
Boys,89.81,3,Derek Ivey,Tolar,88.31,219.99,129.27,192.78,542.04,Unlimited,SBD,M,
Boys,89.81,4,Gage Heinz,De Leon,89.22,210.92,127.01,192.78,530.7,Unlimited,SBD,M,
Boys,89.81,5,Connor Bostic,De Leon,85.28,204.12,108.86,204.12,517.1,Unlimited,SBD,M,
Boys,89.81,6,Dalton Brown,Anson,87,188.24,111.13,195.04,494.42,Unlimited,SBD,M,
Boys,89.81,7,Dshaun Elder,Fort Worth Western Hills,87.63,176.9,79.38,188.24,444.52,Unlimited,SBD,M,
Boys,89.81,8,Garrett Johnson,Milford,87.72,181.44,81.65,181.44,444.52,Unlimited,SBD,M,
Boys,89.81,9,Carlos García,Fort Worth Diamond Hill-Jarvis,88.13,136.08,102.06,142.88,381.02,Unlimited,SBD,M,
Boys,89.81,10,Antonio Ortiz,Dublin,84.46,142.88,74.84,136.08,353.8,Unlimited,SBD,M,
Boys,89.81,11,Jaxson Kille,Dublin,86.5,117.93,68.04,127.01,312.98,Unlimited,SBD,M,
Boys,89.81,DQ,Logan Trussell,Three Way,88.95,206.38,151.95,,,Unlimited,SBD,M,
Boys,89.81,DQ,Simon Dominguez,Lingleville,85.82,,63.5,127.01,,Unlimited,SBD,M,
Boys,99.79,1,Mason Hodges,Stephenville,95.03,240.4,136.08,238.14,614.62,Unlimited,SBD,M,
Boys,99.79,2,Hayden Parker,Anson,97.57,224.53,142.88,222.26,589.67,Unlimited,SBD,M,
Boys,99.79,3,Adrian Tepetate,De Leon,97.61,217.72,136.08,213.19,566.99,Unlimited,SBD,M,
Boys,99.79,4,Eli Garza,De Leon,92.9,183.7,111.13,213.19,508.02,Unlimited,SBD,M,
Boys,99.79,5,Ethan Tepetate,De Leon,93.08,190.51,104.33,179.17,474,Unlimited,SBD,M,
Boys,99.79,6,Josiah Pena,Fort Worth Western Hills,98.57,197.31,102.06,170.1,469.47,Unlimited,SBD,M,
Boys,99.79,7,Anthony Garcia,Three Way,93.98,115.67,79.38,140.61,335.66,Unlimited,SBD,M,
Boys,99.79,DQ,Alijah Lozano,Anson,96.71,,,,,Unlimited,SBD,M,
Boys,109.77,1,Josh Raga,Fort Worth Western Hills,106.23,254.01,149.69,204.12,607.81,Unlimited,SBD,M,
Boys,109.77,2,Gus Gonzales,Brownwood,106.41,238.14,142.88,199.58,580.6,Unlimited,SBD,M,
Boys,109.77,3,Brazos Boswell,De Leon,109.45,244.94,124.74,204.12,573.79,Unlimited,SBD,M,
Boys,109.77,4,Raul Eberhardt,Brownwood,108.36,215.46,117.93,226.8,560.19,Unlimited,SBD,M,
Boys,109.77,5,Jayden Rios,Dublin,107.86,176.9,86.18,185.97,449.06,Unlimited,SBD,M,
Boys,109.77,6,Hector Jimenez,Fort Worth Diamond Hill-Jarvis,106.46,154.22,97.52,165.56,417.3,Unlimited,SBD,M,
Boys,109.77,7,Adam Nunez,Fort Worth Diamond Hill-Jarvis,106.1,115.67,72.57,142.88,331.12,Unlimited,SBD,M,
Boys,109.77,DQ,Jw Rickabaugh,Tolar,106.64,217.72,158.76,,,Unlimited,SBD,M,
Boys,124.74,1,Kevin Cruz,Fort Worth Western Hills,118.75,294.84,192.78,238.14,725.75,Unlimited,SBD,M,
Boys,124.74,2,Logan Flores,Brownwood,123.88,251.74,161.03,204.12,616.89,Unlimited,SBD,M,
Boys,124.74,3,Juan Garcia,De Leon,124.01,231.33,138.35,204.12,573.79,Unlimited,SBD,M,
Boys,124.74,4,Scott Prouty,Stephenville,117.66,229.06,142.88,188.24,560.19,Unlimited,SBD,M,
Boys,124.74,5,Ryan Gibson,De Leon,123.2,222.26,136.08,199.58,557.92,Unlimited,SBD,M,
Boys,124.74,6,Micah Moreno,Anson,121.47,226.8,142.88,176.9,546.58,Unlimited,SBD,M,
Boys,124.74,7,Maurcio Martinez,Fort Worth Western Hills,119.48,199.58,124.74,185.97,510.29,Unlimited,SBD,M,
Boys,124.74,8,Ja'Koi Brager,Milford,122.97,204.12,117.93,181.44,503.49,Unlimited,SBD,M,
Boys,124.74,9,Baylor Whiteley,De Leon,117.03,181.44,97.52,188.24,467.2,Unlimited,SBD,M,
Boys,124.74,DQ,Ben Leal,De Leon,114.99,215.46,138.35,,,Unlimited,SBD,M,
Boys,124.74,DQ,Julio Fletes,Brownwood,121.52,206.38,,,,Unlimited,SBD,M,
Boys,124.74,DQ,Anthony Rodriguez,Fort Worth Western Hills,117.07,,,,,Unlimited,SBD,M,
Boys,139.71,1,Caysen Bergt,Stephenville,133.17,260.82,147.42,238.14,646.37,Unlimited,SBD,M,
Boys,139.71,2,Cooper Doty,Stephenville,127.5,265.35,145.15,233.6,644.1,Unlimited,SBD,M,
Boys,139.71,3,Jace Thompson,Anson,137.53,233.6,151.95,226.8,612.35,Unlimited,SBD,M,
Boys,139.71,DQ,Aiden Collier,Stephenville,136.67,265.35,,199.58,,Unlimited,SBD,M,
Boys,139.71,DQ,Arturo Leija,Stephenville,135.76,,,,,Unlimited,SBD,M,
Boys,139.71+,1,Aidan Packheiser,Brownwood,145.6,251.74,206.38,197.31,655.44,Unlimited,SBD,M,
Boys,139.71+,2,Slade Shields,Stephenville,144.38,265.35,161.03,210.92,637.3,Unlimited,SBD,M,
