Division,WeightClassKg,Place,Name,Team,BodyweightKg,Best3SquatKg,Best3BenchKg,Best3DeadliftKg,TotalKg,Equipment,Event,Sex
Girls,44.23,1,Genesis Zamora,Sherman,44.18,95.25,54.43,115.67,265.35,Single-ply,SBD,F
Girls,44.23,2,Ashley Fink,Little Elm,43.09,102.06,54.43,92.99,249.48,Single-ply,SBD,F
Girls,44.23,3,Melissa Ocasio,Little Elm,43,86.18,54.43,104.33,244.94,Single-ply,SBD,F
Girls,44.23,4,Rosario Labrada,Whitesboro,43.45,81.65,52.16,90.72,224.53,Single-ply,SBD,F
Girls,44.23,5,Stefani Bermudez,Denison,43.82,79.38,45.36,88.45,213.19,Single-ply,SBD,F
Girls,44.23,6,Logan Vance,Bells,44,70.31,43.09,77.11,190.51,Single-ply,SBD,F
Girls,44.23,7,Topanga Rohrer,Callisburg,42.18,61.23,29.48,70.31,161.03,Single-ply,SBD,F
Girls,44.23,DQ,Hayley Morgan,Sadler S & S Cons,41.91,63.5,38.56,,,Single-ply,SBD,F
Girls,44.23,DQ,Mary Robinson,Sadler S & S Cons,44.18,68.04,40.82,,,Single-ply,SBD,F
Girls,47.85,1,Shelbie Rhodes,Little Elm,47.45,113.4,52.16,117.93,283.5,Single-ply,SBD,F
Girls,47.85,2,Katlyn Armstrong,Callisburg,47.45,106.59,47.63,95.25,249.48,Single-ply,SBD,F
Girls,47.85,3,Molly Chhor,Little Elm,47.54,90.72,43.09,106.59,240.4,Single-ply,SBD,F
Girls,47.85,4,Rhiannon Spaulding,Farmersville,46.99,88.45,52.16,92.99,233.6,Single-ply,SBD,F
Girls,47.85,5,Stefani Mason,Aubrey,46.81,97.52,43.09,90.72,231.33,Single-ply,SBD,F
Girls,47.85,6,Rebecca Reed,Sadler S & S Cons,47.45,86.18,34.02,97.52,217.72,Single-ply,SBD,F
Girls,47.85,7,Keeley Jurca,Blue Ridge,46.45,70.31,47.63,92.99,210.92,Single-ply,SBD,F
Girls,47.85,8,Asia Medlin,Denison,47.72,74.84,45.36,77.11,197.31,Single-ply,SBD,F
Girls,47.85,9,Emily Davis,Lindsay,46.72,54.43,36.29,90.72,181.44,Single-ply,SBD,F
Girls,47.85,10,Lauren Newman,Leonard,47.08,70.31,31.75,72.57,174.63,Single-ply,SBD,F
Girls,47.85,11,Jade Cox,Howe,46.99,65.77,27.22,54.43,147.42,Single-ply,SBD,F
Girls,51.94,1,Rachel Greve,Van Alstyne,50.62,102.06,47.63,117.93,267.62,Single-ply,SBD,F
Girls,51.94,2,Maci Fletcher,Burleson Centennial,51.89,111.13,45.36,99.79,256.28,Single-ply,SBD,F
Girls,51.94,3,Caitlin Weaver,Van Alstyne,49.99,83.91,47.63,97.52,229.06,Single-ply,SBD,F
Girls,51.94,4,Lucia Creeden,Burleson Centennial,50.08,90.72,36.29,92.99,219.99,Single-ply,SBD,F
Girls,51.94,5,Jacky Duran,Farmersville,48.9,83.91,47.63,79.38,210.92,Single-ply,SBD,F
Girls,51.94,6,Jessie Vargas,Farmersville,50.98,70.31,47.63,79.38,197.31,Single-ply,SBD,F
Girls,51.94,7,Hannah Metzler,Lindsay,48.63,72.57,31.75,90.72,195.04,Single-ply,SBD,F
Girls,51.94,8,Kayla Davis,Whitesboro,50.26,70.31,34.02,90.72,195.04,Single-ply,SBD,F
Girls,51.94,9,Cara Alexander,Pottsboro,51.71,65.77,36.29,90.72,192.78,Single-ply,SBD,F
Girls,51.94,10,Kelly Morgan #2,Callisburg,51.26,70.31,31.75,81.65,183.7,Single-ply,SBD,F
Girls,51.94,11,Megan Irion,Pottsboro,48.99,58.97,29.48,72.57,161.03,Single-ply,SBD,F
Girls,51.94,12,Michelle Tran,Whitewright,49.99,70.31,,,70.31,Single-ply,S,F
Girls,56.02,1,Shay Kotulek,Leonard,52.8,122.47,72.57,111.13,306.17,Single-ply,SBD,F
Girls,56.02,2,Izzi Fielder,Little Elm,55.88,111.13,61.23,124.74,297.1,Single-ply,SBD,F
Girls,56.02,3,Natasha Goforth,Pottsboro,53.61,115.67,54.43,122.47,292.57,Single-ply,SBD,F
Girls,56.02,4,Ravyn Wagoner,Denison,55.97,113.4,61.23,115.67,290.3,Single-ply,SBD,F
Girls,56.02,5,Amy Trimble,Little Elm,53.89,122.47,58.97,106.59,288.03,Single-ply,SBD,F
Girls,56.02,6,Rylee Shook,Burleson Centennial,55.88,111.13,47.63,113.4,272.16,Single-ply,SBD,F
Girls,56.02,7,Sophia Langford,Tom Bean,53.8,97.52,47.63,111.13,256.28,Single-ply,SBD,F
Girls,56.02,8,Cassidy Burns,Leonard,55.61,92.99,54.43,104.33,251.74,Single-ply,SBD,F
Girls,56.02,9,Madison Banta,Whitewright,52.98,86.18,54.43,108.86,249.48,Single-ply,SBD,F
Girls,56.02,10,Olivia Foster,Bonham,55.52,106.59,40.82,95.25,242.67,Single-ply,SBD,F
Girls,56.02,11,Julie Rushing,Whitewright,52.34,86.18,52.16,99.79,238.14,Single-ply,SBD,F
Girls,56.02,12,Kate Vaught,Bonham,55.97,83.91,40.82,108.86,233.6,Single-ply,SBD,F
Girls,56.02,13,Shyenne Daniel,Bells,54.07,86.18,36.29,90.72,213.19,Single-ply,SBD,F
Girls,56.02,14,Emily Miller #5,Aubrey,52.34,70.31,45.36,90.72,206.38,Single-ply,SBD,F
Girls,56.02,15,Shelby Bentley,Pottsboro,55.61,72.57,38.56,90.72,201.85,Single-ply,SBD,F
Girls,56.02,16,Lexie Pearson,Bonham,52.25,72.57,36.29,72.57,181.44,Single-ply,SBD,F
Girls,56.02,17,Jennifer Govea,Van Alstyne,52.25,63.5,27.22,72.57,163.29,Single-ply,SBD,F
Girls,56.02,DQ,Ashlynn Rhoades,Aubrey,55.97,102.06,52.16,,,Single-ply,SBD,F
Girls,56.02,DQ,Alisabeth Stanley,Denison,53.16,65.77,,,,Single-ply,SBD,F
Girls,60.1,1,Chloe Houston,Van Alstyne,59.33,129.27,77.11,145.15,351.53,Single-ply,SBD,F
Girls,60.1,2,Makinzie Gentry,Leonard,59.96,117.93,77.11,124.74,319.78,Single-ply,SBD,F
Girls,60.1,3,Alyese Vinson,Sanger,59.6,115.67,63.5,136.08,315.25,Single-ply,SBD,F
Girls,60.1,4,Madisyn Betancur,Little Elm,59.69,113.4,65.77,129.27,308.44,Single-ply,SBD,F
Girls,60.1,5,Becky Kudayah,Aubrey,58.69,115.67,61.23,117.93,294.84,Single-ply,SBD,F
Girls,60.1,6,Kim Jackson #1,Little Elm,59.6,120.2,63.5,111.13,294.84,Single-ply,SBD,F
Girls,60.1,7,Grace Wilcox,Leonard,58.06,111.13,58.97,113.4,283.5,Single-ply,SBD,F
Girls,60.1,8,Kacey Stegall,Van Alstyne,57.42,99.79,52.16,102.06,254.01,Single-ply,SBD,F
Girls,60.1,9,Edith Castillo,Pilot Point,60.06,95.25,49.9,102.06,247.21,Single-ply,SBD,F
Girls,60.1,10,Natalie Courtney,Melissa,58.33,92.99,38.56,108.86,240.4,Single-ply,SBD,F
Girls,60.1,11,Hannah George,Pottsboro,59.42,99.79,40.82,99.79,240.4,Single-ply,SBD,F
Girls,60.1,12,Eimmi Fraire,Sadler S & S Cons,58.06,90.72,45.36,102.06,238.14,Single-ply,SBD,F
Girls,60.1,13,Kendal Britton,Tom Bean,58.69,97.52,36.29,99.79,233.6,Single-ply,SBD,F
Girls,60.1,14,Shelbie Blankenship,Whitewright,56.06,81.65,58.97,90.72,231.33,Single-ply,SBD,F
Girls,60.1,15,Savanna Hodnett,Pilot Point,59.42,90.72,45.36,90.72,226.8,Single-ply,SBD,F
Girls,60.1,16,Tatum Wylie,Van Alstyne,59.51,79.38,40.82,92.99,213.19,Single-ply,SBD,F
Girls,60.1,17,Amanda Soto-Colon,Aubrey,58.06,72.57,45.36,83.91,201.85,Single-ply,SBD,F
Girls,60.1,18,Keyana Collier,Sherman,58.33,74.84,43.09,83.91,201.85,Single-ply,SBD,F
Girls,60.1,DQ,Sara Prindle,Denison,57.7,68.04,52.16,,,Single-ply,SBD,F
Girls,67.36,1,Jessica Steinhoff,Aubrey,66.68,138.35,83.91,147.42,369.68,Single-ply,SBD,F
Girls,67.36,2,Rebecca Eugster,Callisburg,64.68,138.35,65.77,149.69,353.8,Single-ply,SBD,F
Girls,67.36,3,Hannah Skinner,Little Elm,66.95,131.54,81.65,140.61,353.8,Single-ply,SBD,F
Girls,67.36,4,MyKiyah Whitfield,Little Elm,65.41,133.81,72.57,145.15,351.53,Single-ply,SBD,F
Girls,67.36,5,Logan Shields,Whitewright,60.69,102.06,58.97,124.74,285.76,Single-ply,SBD,F
Girls,67.36,6,Tatum Hunt,Van Alstyne,65.95,97.52,56.7,120.2,274.42,Single-ply,SBD,F
Girls,67.36,7,Rachel Bellamy,Van Alstyne,63.5,102.06,49.9,108.86,260.82,Single-ply,SBD,F
Girls,67.36,8,Kayla Williams,Blue Ridge,64.5,97.52,52.16,92.99,242.67,Single-ply,SBD,F
Girls,67.36,9,Natalie Null,Van Alstyne,60.15,86.18,47.63,102.06,235.87,Single-ply,SBD,F
Girls,67.36,10,Gabi Charbonneau,Aubrey,64.32,86.18,54.43,95.25,235.87,Single-ply,SBD,F
Girls,67.36,11,Victoria Azevedo,Bells,65.23,86.18,47.63,102.06,235.87,Single-ply,SBD,F
Girls,67.36,12,Pattie Sparks,Melissa,66.95,92.99,34.02,108.86,235.87,Single-ply,SBD,F
Girls,67.36,13,Macy Edwards,Whitewright,65.68,81.65,54.43,95.25,231.33,Single-ply,SBD,F
Girls,67.36,14,Hannah Cooley,Callisburg,64.41,65.77,40.82,90.72,197.31,Single-ply,SBD,F
Girls,67.36,DQ,Alyssa Murry,Melissa,60.96,,,,,Single-ply,SBD,F
Girls,75.07,1,Jaydan Hunt,Denison,73.75,156.49,95.25,163.29,415.04,Single-ply,SBD,F
Girls,75.07,2,Carlee Gearinger,Pottsboro,70.94,127.01,72.57,142.88,342.46,Single-ply,SBD,F
Girls,75.07,3,Michelle Aldaco,Collinsville,68.76,127.01,68.04,138.35,333.39,Single-ply,SBD,F
Girls,75.07,4,Rosario Trejo,Pilot Point,70.67,145.15,61.23,127.01,333.39,Single-ply,SBD,F
Girls,75.07,5,Eliza Gilliam,Whitesboro,69.67,108.86,65.77,115.67,290.3,Single-ply,SBD,F
Girls,75.07,6,Hannah Hacker,Sanger,69.13,117.93,47.63,120.2,285.76,Single-ply,SBD,F
Girls,75.07,7,Natalia Cox,Melissa,69.4,102.06,65.77,111.13,278.96,Single-ply,SBD,F
Girls,75.07,8,Morgan Cantrell,Whitesboro,72.21,106.59,56.7,111.13,274.42,Single-ply,SBD,F
Girls,75.07,9,Christina Bell,Sadler S & S Cons,72.3,113.4,49.9,104.33,267.62,Single-ply,SBD,F
Girls,75.07,10,Sheika Dominguez,Whitesboro,71.21,92.99,47.63,106.59,247.21,Single-ply,SBD,F
Girls,75.07,11,Tambreshia Harris,Sadler S & S Cons,74.3,97.52,45.36,99.79,242.67,Single-ply,SBD,F
Girls,75.07,12,Baylee Stautzenberger,Tom Bean,70.49,72.57,47.63,92.99,213.19,Single-ply,SBD,F
Girls,75.07,13,Taylee Moss,Howe,72.85,63.5,29.48,74.84,167.83,Single-ply,SBD,F
Girls,75.07,14,Ashley Linn,Sadler S & S Cons,73.21,104.33,,,104.33,Single-ply,S,F
Girls,75.07,DQ,Kayla Bridges,Sanger,73.03,,,,,Single-ply,SBD,F
Girls,75.07,DQ,Maddie Dills,Bonham,72.57,129.27,,,,Single-ply,SBD,F
Girls,82.33,1,Kailey Jones,Denison,80.01,195.04,104.33,185.97,485.34,Single-ply,SBD,F
Girls,82.33,2,Faith Goins,Little Elm,78.47,154.22,81.65,149.69,385.55,Single-ply,SBD,F
Girls,82.33,3,Nubia Rodriguez,Burleson Centennial,82.01,138.35,58.97,133.81,331.12,Single-ply,SBD,F
Girls,82.33,4,Cassie Harder,Pottsboro,75.3,127.01,63.5,127.01,317.51,Single-ply,SBD,F
Girls,82.33,5,Haley Walker,Sadler S & S Cons,79.2,124.74,61.23,120.2,306.17,Single-ply,SBD,F
Girls,82.33,6,Roha Hassan,Denison,77.29,108.86,61.23,115.67,285.76,Single-ply,SBD,F
Girls,82.33,7,Kaleigh Cochran,Whitesboro,75.11,104.33,54.43,111.13,269.89,Single-ply,SBD,F
Girls,82.33,8,Rebecca Rhew,Howe,76.02,92.99,52.16,120.2,265.35,Single-ply,SBD,F
Girls,82.33,9,Mackenzie Spielman,Aubrey,81.28,92.99,52.16,102.06,247.21,Single-ply,SBD,F
Girls,82.33,10,Haley Frank,Whitesboro,79.47,90.72,43.09,95.25,229.06,Single-ply,SBD,F
Girls,82.33,11,Erin Longoria,Whitesboro,80.74,68.04,47.63,90.72,206.38,Single-ply,SBD,F
Girls,82.33,DQ,Taylor Hartsfield,Howe,77.93,,,,,Single-ply,SBD,F
Girls,90.04,1,Gen Tyson,Van Alstyne,87.45,170.1,92.99,142.88,405.97,Single-ply,SBD,F
Girls,90.04,2,Gwen Tyson,Van Alstyne,86.91,170.1,83.91,142.88,396.89,Single-ply,SBD,F
Girls,90.04,3,Haily Petty,Sadler S & S Cons,88.81,161.03,77.11,142.88,381.02,Single-ply,SBD,F
Girls,90.04,4,Clarissa Rios,Sanger,88.63,151.95,68.04,129.27,349.27,Single-ply,SBD,F
Girls,90.04,5,Bailee Glenn,Van Alstyne,83.82,129.27,65.77,133.81,328.85,Single-ply,SBD,F
Girls,90.04,6,Sara Chavez,Pilot Point,82.83,90.72,47.63,104.33,242.67,Single-ply,SBD,F
Girls,100.02,1,Taylor Brown #3,Whitesboro,91.44,147.42,81.65,151.95,381.02,Single-ply,SBD,F
Girls,100.02,2,Savanna Henington,Denison,97.98,147.42,77.11,142.88,367.41,Single-ply,SBD,F
Girls,100.02,3,Jenna Eugster,Whitesboro,92.35,145.15,81.65,136.08,362.87,Single-ply,SBD,F
Girls,100.02,4,Jazmin Huckestein,Sherman,95.07,140.61,81.65,131.54,353.8,Single-ply,SBD,F
Girls,100.02,5,Kylie Miller,Farmersville,98.16,117.93,65.77,122.47,306.17,Single-ply,SBD,F
Girls,100.02,6,Brooke Bramer,Van Alstyne,97.07,117.93,52.16,111.13,281.23,Single-ply,SBD,F
Girls,100.02,7,Keely Clark,Callisburg,91.72,120.2,38.56,113.4,272.16,Single-ply,SBD,F
Girls,100.02,8,Abby Farrer,Tom Bean,99.88,83.91,47.63,113.4,244.94,Single-ply,SBD,F
Girls,100.02,9,Aubrey Friedman,Howe,90.99,77.11,54.43,97.52,229.06,Single-ply,SBD,F
Girls,100.02,10,Silvia Viramontes,Melissa,90.63,102.06,29.48,92.99,224.53,Single-ply,SBD,F
Girls,100.02,11,Shelby Armstrong,Howe,98.25,65.77,40.82,86.18,192.78,Single-ply,SBD,F
Girls,100.02,12,Dylan Reeves #3,Bells,95.25,56.7,43.09,86.18,185.97,Single-ply,SBD,F
Girls,100.02,DQ,Izabella Medrano,Sadler S & S Cons,96.43,,,,,Single-ply,SBD,F
Girls,117.71,1,Priscilla Adejokun,Melissa,101.33,238.14,108.86,226.8,573.79,Single-ply,SBD,F
Girls,117.71,2,Alexis Bolin,Leonard,108.14,131.54,81.65,145.15,358.34,Single-ply,SBD,F
Girls,117.71,3,Chelsi Riley,Leonard,100.79,124.74,68.04,136.08,328.85,Single-ply,SBD,F
Girls,117.71,4,Marissa McNiel,Whitewright,100.33,122.47,49.9,113.4,285.76,Single-ply,SBD,F
Girls,117.71,5,Baileigh Massey,Bells,103.87,99.79,43.09,104.33,247.21,Single-ply,SBD,F
Girls,117.71,6,Zaundra Bershell,Aubrey,116.85,77.11,72.57,74.84,224.53,Single-ply,SBD,F
Girls,117.71+,1,Tess Hickey,Sanger,125.01,188.24,106.59,158.76,453.59,Single-ply,SBD,F
Girls,117.71+,2,Haylee McAdoo,Whitesboro,136.44,181.44,108.86,142.88,433.18,Single-ply,SBD,F
Girls,117.71+,3,Lindsey Cain,Whitesboro,140.7,122.47,97.52,136.08,356.07,Single-ply,SBD,F
