Division,WeightClassKg,Place,Name,Team,BodyweightKg,Best3SquatKg,Best3BenchKg,Best3DeadliftKg,TotalKg,Equipment,Event,Sex,BirthDate
Girls,44.23,1,Ary Perez-Rivera,Abilene Wylie,44,92.99,52.16,99.79,244.94,Unlimited,SBD,F,
Girls,44.23,2,Jasmyn Diaz,Munday,44,58.97,31.75,72.57,163.29,Unlimited,SBD,F,
Girls,47.85,1,Isabelle Biddison,Breckenridge,47.81,106.59,54.43,102.06,263.08,Unlimited,SBD,F,
Girls,47.85,2,Daphne Zornes,Abilene Wylie,47.63,70.31,49.9,70.31,190.51,Unlimited,SBD,F,
Girls,51.94,1,Kamden Tidwell,Breckenridge,51.71,95.25,45.36,97.52,238.14,Unlimited,SBD,F,
Girls,51.94,2,Emera Lombrana,Brownwood,51.71,92.99,52.16,92.99,238.14,Unlimited,SBD,F,
Girls,51.94,3,Ryleigh Hagler,Abilene Wylie,51.71,83.91,52.16,90.72,226.8,Unlimited,SBD,F,
Girls,51.94,4,Madai Alvarado,Breckenridge,51.89,95.25,47.63,77.11,219.99,Unlimited,SBD,F,
Girls,51.94,5,Ana Amram,Hawley,48.08,68.04,45.36,104.33,217.72,Unlimited,SBD,F,
Girls,51.94,6,Addie Church,Abilene Wylie,49.99,83.91,38.56,83.91,206.38,Unlimited,SBD,F,
Girls,51.94,7,Bailey Stalling,Hawley,51.71,63.5,36.29,90.72,190.51,Unlimited,SBD,F,
Girls,51.94,8,Abigail Nelson,Stephenville,51.71,72.57,40.82,77.11,190.51,Unlimited,SBD,F,
Girls,51.94,9,Bella Beck,Stephenville,51.71,63.5,38.56,61.23,163.29,Unlimited,SBD,F,
Girls,51.94,10,Rayleigh Graciano,Haskell,49.9,65.77,34.02,56.7,156.49,Unlimited,SBD,F,
Girls,51.94,DQ,Mackenzie Lambert,Sweetwater,51.71,,,,,Unlimited,SBD,F,
Girls,56.02,1,Ashlyn Owen,Breckenridge,53.61,129.27,61.23,104.33,294.84,Unlimited,SBD,F,
Girls,56.02,2,Collom Perkins,Breckenridge,55.61,117.93,49.9,92.99,260.82,Unlimited,SBD,F,
Girls,56.02,3,Maddie Blackwell,Abilene Wylie,55.88,90.72,49.9,102.06,242.67,Unlimited,SBD,F,
Girls,56.02,4,Eowyn Miller,Stephenville,55.88,90.72,47.63,104.33,242.67,Unlimited,SBD,F,
Girls,56.02,5,Ruthie Valdez,Breckenridge,53.71,81.65,49.9,102.06,233.6,Unlimited,SBD,F,
Girls,56.02,6,Ashley Robinson,Brownwood,55.79,88.45,52.16,92.99,233.6,Unlimited,SBD,F,
Girls,56.02,7,Kyleigh Hagler,Abilene Wylie,52.71,83.91,52.16,90.72,226.8,Unlimited,SBD,F,
Girls,56.02,8,Zoe Brown,Hawley,55.34,65.77,43.09,102.06,210.92,Unlimited,SBD,F,
Girls,56.02,9,Victoria Garcia,Munday,53.25,54.43,34.02,77.11,165.56,Unlimited,SBD,F,
Girls,56.02,DQ,Sarah Chandler,Stephenville,55.79,,47.63,104.33,,Unlimited,SBD,F,
Girls,56.02,DQ,Kacy Taillet,Abilene Wylie,55.88,,,,,Unlimited,SBD,F,
Girls,60.1,1,Sidney Adkins,Brownwood,56.7,111.13,72.57,97.52,281.23,Unlimited,SBD,F,
Girls,60.1,2,Kendall Ratliff,Brownwood,59.87,108.86,56.7,106.59,272.16,Unlimited,SBD,F,
Girls,60.1,3,Sofia Lopez,Breckenridge,56.7,113.4,47.63,95.25,256.28,Unlimited,SBD,F,
Girls,60.1,4,Alyssa Aguilar,Sweetwater,56.25,102.06,65.77,81.65,249.48,Unlimited,SBD,F,
Girls,60.1,5,Lizandra Rubio,Breckenridge,60.1,90.72,47.63,104.33,242.67,Unlimited,SBD,F,
Girls,60.1,6,Preslie Malcuit,Breckenridge,59.96,95.25,47.63,95.25,238.14,Unlimited,SBD,F,
Girls,60.1,7,Scout Lewis,Hawley,59.28,74.84,47.63,113.4,235.87,Unlimited,SBD,F,
Girls,60.1,8,Kortlynn West,Hawley,59.87,83.91,38.56,113.4,235.87,Unlimited,SBD,F,
Girls,60.1,9,Jaelyn Speck,Hawley,59.87,65.77,43.09,92.99,201.85,Unlimited,SBD,F,
Girls,60.1,10,Lily Pitman,Sweetwater,59.87,68.04,40.82,79.38,188.24,Unlimited,SBD,F,
Girls,67.36,1,Renee Aguilar,Hawley,67.13,174.63,97.52,149.69,421.84,Unlimited,SBD,F,
Girls,67.36,2,Caitlyn McDonald,Abilene Wylie,67.13,149.69,102.06,124.74,376.48,Unlimited,SBD,F,
Girls,67.36,3,Kaleigh Rickard,Abilene Wylie,67.13,113.4,102.06,115.67,331.12,Unlimited,SBD,F,
Girls,67.36,4,Kamree Shaw,Sweetwater,67.13,115.67,74.84,111.13,301.64,Unlimited,SBD,F,
Girls,67.36,5,Amiyah Avalos,Brownwood,67.13,99.79,61.23,99.79,260.82,Unlimited,SBD,F,
Girls,67.36,6,Jalynn Carrillo,Brownwood,67.13,95.25,52.16,88.45,235.87,Unlimited,SBD,F,
Girls,67.36,7,Kaisan Thompson,Breckenridge,60.78,90.72,43.09,90.72,224.53,Unlimited,SBD,F,
Girls,67.36,8,Alondra Bahena,Stephenville,67.13,83.91,40.82,99.79,224.53,Unlimited,SBD,F,
Girls,67.36,9,Mahala Williams,Haskell,61.51,92.99,45.36,79.38,217.72,Unlimited,SBD,F,
Girls,67.36,10,Auburey Hubbard,Brownwood,61.51,83.91,47.63,77.11,208.65,Unlimited,SBD,F,
Girls,67.36,11,Shaylee Shackelford,Munday,67.13,63.5,40.82,83.91,188.24,Unlimited,SBD,F,
Girls,67.36,12,Karleigh West,Hawley,67.13,70.31,29.48,86.18,185.97,Unlimited,SBD,F,
Girls,67.36,DQ,Vonni Schira,Stephenville,67.13,88.45,52.16,117.93,,Unlimited,SBD,F,
Girls,75.07,1,Cabel Perkins,Breckenridge,74.03,142.88,68.04,122.47,333.39,Unlimited,SBD,F,
Girls,75.07,2,Emily Varela,Abilene Wylie,74.84,142.88,79.38,106.59,328.85,Unlimited,SBD,F,
Girls,75.07,3,Bianca Gotschall,Breckenridge,74.57,113.4,65.77,127.01,306.17,Unlimited,SBD,F,
Girls,75.07,4,Allison Reyna,Brownwood,74.84,113.4,65.77,127.01,306.17,Unlimited,SBD,F,
Girls,75.07,5,Allie Collier,Stephenville,74.84,117.93,65.77,115.67,299.37,Unlimited,SBD,F,
Girls,75.07,6,Maddison Shockley,Breckenridge,73.39,113.4,63.5,108.86,285.76,Unlimited,SBD,F,
Girls,75.07,7,Atlanta Olquin,Brownwood,74.84,102.06,72.57,102.06,276.69,Unlimited,SBD,F,
Girls,75.07,8,Kaidance Boyles,Stephenville,74.84,108.86,58.97,102.06,269.89,Unlimited,SBD,F,
Girls,75.07,9,Ava Barnes,Stephenville,74.84,97.52,63.5,106.59,267.62,Unlimited,SBD,F,
Girls,75.07,10,Margie Szczurek,Hawley,74.39,83.91,40.82,117.93,242.67,Unlimited,SBD,F,
Girls,75.07,11,RaeLynn Rodriguez,Haskell,67.59,70.31,34.02,52.16,156.49,Unlimited,SBD,F,
Girls,75.07,DQ,Nyeli Quintero,Abilene Wylie,74.84,124.74,,,,Unlimited,SBD,F,
Girls,82.33,1,Walker Gilman,Hawley,76.66,170.1,90.72,136.08,396.89,Unlimited,SBD,F,
Girls,82.33,2,Joni Jackson,Breckenridge,78.47,151.95,79.38,147.42,378.75,Unlimited,SBD,F,
Girls,82.33,3,Kyra Canada,Breckenridge,77.66,138.35,47.63,124.74,310.71,Unlimited,SBD,F,
Girls,82.33,4,Kynley Martin,Brownwood,82.1,111.13,65.77,117.93,294.84,Unlimited,SBD,F,
Girls,82.33,5,Angela Diaz,Sweetwater,82.1,111.13,56.7,111.13,278.96,Unlimited,SBD,F,
Girls,82.33,6,Gracie Oden,Sweetwater,82.1,81.65,43.09,92.99,217.72,Unlimited,SBD,F,
Girls,82.33,DQ,Avery Hill,Stephenville,81.37,97.52,54.43,115.67,,Unlimited,SBD,F,
Girls,90.04,1,Blanca Hernandez,Hawley,89.81,185.97,104.33,163.29,453.59,Unlimited,SBD,F,
Girls,90.04,2,Maria Duran,Breckenridge,82.55,140.61,68.04,154.22,362.87,Unlimited,SBD,F,
Girls,90.04,3,Delia Martinez,Stephenville,89.81,124.74,61.23,111.13,297.1,Unlimited,SBD,F,
Girls,90.04,4,Bailey Harper,Stephenville,89.81,92.99,65.77,120.2,278.96,Unlimited,SBD,F,
Girls,90.04,5,Mya Thompson,Hawley,88.45,95.25,43.09,102.06,240.4,Unlimited,SBD,F,
Girls,90.04,DQ,Dericka Vaughn,Abilene Wylie,89.81,,,,,Unlimited,SBD,F,
Girls,90.04,DQ,Kassidee Henderson,Munday,89.81,56.7,29.48,79.38,,Unlimited,SBD,F,
Girls,90.04,DQ,Julissa Laureles,Sweetwater,89.81,,,,,Unlimited,SBD,F,
Girls,100.02,1,Rihana Fuller,Breckenridge,94.8,138.35,70.31,138.35,347,Unlimited,SBD,F,
Girls,100.02,2,Aliyah Berndt,Brownwood,99.79,122.47,74.84,131.54,328.85,Unlimited,SBD,F,
Girls,100.02,3,Leslie Rios,Brownwood,99.79,124.74,65.77,129.27,319.78,Unlimited,SBD,F,
Girls,100.02,4,Brittney Hernandez,Sweetwater,99.79,106.59,58.97,127.01,292.57,Unlimited,SBD,F,
Girls,100.02,5,Raegan Robinson,Breckenridge,93.98,108.86,61.23,120.2,290.3,Unlimited,SBD,F,
Girls,100.02,6,Omri Bustamante,Sweetwater,99.79,117.93,52.16,115.67,285.76,Unlimited,SBD,F,
Girls,100.02,7,Brye Bellamy,Rising Star,99.79,83.91,56.7,102.06,242.67,Unlimited,SBD,F,
Girls,100.02,8,Antonia James,Munday,99.79,86.18,45.36,106.59,238.14,Unlimited,SBD,F,
Girls,100.02,DQ,Admaris Lopez,Sweetwater,99.79,,,,,Unlimited,SBD,F,
Girls,110,1,Dustie Lowrey,Breckenridge,100.33,113.4,68.04,102.06,283.5,Unlimited,SBD,F,
Girls,110,2,Rose Lopez,Sweetwater,109.77,106.59,56.7,95.25,258.55,Unlimited,SBD,F,
Girls,110+,1,Rylee Fuller,Breckenridge,128.19,117.93,92.99,113.4,324.32,Unlimited,SBD,F,
Girls,110+,2,Joe Mccanlly,Sweetwater,110.22,92.99,43.09,92.99,229.06,Unlimited,SBD,F,
