Division,WeightClassKg,Place,Name,Team,BodyweightKg,Best3SquatKg,Best3BenchKg,Best3DeadliftKg,TotalKg,Equipment,Event,Sex,BirthDate
Girls,44.23,1,Veyda Baena,Sealy,43.18,88.45,36.29,104.33,229.06,Unlimited,SBD,F,
Girls,44.23,2,Isabel Reed,Iola,39.46,40.82,24.95,49.9,115.67,Unlimited,SBD,F,
Girls,44.23,3,Dallas Lawery,Iola,42.27,40.82,24.95,47.63,113.4,Unlimited,SBD,F,
Girls,51.94,1,Isabella Pittillo,Sealy,51.53,90.72,54.43,113.4,258.55,Unlimited,SBD,F,
Girls,51.94,2,Cori Hancock,College Station,51.26,81.65,47.63,106.59,235.87,Unlimited,SBD,F,
Girls,56.02,1,Ayah Carrias,College Station A&M Cons,53.25,95.25,52.16,104.33,251.74,Unlimited,SBD,F,
Girls,56.02,2,Alyx Calumpang,Navasota,52.34,52.16,29.48,68.04,149.69,Unlimited,SBD,F,
Girls,60.1,1,Kaleigh Daniels,Brenham,57.97,113.4,61.23,113.4,288.03,Unlimited,SBD,F,
Girls,60.1,2,Keanna Lor,Brenham,58.42,92.99,43.09,113.4,249.48,Unlimited,SBD,F,
Girls,60.1,3,Aliyah Navarro,Sealy,57.15,86.18,47.63,95.25,229.06,Unlimited,SBD,F,
Girls,60.1,4,Zyra Hilbun,Iola,58.33,68.04,34.02,74.84,176.9,Unlimited,SBD,F,
Girls,67.36,1,Colleen Gulde,College Station,67.36,156.49,81.65,138.35,376.48,Unlimited,SBD,F,
Girls,67.36,2,Sarahi Xic Ajpacaja,College Station A&M Cons,64.59,145.15,77.11,129.27,351.53,Unlimited,SBD,F,
Girls,67.36,3,Camden Lechler,College Station,66.22,120.2,74.84,131.54,326.59,Unlimited,SBD,F,
Girls,67.36,4,Kambree Burns,College Station A&M Cons,64.41,136.08,70.31,95.25,301.64,Unlimited,SBD,F,
Girls,67.36,5,Pele Ah Sang,College Station A&M Cons,65.68,115.67,56.7,127.01,299.37,Unlimited,SBD,F,
Girls,67.36,6,Miram Demlow,College Station,61.96,111.13,56.7,108.86,276.69,Unlimited,SBD,F,
Girls,67.36,7,Adalie Ortiz,College Station A&M Cons,65.68,102.06,54.43,104.33,260.82,Unlimited,SBD,F,
Girls,67.36,8,Marlie Dixon,Brenham,64.14,97.52,63.5,92.99,254.01,Unlimited,SBD,F,
Girls,67.36,9,Camila Rodriguez,Brenham,64.23,92.99,45.36,90.72,229.06,Unlimited,SBD,F,
Girls,67.36,10,Emily Mock,Sealy,60.87,77.11,63.5,86.18,226.8,Unlimited,SBD,F,
Girls,67.36,11,Gizelle Cisneros,Somerville,66.77,92.99,34.02,92.99,219.99,Unlimited,SBD,F,
Girls,67.36,12,Ava Thomas,Iola,62.05,63.5,49.9,74.84,188.24,Unlimited,SBD,F,
Girls,75.07,1,Jessie Kolodziejcyzk,College Station,71.58,204.12,108.86,142.88,455.86,Unlimited,SBD,F,
Girls,75.07,2,Castellani Giovanna,College Station,67.68,163.29,90.72,145.15,399.16,Unlimited,SBD,F,
Girls,75.07,3,Ashley Harris,College Station,74.75,172.37,83.91,136.08,392.36,Unlimited,SBD,F,
Girls,75.07,4,Rai Pack,College Station,70.67,158.76,92.99,124.74,376.48,Unlimited,SBD,F,
Girls,75.07,5,Francy Zing,College Station A&M Cons,71.03,138.35,74.84,124.74,337.93,Unlimited,SBD,F,
Girls,75.07,6,Haven Hmielewski,Sealy,74.39,120.2,83.91,111.13,315.25,Unlimited,SBD,F,
Girls,75.07,7,Raven Gibbs,Navasota,71.03,83.91,43.09,106.59,233.6,Unlimited,SBD,F,
Girls,75.07,8,Jade Saxon,Somerville,68.4,88.45,47.63,90.72,226.8,Unlimited,SBD,F,
Girls,75.07,9,Rylee Goodney,Iola,74.39,83.91,52.16,90.72,226.8,Unlimited,SBD,F,
Girls,82.33,1,Aniya Taylor,College Station,79.38,176.9,88.45,158.76,424.11,Unlimited,SBD,F,
Girls,82.33,2,Kacy Sledge,College Station,75.48,142.88,70.31,142.88,356.07,Unlimited,SBD,F,
Girls,82.33,3,Stephani Chavez,College Station A&M Cons,78.29,124.74,68.04,124.74,317.51,Unlimited,SBD,F,
Girls,82.33,4,Bethany West,College Station A&M Cons,77.47,120.2,81.65,95.25,297.1,Unlimited,SBD,F,
Girls,82.33,5,Lauren Kusey,Sealy,81.92,115.67,58.97,115.67,290.3,Unlimited,SBD,F,
Girls,82.33,6,Olivia Vega,Somerville,75.57,88.45,47.63,97.52,233.6,Unlimited,SBD,F,
Girls,82.33,7,Jenna Gressett,Iola,76.66,97.52,40.82,79.38,217.72,Unlimited,SBD,F,
Girls,82.33,8,Ragan Masters,Iola,80.01,81.65,43.09,79.38,204.12,Unlimited,SBD,F,
Girls,82.33,9,Sabrina Burnett,Navasota,78.2,61.23,29.48,77.11,167.83,Unlimited,SBD,F,
Girls,90.04,1,Jolynn Moronta,College Station A&M Cons,88.72,113.4,95.25,104.33,312.98,Unlimited,SBD,F,
Girls,90.04,2,Kirsten Bonds,College Station A&M Cons,87.27,102.06,52.16,124.74,278.96,Unlimited,SBD,F,
Girls,90.04,3,Makinsey Bookout,Sealy,85.73,70.31,36.29,81.65,188.24,Unlimited,SBD,F,
Girls,90.04,4,Ava Stankiewicz,Navasota,84.01,47.63,29.48,83.91,161.03,Unlimited,SBD,F,
Girls,90.04,DQ,Natalie Andrade,Navasota,83.46,54.43,,90.72,,Unlimited,SBD,F,
Girls,90.04,DQ,Emily Ramirez,Navasota,87.09,45.36,,74.84,,Unlimited,SBD,F,
Girls,100.02,1,J Miracle Sandle,College Station,97.89,167.83,104.33,147.42,419.57,Unlimited,SBD,F,
Girls,100.02,2,Annabell Navarro,Sealy,94.71,136.08,70.31,142.88,349.27,Unlimited,SBD,F,
Girls,100.02,3,Savannah Alvarado,College Station A&M Cons,93.71,133.81,77.11,136.08,347,Unlimited,SBD,F,
Girls,100.02,4,Kaylin Hack,College Station A&M Cons,97.16,104.33,70.31,95.25,269.89,Unlimited,SBD,F,
Girls,110,1,Breanna Ihrig,College Station,107.59,158.76,83.91,142.88,385.55,Unlimited,SBD,F,
Girls,110,2,Miranda Trejo,Sealy,106.59,122.47,52.16,120.2,294.84,Unlimited,SBD,F,
Girls,110,3,Violet Talley,Navasota,105.41,43.09,38.56,88.45,170.1,Unlimited,SBD,F,
Girls,110+,1,Deianca Nix,Somerville,118.21,115.67,79.38,138.35,333.39,Unlimited,SBD,F,
Girls,110+,2,Miala Harper,Navasota,125.83,113.4,61.23,136.08,310.71,Unlimited,SBD,F,
Girls,110+,3,Khaliah Jeffery,Brenham,146.69,102.06,90.72,90.72,283.5,Unlimited,SBD,F,
Girls,110+,4,Kieghleigh Connelly,Somerville,140.25,97.52,54.43,104.33,256.28,Unlimited,SBD,F,
Girls,110+,5,Terria Truman,Navasota,137.53,83.91,49.9,102.06,235.87,Unlimited,SBD,F,
Girls,110+,6,Jaelee Landollt,Somerville,151.23,90.72,43.09,102.06,235.87,Unlimited,SBD,F,
Girls,,NS,Kai Dabney,Sealy,,,,,,Unlimited,SBD,F,
Girls,,NS,Paris Flowers,Sealy,,,,,,Unlimited,SBD,F,
Girls,,NS,Luna Reyes,Navasota,,,,,,Unlimited,SBD,F,
Girls,,NS,Ashleigh Sustaita,Navasota,,,,,,Unlimited,SBD,F,
Girls,,NS,Emma Atwell,Navasota,,,,,,Unlimited,SBD,F,
Girls,,NS,Miley Mendoza,Brenham,,,,,,Unlimited,SBD,F,
Girls,,NS,Charlie Kay,Iola,,,,,,Unlimited,SBD,F,
Girls,,NS,Elesibeth Ashley,Iola,,,,,,Unlimited,SBD,F,
