Division,WeightClassKg,Place,Name,Team,BodyweightKg,Best3SquatKg,Best3BenchKg,Best3DeadliftKg,TotalKg,Equipment,Event,Sex,BirthDate
Boys,51.71,1,Colt Garcia,Garrison,44.72,77.11,54.43,88.45,219.99,Unlimited,SBD,M,
Boys,67.13,1,Aiden Holmes,Garrison,64.5,83.91,49.9,120.2,254.01,Unlimited,SBD,M,
Boys,74.84,1,Dallon Jordan,Joaquin,74.39,195.04,136.08,183.7,514.83,Unlimited,SBD,M,
Boys,74.84,2,Jacob Gatlin,Joaquin,68.49,154.22,108.86,163.29,426.38,Unlimited,SBD,M,
Boys,74.84,3,Wyatt Miller,Garrison,70.58,136.08,95.25,142.88,374.21,Unlimited,SBD,M,
Boys,74.84,5,Tristen Groeling,Joaquin,72.57,113.4,92.99,142.88,349.27,Unlimited,SBD,M,
Boys,74.84,6,Ja'Colton Rather,Garrison,70.03,117.93,65.77,149.69,333.39,Unlimited,SBD,M,
Boys,74.84,7,Carson Cook,Garrison,71.4,122.47,72.57,133.81,328.85,Unlimited,SBD,M,
Boys,74.84,8,Copper Tarver,Joaquin,70.31,92.99,90.72,124.74,308.44,Unlimited,SBD,M,
Boys,74.84,DQ,Jackson Velek,Garrison,68.04,120.2,,,,Unlimited,SBD,M,
Boys,74.84,DQ,Amarion Wilson,Joaquin,72.12,,,,,Unlimited,SBD,M,
Boys,82.1,2,Ryder Davis,Joaquin,77.11,124.74,97.52,149.69,371.95,Unlimited,SBD,M,
Boys,82.1,3,Zane Miller,Garrison,76.66,92.99,63.5,122.47,278.96,Unlimited,SBD,M,
Boys,89.81,1,Harlan Vanhorn,Garrison,83.46,165.56,102.06,142.88,410.5,Unlimited,SBD,M,
Boys,89.81,2,Daylon McClure,Garrison,82.55,142.88,95.25,147.42,385.55,Unlimited,SBD,M,
Boys,99.79,1,Jeremy Pleasant,Garrison,90.08,181.44,106.59,181.44,469.47,Unlimited,SBD,M,
Boys,99.79,2,Tyson Anderson,Garrison,98.52,170.1,124.74,154.22,449.06,Unlimited,SBD,M,
Boys,99.79,5,Kam Gibson,Garrison,97.98,122.47,83.91,136.08,342.46,Unlimited,SBD,M,
Boys,99.79,DQ,Kason Phillips,Garrison,93.44,,102.06,,,Unlimited,SBD,M,
Boys,109.77,1,Lucas Evans,Joaquin,108.86,183.7,151.95,206.38,542.04,Unlimited,SBD,M,
Boys,109.77,2,Aiden Kilpatrick,Joaquin,108.86,192.78,136.08,174.63,503.49,Unlimited,SBD,M,
Boys,109.77,3,Conner Rios,Joaquin,108.86,129.27,113.4,183.7,426.38,Unlimited,SBD,M,
Boys,139.71,2,Eric Stephenson,Garrison,133.81,163.29,97.52,149.69,410.5,Unlimited,SBD,M,
Boys,139.71+,1,Jabrahlyn Jones,Garrison,148.69,317.51,183.7,265.35,766.57,Unlimited,SBD,M,
Boys,139.71+,2,Broady Cummings,Joaquin,158.76,183.7,136.08,197.31,517.1,Unlimited,SBD,M,
