Division,WeightClassKg,Place,Name,Team,BodyweightKg,Best3SquatKg,Best3BenchKg,Best3DeadliftKg,TotalKg,Equipment,Event,Sex,BirthDate
Boys,51.71,1,Santiago Monreal,Perryton,51.62,138.35,68.04,136.08,342.46,Unlimited,SBD,M,
Boys,55.79,1,Jonathan Becerril,Perryton,55.7,219.99,142.88,226.8,589.67,Unlimited,SBD,M,
Boys,55.79,2,Michael Bautista,Friona,53.52,156.49,108.86,172.37,437.72,Unlimited,SBD,M,
Boys,55.79,3,Josh Lawrence,Dumas,53.98,165.56,88.45,165.56,419.57,Unlimited,SBD,M,
Boys,55.79,4,Christian Nas,Perryton,54.66,165.56,83.91,167.83,417.3,Unlimited,SBD,M,
Boys,55.79,5,Azriel Flores,Friona,54.88,133.81,86.18,151.95,371.95,Unlimited,SBD,M,
Boys,55.79,6,Trevor Jenkins,Panhandle,54.88,108.86,65.77,122.47,297.1,Unlimited,SBD,M,
Boys,55.79,7,Elian Ramos,Borger,55.79,117.93,56.7,106.59,281.23,Unlimited,SBD,M,
Boys,59.87,1,Angel Flores,Perryton,59.42,231.33,149.69,219.99,601.01,Unlimited,SBD,M,
Boys,59.87,2,Geo Ochoa,Perryton,58.51,183.7,111.13,174.63,469.47,Unlimited,SBD,M,
Boys,59.87,3,Campbell Bargas,Amarillo Highland Park,59.15,138.35,92.99,149.69,381.02,Unlimited,SBD,M,
Boys,59.87,4,Francisco Gutierrez,Friona,58.51,145.15,74.84,151.95,371.95,Unlimited,SBD,M,
Boys,59.87,5,Hunter Reneau,Borger,58.79,142.88,77.11,151.95,371.95,Unlimited,SBD,M,
Boys,59.87,6,Isael Venegas,Canyon West Plains,59.87,133.81,79.38,154.22,367.41,Unlimited,SBD,M,
Boys,59.87,7,Charlie Montgomery,Vega,58.97,129.27,72.57,117.93,319.78,Unlimited,SBD,M,
Boys,59.87,8,Aidan Mitchell,Perryton,58.97,106.59,65.77,131.54,303.91,Unlimited,SBD,M,
Boys,59.87,9,Cameron Morgan,Dumas,59.6,102.06,65.77,122.47,290.3,Unlimited,SBD,M,
Boys,67.13,1,Dominic Galvan,Amarillo Highland Park,65.59,170.1,102.06,192.78,464.93,Unlimited,SBD,M,
Boys,67.13,2,Dawson Bennett,Sunray,64.77,183.7,92.99,176.9,453.59,Unlimited,SBD,M,
Boys,67.13,3,Aaron Rosales,Friona,67.04,188.24,102.06,154.22,444.52,Unlimited,SBD,M,
Boys,67.13,4,Gabriel Ramos,Friona,64.41,167.83,99.79,167.83,435.45,Unlimited,SBD,M,
Boys,67.13,5,Lane Hoppe,Dalhart,66.22,156.49,102.06,165.56,424.11,Unlimited,SBD,M,
Boys,67.13,6,Cole Kelso,Dalhart,65.77,163.29,97.52,158.76,419.57,Unlimited,SBD,M,
Boys,67.13,7,Jenks Phillips,Canyon West Plains,66.32,151.95,95.25,172.37,419.57,Unlimited,SBD,M,
Boys,67.13,8,Jorge Murga,Dumas,67.04,149.69,86.18,142.88,378.75,Unlimited,SBD,M,
Boys,67.13,9,Dylan Yankee,Borger,65.77,138.35,77.11,129.27,344.73,Unlimited,SBD,M,
Boys,67.13,10,Victor Henriquez,Borger,64.14,83.91,65.77,111.13,260.82,Unlimited,SBD,M,
Boys,67.13,DQ,Seger Maples,Amarillo Highland Park,65.14,183.7,,,,Unlimited,SBD,M,
Boys,74.84,1,Javier Martinez #15,Perryton,74.03,278.96,145.15,272.16,696.26,Unlimited,SBD,M,
Boys,74.84,2,Fabio Perez,Dalhart,71.4,208.65,129.27,185.97,523.9,Unlimited,SBD,M,
Boys,74.84,3,Dominic Casares,Sunray,74.48,192.78,120.2,188.24,501.22,Unlimited,SBD,M,
Boys,74.84,4,Tyler Brooks,Borger,73.66,195.04,113.4,179.17,487.61,Unlimited,SBD,M,
Boys,74.84,5,Abram Rocha,Friona,73.39,197.31,111.13,174.63,483.08,Unlimited,SBD,M,
Boys,74.84,6,Gael Lara,Friona,73.94,172.37,99.79,165.56,437.72,Unlimited,SBD,M,
Boys,74.84,7,Thomas Phan,Amarillo Highland Park,70.13,172.37,90.72,165.56,428.64,Unlimited,SBD,M,
Boys,74.84,8,Adrian Martinez #20,Vega,67.68,158.76,74.84,163.29,396.89,Unlimited,SBD,M,
Boys,74.84,9,Cason Lamm,Vega,70.49,158.76,92.99,145.15,396.89,Unlimited,SBD,M,
Boys,74.84,10,Remi Robles,Dumas,69.4,136.08,99.79,127.01,362.87,Unlimited,SBD,M,
Boys,74.84,11,Clayton Humphrey,Friona,67.36,122.47,83.91,136.08,342.46,Unlimited,SBD,M,
Boys,74.84,DQ,Arnold Mendoza,Sunray,73.57,,,,,Unlimited,SBD,M,
Boys,82.1,1,Junior Garcia,Amarillo Highland Park,80.1,201.85,133.81,219.99,555.65,Unlimited,SBD,M,
Boys,82.1,2,Micheal Thies,Panhandle,80.56,199.58,154.22,201.85,555.65,Unlimited,SBD,M,
Boys,82.1,3,Cash Black,Vega,78.83,199.58,120.2,199.58,519.36,Unlimited,SBD,M,
Boys,82.1,4,Sean Wilson,Borger,79.92,199.58,120.2,183.7,503.49,Unlimited,SBD,M,
Boys,82.1,5,Erick Calsadillas,Sunray,76.75,172.37,127.01,199.58,498.95,Unlimited,SBD,M,
Boys,82.1,6,Jacob Crowe,Canyon West Plains,80.56,183.7,97.52,161.03,442.25,Unlimited,SBD,M,
Boys,82.1,7,Walker te Velde,Vega,79.83,156.49,117.93,165.56,439.98,Unlimited,SBD,M,
Boys,82.1,8,Degyn Smith,Panhandle,82.01,167.83,95.25,151.95,415.04,Unlimited,SBD,M,
Boys,82.1,9,Chris Villareal,Sunray,78.38,142.88,77.11,151.95,371.95,Unlimited,SBD,M,
Boys,82.1,10,Cash Lofton,Canyon West Plains,77.11,124.74,81.65,142.88,349.27,Unlimited,SBD,M,
Boys,82.1,11,Jon Gonzales #1,Sunray,82.01,106.59,74.84,151.95,333.39,Unlimited,SBD,M,
Boys,82.1,12,Elijah Crawford,Vega,76.75,131.54,65.77,122.47,319.78,Unlimited,SBD,M,
Boys,89.81,1,Rodolfo Delgado,Perryton,86.64,290.3,199.58,235.87,725.75,Unlimited,SBD,M,
Boys,89.81,2,Jesse Butcher,Amarillo Highland Park,88.99,208.65,163.29,238.14,610.08,Unlimited,SBD,M,
Boys,89.81,3,Alex Penton,Dalhart,88.36,244.94,147.42,215.46,607.81,Unlimited,SBD,M,
Boys,89.81,4,Charlie Gomez,Dumas,86.82,181.44,120.2,192.78,494.42,Unlimited,SBD,M,
Boys,89.81,5,Brody Tupin,Canyon West Plains,88.45,188.24,115.67,183.7,487.61,Unlimited,SBD,M,
Boys,89.81,6,Chance Grey,Borger,88,181.44,138.35,163.29,483.08,Unlimited,SBD,M,
Boys,89.81,7,Keaton Cheyne,Canyon West Plains,88.99,170.1,108.86,190.51,469.47,Unlimited,SBD,M,
Boys,89.81,8,Mason Larkin,Vega,84.19,136.08,72.57,142.88,351.53,Unlimited,SBD,M,
Boys,89.81,9,Easton Farmer,Borger,87.27,129.27,68.04,104.33,301.64,Unlimited,SBD,M,
Boys,89.81,10,Brixton Sells,Borger,83.64,70.31,47.63,61.23,179.17,Unlimited,SBD,M,
Boys,89.81,DQ,Ace Giesbrecht,Canyon West Plains,87.63,208.65,120.2,,,Unlimited,SBD,M,
Boys,99.79,1,Dalton L'Esperance,Perryton,91.17,278.96,170.1,238.14,687.19,Unlimited,SBD,M,
Boys,99.79,2,Mario Garcia,Friona,98.43,254.01,158.76,240.4,653.17,Unlimited,SBD,M,
Boys,99.79,3,Matthew McBride,Canyon West Plains,94.62,199.58,113.4,219.99,532.97,Unlimited,SBD,M,
Boys,99.79,4,Matthew Burch,Amarillo Highland Park,98.97,183.7,129.27,183.7,496.68,Unlimited,SBD,M,
Boys,99.79,5,Ackland Bankston,Canyon West Plains,95.53,167.83,102.06,188.24,458.13,Unlimited,SBD,M,
Boys,99.79,6,Gus Hernandez,Perryton,94.35,149.69,99.79,156.49,405.97,Unlimited,SBD,M,
Boys,109.77,1,Zach Stephens,Panhandle,102.15,238.14,158.76,201.85,598.74,Unlimited,SBD,M,
Boys,109.77,2,Thomas Tran,Amarillo Highland Park,102.6,204.12,154.22,201.85,560.19,Unlimited,SBD,M,
Boys,109.77,3,Luke Grajeda,Sunray,104.33,197.31,120.2,204.12,521.63,Unlimited,SBD,M,
Boys,109.77,4,Hayden Gardner,Amarillo Highland Park,108.95,183.7,102.06,192.78,478.54,Unlimited,SBD,M,
Boys,109.77,5,Chris Cortez,Amarillo Highland Park,99.88,165.56,88.45,183.7,437.72,Unlimited,SBD,M,
Boys,109.77,6,Jovani Perez,Dumas,108.32,142.88,72.57,115.67,331.12,Unlimited,SBD,M,
Boys,124.74,1,Isaiah Padilla,Borger,110.77,249.48,183.7,192.78,625.96,Unlimited,SBD,M,
Boys,124.74,2,Ever Andujo,Perryton,123.65,251.74,133.81,183.7,569.26,Unlimited,SBD,M,
Boys,124.74,3,Carlos Cardenas,Borger,117.57,235.87,124.74,204.12,564.72,Unlimited,SBD,M,
Boys,124.74,4,Rene Castrejon,Dumas,116.12,197.31,163.29,195.04,555.65,Unlimited,SBD,M,
Boys,124.74,5,Juan Jimenez,Dumas,117.03,229.06,120.2,188.24,537.51,Unlimited,SBD,M,
Boys,124.74,6,Arturo Olivia,Dumas,115.94,206.38,117.93,206.38,530.7,Unlimited,SBD,M,
Boys,124.74,7,Gael Cardenas,Dumas,118.93,206.38,129.27,192.78,528.44,Unlimited,SBD,M,
Boys,124.74,8,Miguel Gonzalez,Vega,111.86,213.19,120.2,190.51,523.9,Unlimited,SBD,M,
Boys,124.74,9,Drew Fisher,Dalhart,119.93,190.51,136.08,183.7,510.29,Unlimited,SBD,M,
Boys,124.74,10,Kaleb Lucas,Amarillo Highland Park,109.86,192.78,120.2,192.78,505.76,Unlimited,SBD,M,
Boys,124.74,11,Aaron Venzor,Dumas,113.04,151.95,102.06,183.7,437.72,Unlimited,SBD,M,
Boys,139.71,1,Damian Benavidez,Canyon West Plains,127.1,242.67,156.49,215.46,614.62,Unlimited,SBD,M,
Boys,139.71,2,Antony Hoang,Amarillo Highland Park,127.1,208.65,142.88,190.51,542.04,Unlimited,SBD,M,
Boys,139.71,3,Brandon Trujillo,Vega,130.91,136.08,90.72,142.88,369.68,Unlimited,SBD,M,
Boys,139.71+,1,Ben Turner,Dalhart,154.45,306.17,170.1,238.14,714.41,Unlimited,SBD,M,
Boys,139.71+,2,Jae Harrison,Canyon West Plains,157.17,204.12,129.27,229.06,562.45,Unlimited,SBD,M,
Boys,139.71+,3,Justin Forester,Borger,140.16,217.72,124.74,170.1,512.56,Unlimited,SBD,M,
Boys,,NS,Marcello Gaytan,Borger,,,,,,Unlimited,SBD,M,
Boys,,NS,Blake Rodriguez,Borger,,,,,,Unlimited,SBD,M,
Boys,,NS,Jarett Diggs,Canyon West Plains,,,,,,Unlimited,SBD,M,
Boys,,NS,Landon Cousins,Vega,,,,,,Unlimited,SBD,M,
Boys,,NS,Zach Porras,Dumas,,,,,,Unlimited,SBD,M,
Boys,,NS,Diego Quezada,Friona,,,,,,Unlimited,SBD,M,
