Division,WeightClassKg,Place,Name,Team,BodyweightKg,Best3SquatKg,Best3BenchKg,Best3DeadliftKg,TotalKg,Equipment,Event,Sex,BirthDate
Boys,51.71,1,Albert Camacho,Zapata,50.71,181.44,115.67,192.78,489.88,Unlimited,SBD,M,
Boys,51.71,2,Sergio Garza,Santa Gertrudis Academy,50.53,136.08,68.04,170.1,374.21,Unlimited,SBD,M,
Boys,51.71,3,Devon Hernandez,San Diego,50.62,122.47,83.91,142.88,349.27,Unlimited,SBD,M,
Boys,51.71,4,Jonivan Beas,Banquete,51.71,127.01,68.04,145.15,340.19,Unlimited,SBD,M,
Boys,51.71,5,Chase Vickers,Freer,51.71,102.06,43.09,117.93,263.08,Unlimited,SBD,M,
Boys,55.79,1,Joey Gutierrez,Zapata,55.43,149.69,90.72,181.44,421.84,Unlimited,SBD,M,
Boys,55.79,2,Eloy Sendejo Jr,Zapata,55.16,158.76,95.25,156.49,410.5,Unlimited,SBD,M,
Boys,55.79,3,Jose Delgado,George West,54.34,102.06,74.84,120.2,297.1,Unlimited,SBD,M,
Boys,59.87,1,Ethan Perez,San Diego,59.51,183.7,90.72,183.7,458.13,Unlimited,SBD,M,
Boys,59.87,2,Eduardo Flores,Santa Gertrudis Academy,59.42,147.42,92.99,158.76,399.16,Unlimited,SBD,M,
Boys,59.87,3,Brandon Ruvalcaba,San Diego,58.33,131.54,79.38,149.69,360.61,Unlimited,SBD,M,
Boys,59.87,4,Brayan Pitero,Zapata,58.15,120.2,72.57,147.42,340.19,Unlimited,SBD,M,
Boys,67.13,1,Garon Ortiz,San Diego,66.32,204.12,145.15,195.04,544.31,Unlimited,SBD,M,
Boys,67.13,2,Andy Cano,Santa Gertrudis Academy,65.41,188.24,122.47,206.38,517.1,Unlimited,SBD,M,
Boys,67.13,3,Jayden Gomez,Banquete,63.5,167.83,131.54,176.9,476.27,Unlimited,SBD,M,
Boys,67.13,4,Ryan Garcia,Santa Gertrudis Academy,66.59,158.76,104.33,165.56,428.64,Unlimited,SBD,M,
Boys,67.13,5,Gael Pina,Freer,66.95,151.95,90.72,174.63,417.3,Unlimited,SBD,M,
Boys,67.13,6,Danny Garcia,Zapata,66.68,147.42,92.99,147.42,387.82,Unlimited,SBD,M,
Boys,67.13,7,Jayden Hernandez,George West,64.95,142.88,92.99,129.27,365.14,Unlimited,SBD,M,
Boys,67.13,8,Matthew Castillo,Banquete,62.14,120.2,72.57,142.88,335.66,Unlimited,SBD,M,
Boys,67.13,9,Wyatt Chapa,Santa Gertrudis Academy,61.51,97.52,56.7,120.2,274.42,Unlimited,SBD,M,
Boys,67.13,10,Pedro Naranjo,Santa Gertrudis Academy,63.96,83.91,63.5,113.4,260.82,Unlimited,SBD,M,
Boys,67.13,11,Joshua Benavides,Banquete,62.87,95.25,49.9,97.52,242.67,Unlimited,SBD,M,
Boys,74.84,1,Chris Veloz,Zapata,73.03,272.16,181.44,249.48,703.07,Unlimited,SBD,M,
Boys,74.84,2,Alex Gonzalez,Freer,71.8,185.97,111.13,197.31,494.42,Unlimited,SBD,M,
Boys,74.84,3,Noey Riojas,Zapata,71.76,176.9,124.74,181.44,483.08,Unlimited,SBD,M,
Boys,74.84,4,Christian Garcia,Banquete,73.48,174.63,88.45,197.31,460.4,Unlimited,SBD,M,
Boys,74.84,5,Ethan Martinez,Zapata,69.49,167.83,115.67,161.03,444.52,Unlimited,SBD,M,
Boys,74.84,6,Austin Salaiz,San Diego,69.4,147.42,88.45,154.22,390.09,Unlimited,SBD,M,
Boys,74.84,7,Avtandil Metreveli,George West,72.12,138.35,95.25,142.88,376.48,Unlimited,SBD,M,
Boys,74.84,8,Izaak Gonzalez,Freer,70.31,136.08,86.18,127.01,349.27,Unlimited,SBD,M,
Boys,82.1,1,Ayden Garcia,Santa Gertrudis Academy,81.28,242.67,174.63,265.35,682.66,Unlimited,SBD,M,
Boys,82.1,2,Jesus Aguilar,Zapata,81.92,229.06,149.69,226.8,605.55,Unlimited,SBD,M,
Boys,82.1,3,Jared Rodriguez,San Diego,77.38,238.14,136.08,215.46,589.67,Unlimited,SBD,M,
Boys,82.1,4,Karlos Diaz,Santa Gertrudis Academy,80.74,210.92,138.35,210.92,560.19,Unlimited,SBD,M,
Boys,82.1,5,Benjamin DeLeon,Santa Gertrudis Academy,78.29,210.92,140.61,192.78,544.31,Unlimited,SBD,M,
Boys,82.1,6,Evan Vega,Freer,79.02,185.97,127.01,185.97,498.95,Unlimited,SBD,M,
Boys,82.1,7,Jacob Edgington,Banquete,77.02,183.7,108.86,188.24,480.81,Unlimited,SBD,M,
Boys,82.1,8,Dylan Thomisee,George West,77.29,170.1,113.4,163.29,446.79,Unlimited,SBD,M,
Boys,82.1,9,Christovin Cisneros,George West,81.65,158.76,97.52,142.88,399.16,Unlimited,SBD,M,
Boys,82.1,10,Wyatt Burnett,George West,75.57,140.61,83.91,149.69,374.21,Unlimited,SBD,M,
Boys,82.1,DQ,William Ratcliff,Banquete,78.83,136.08,81.65,,,Unlimited,SBD,M,
Boys,89.81,1,Rey Solis,Zapata,82.74,195.04,154.22,206.38,555.65,Unlimited,SBD,M,
Boys,89.81,2,Peter Raab,San Diego,89.81,192.78,124.74,199.58,517.1,Unlimited,SBD,M,
Boys,89.81,3,Jason Rodriguez,San Diego,83.91,181.44,92.99,188.24,462.66,Unlimited,SBD,M,
Boys,89.81,4,Eugene Soliz,San Diego,86.64,165.56,92.99,183.7,442.25,Unlimited,SBD,M,
Boys,89.81,5,Devyn Maldonado,San Diego,89.63,158.76,104.33,172.37,435.45,Unlimited,SBD,M,
Boys,89.81,6,Braden Kaedel,George West,87.45,113.4,97.52,133.81,344.73,Unlimited,SBD,M,
Boys,99.79,1,Jallen Medina,George West,96.8,290.3,174.63,226.8,691.73,Unlimited,SBD,M,
Boys,99.79,2,Jonah Uribe,Freer,96.89,210.92,149.69,195.04,555.65,Unlimited,SBD,M,
Boys,99.79,3,Jose Gomez,San Diego,98.16,206.38,133.81,208.65,548.85,Unlimited,SBD,M,
Boys,99.79,4,Zane Willis,Banquete,93.62,179.17,122.47,224.53,526.17,Unlimited,SBD,M,
Boys,99.79,5,Raul Guerra,Zapata,98.16,192.78,138.35,195.04,526.17,Unlimited,SBD,M,
Boys,99.79,6,Silas Shaw,George West,90.9,170.1,136.08,192.78,498.95,Unlimited,SBD,M,
Boys,99.79,7,Landon Hinojosa,Freer,95.71,172.37,108.86,170.1,451.32,Unlimited,SBD,M,
Boys,99.79,8,Isaak Torrez,Freer,90.72,172.37,102.06,156.49,430.91,Unlimited,SBD,M,
Boys,99.79,9,Drew Seidel,Santa Gertrudis Academy,94.89,108.86,52.16,142.88,303.91,Unlimited,SBD,M,
Boys,99.79,10,Ryan Garcia,Freer,95.8,106.59,49.9,122.47,278.96,Unlimited,SBD,M,
Boys,99.79,11,Willam Sullivan,Banquete,96.8,83.91,43.09,115.67,242.67,Unlimited,SBD,M,
Boys,99.79,DQ,Izaiah Gomez,Banquete,94.26,151.95,,,,Unlimited,SBD,M,
Boys,109.77,1,Valdemar Flores,Zapata,106.87,240.4,183.7,190.51,614.62,Unlimited,SBD,M,
Boys,109.77,2,Tyler Fox,Banquete,108.32,231.33,127.01,208.65,566.99,Unlimited,SBD,M,
Boys,109.77,3,Jason Rodriguez,Freer,101.42,195.04,104.33,176.9,476.27,Unlimited,SBD,M,
Boys,109.77,4,Daniel Tellez,George West,103.15,199.58,120.2,151.95,471.74,Unlimited,SBD,M,
Boys,109.77,5,Ryan DeLaRosa,Santa Gertrudis Academy,104.24,179.17,111.13,174.63,464.93,Unlimited,SBD,M,
Boys,124.74,1,Daniel García,Banquete,120.66,226.8,151.95,217.72,596.47,Unlimited,SBD,M,
Boys,124.74,2,Ricardo Garcia,San Diego,124.74,165.56,136.08,165.56,467.2,Unlimited,SBD,M,
Boys,124.74,DQ,Gabriel Guajardo,Freer,117.03,,,,,Unlimited,SBD,M,
Boys,139.71+,1,Marcelo Sanchez,San Diego,149.05,226.8,183.7,219.99,630.49,Unlimited,SBD,M,
Boys,139.71+,2,Ernesto Elizondo,Santa Gertrudis Academy,140.43,190.51,108.86,174.63,474,Unlimited,SBD,M,
Boys,139.71+,3,Ben Shaw,George West,148.42,158.76,113.4,149.69,421.84,Unlimited,SBD,M,
Boys,,NS,Wallace Ham-Garcia,George West,,,,,,Unlimited,SBD,M,
Boys,,NS,Marcus Perez,Freer,,,,,,Unlimited,SBD,M,
