Division,WeightClassKg,Place,Name,Team,BodyweightKg,Best3SquatKg,Best3BenchKg,Best3DeadliftKg,TotalKg,Equipment,Event,Sex,BirthDate
Boys,51.71,1,Alejandro Delgado,Los Fresnos,47.81,106.59,88.45,120.2,315.25,Unlimited,SBD,M,
Boys,51.71,DQ,Allen Trevino,San Benito,50.71,147.42,,,,Unlimited,SBD,M,
Boys,55.79,1,Justin Gallegos,San Benito,55.16,111.13,72.57,142.88,326.59,Unlimited,SBD,M,
Boys,55.79,2,Isaiah Mendoza,San Benito,52.89,120.2,79.38,124.74,324.32,Unlimited,SBD,M,
Boys,55.79,3,Ruben Vazquez,Brownsville Hanna,54.98,120.2,74.84,129.27,324.32,Unlimited,SBD,M,
Boys,55.79,4,Ross Muniz,Brownsville Hanna,52.25,108.86,65.77,124.74,299.37,Unlimited,SBD,M,
Boys,55.79,5,Pedro Gutierrez,Weslaco East,53.61,81.65,40.82,79.38,201.85,Unlimited,SBD,M,
Boys,59.87,1,Osiel Alday,Brownsville Pace,59.6,167.83,113.4,183.7,464.93,Unlimited,SBD,M,
Boys,59.87,2,Esteban Ramirez,Brownsville Hanna,57.06,142.88,83.91,165.56,392.36,Unlimited,SBD,M,
Boys,59.87,3,Axel Hernandez,San Benito,59.24,124.74,92.99,142.88,360.61,Unlimited,SBD,M,
Boys,59.87,4,Deandre Trejo,Brownsville Hanna,55.88,133.81,70.31,140.61,344.73,Unlimited,SBD,M,
Boys,67.13,1,Adrian Marin,Los Fresnos,66.32,192.78,129.27,213.19,535.24,Unlimited,SBD,M,
Boys,67.13,2,Kyle Garcia,Weslaco East,64.32,176.9,124.74,188.24,489.88,Unlimited,SBD,M,
Boys,67.13,3,Phoenix Barroso,Los Fresnos,65.86,167.83,113.4,170.1,451.32,Unlimited,SBD,M,
Boys,67.13,4,Jesus Lozano,San Benito,63.78,151.95,97.52,133.81,383.29,Unlimited,SBD,M,
Boys,67.13,5,Michael Salazar,Brownsville Pace,64.23,124.74,79.38,154.22,358.34,Unlimited,SBD,M,
Boys,67.13,DQ,Ramiro Carrera,Weslaco East,61.6,,,,,Unlimited,SBD,M,
Boys,74.84,1,Fernando Gracia,Brownsville Porter,72.67,192.78,127.01,188.24,508.02,Unlimited,SBD,M,
Boys,74.84,2,Tony Garcia,San Benito,73.75,204.12,124.74,174.63,503.49,Unlimited,SBD,M,
Boys,74.84,3,Roland Cortez,San Benito,71.49,192.78,120.2,179.17,492.15,Unlimited,SBD,M,
Boys,74.84,4,Devon Burnias,Weslaco East,71.49,172.37,97.52,161.03,430.91,Unlimited,SBD,M,
Boys,74.84,5,Ezequiel Elias,Brownsville Pace,67.49,147.42,97.52,151.95,396.89,Unlimited,SBD,M,
Boys,74.84,DQ,Cristian Garces,Brownsville Riverview IDEA,74.03,,,,,Unlimited,SBD,M,
Boys,82.1,1,Santiago Flores,Weslaco East,80.56,219.99,176.9,226.8,623.69,Unlimited,SBD,M,
Boys,82.1,2,Noah Rosales,Weslaco East,78.56,197.31,145.15,199.58,542.04,Unlimited,SBD,M,
Boys,82.1,3,Schaun Alvarez,Los Fresnos,81.47,213.19,129.27,199.58,542.04,Unlimited,SBD,M,
Boys,82.1,4,Daniel Padilla,Weslaco East,81.92,195.04,113.4,156.49,464.93,Unlimited,SBD,M,
Boys,82.1,5,Leon Delgado,Brownsville Hanna,79.56,170.1,108.86,176.9,455.86,Unlimited,SBD,M,
Boys,82.1,6,Jesse Melendez,Brownsville Riverview IDEA,81.24,151.95,88.45,142.88,383.29,Unlimited,SBD,M,
Boys,89.81,1,Jake Flores,Los Fresnos,86.09,231.33,127.01,219.99,578.33,Unlimited,SBD,M,
Boys,89.81,2,Alfredo Morales,Brownsville Pace,89.81,219.99,113.4,233.6,566.99,Unlimited,SBD,M,
Boys,89.81,3,Derrick Otero,Brownsville Hanna,88.63,197.31,106.59,208.65,512.56,Unlimited,SBD,M,
Boys,89.81,4,Eldrich Arraya,Brownsville Riverview IDEA,85.96,185.97,120.2,183.7,489.88,Unlimited,SBD,M,
Boys,89.81,5,Isaias Surna,Weslaco East,89.54,201.85,120.2,158.76,480.81,Unlimited,SBD,M,
Boys,89.81,6,Matthew Alanis,Brownsville Riverview IDEA,89.13,142.88,81.65,156.49,381.02,Unlimited,SBD,M,
Boys,99.79,1,Jay-D Sanchez,Weslaco East,90.54,240.4,158.76,231.33,630.49,Unlimited,SBD,M,
Boys,99.79,2,Dominic Rincon,Weslaco East,98.43,224.53,181.44,199.58,605.55,Unlimited,SBD,M,
Boys,99.79,3,Aiden Lopez,San Benito,97.61,238.14,147.42,204.12,589.67,Unlimited,SBD,M,
Boys,99.79,4,Diego Cabrera,Brownsville Porter,99.79,256.28,142.88,183.7,582.87,Unlimited,SBD,M,
Boys,99.79,5,Derrick Martinez,Brownsville Hanna,96.71,213.19,111.13,201.85,526.17,Unlimited,SBD,M,
Boys,99.79,6,Mario Mora,San Benito,99.79,183.7,154.22,188.24,526.17,Unlimited,SBD,M,
Boys,99.79,7,Juan Abrego,San Benito,98.52,183.7,147.42,185.97,517.1,Unlimited,SBD,M,
Boys,99.79,8,Cesar Casa,Brownsville Riverview IDEA,99.02,174.63,142.88,192.78,510.29,Unlimited,SBD,M,
Boys,99.79,9,Jayden Garza,Weslaco East,90.17,183.7,138.35,183.7,505.76,Unlimited,SBD,M,
Boys,99.79,10,Joaquin Espinoza,Brownsville Pace,97.43,183.7,124.74,192.78,501.22,Unlimited,SBD,M,
Boys,99.79,11,Franco Melendez,Brownsville Riverview IDEA,99.11,129.27,86.18,124.74,340.19,Unlimited,SBD,M,
Boys,109.77,1,Landin Villanueva,Los Fresnos,104.51,251.74,181.44,244.94,678.12,Unlimited,SBD,M,
Boys,109.77,2,Lubin Garcia,Weslaco East,100.52,251.74,185.97,235.87,673.58,Unlimited,SBD,M,
Boys,109.77,3,Daniel Olvera,Brownsville Porter,103.96,204.12,142.88,181.44,528.44,Unlimited,SBD,M,
Boys,109.77,4,Alex Munoz,San Benito,102.78,204.12,142.88,172.37,519.36,Unlimited,SBD,M,
Boys,109.77,DQ,William Ochoa,Brownsville Hanna,107.59,183.7,,,,Unlimited,SBD,M,
Boys,109.77,DQ,Adon Barckholtz,Brownsville Hanna,106.23,113.4,72.57,,,Unlimited,SBD,M,
Boys,124.74,1,Joe Barrera,Weslaco East,122.24,254.01,192.78,199.58,646.37,Unlimited,SBD,M,
Boys,124.74,2,Jacob Zuniga,Weslaco East,119.75,215.46,151.95,167.83,535.24,Unlimited,SBD,M,
Boys,124.74,3,Jonathan Deras,Weslaco East,118.21,149.69,106.59,158.76,415.04,Unlimited,SBD,M,
Boys,139.71,1,Daniel Pena,Brownsville Pace,135.99,235.87,154.22,156.49,546.58,Unlimited,SBD,M,
Boys,139.71,2,Luis Balli,San Benito,125.42,183.7,117.93,192.78,494.42,Unlimited,SBD,M,
