Division,WeightClassKg,Place,Name,Team,BodyweightKg,Best3SquatKg,Best3BenchKg,Best3DeadliftKg,TotalKg,Equipment,Event,Sex,BirthDate
Boys,59.87,1,Michael Johnson,South Garland,59.6,149.69,83.91,161.03,394.63,Unlimited,SBD,M,
Boys,67.13,1,Adrian Cordero,Dallas Conrad,63.59,136.08,72.57,156.49,365.14,Unlimited,SBD,M,
Boys,67.13,2,Oscar Martinez,South Garland,66.13,138.35,77.11,142.88,358.34,Unlimited,SBD,M,
Boys,74.84,1,Faruq Ogunjobi,Garland Rowlett,72.57,147.42,90.72,185.97,424.11,Unlimited,SBD,M,
Boys,74.84,2,Paolo Jiminez,South Garland,74.57,142.88,90.72,138.35,371.95,Unlimited,SBD,M,
Boys,74.84,3,Edgar Martinez,Dallas Conrad,74.57,111.13,90.72,145.15,347,Unlimited,SBD,M,
Boys,74.84,4,James Dennis,Dallas Conrad,68.31,122.47,77.11,133.81,333.39,Unlimited,SBD,M,
Boys,74.84,5,Michael Argueta,Garland Rowlett,72.57,111.13,65.77,124.74,301.64,Unlimited,SBD,M,
Boys,74.84,6,Kayden Loyd,South Garland,70.03,90.72,45.36,129.27,265.35,Unlimited,SBD,M,
Boys,82.1,1,Edson Rincon,South Garland,79.38,136.08,83.91,149.69,369.68,Unlimited,SBD,M,
Boys,82.1,DQ,Donovan Wright,Dallas Conrad,78.74,131.54,,,,Unlimited,SBD,M,
Boys,89.81,1,Erik Chavez,South Garland,85.14,151.95,145.15,188.24,485.34,Unlimited,SBD,M,
Boys,89.81,2,Malakai McClendon,Garland Rowlett,86.18,181.44,102.06,165.56,449.06,Unlimited,SBD,M,
Boys,89.81,3,Miguel Vera,South Garland,87.18,145.15,108.86,174.63,428.64,Unlimited,SBD,M,
Boys,89.81,4,Isaac Bolanos,Dallas Conrad,86.09,142.88,81.65,140.61,365.14,Unlimited,SBD,M,
Boys,99.79,1,Elian Perez,South Garland,98.43,183.7,113.4,233.6,530.7,Unlimited,SBD,M,
Boys,99.79,2,Brian Padilla,South Garland,98.16,197.31,106.59,201.85,505.76,Unlimited,SBD,M,
Boys,99.79,3,Preston Rose,Garland Rowlett,98.43,158.76,104.33,185.97,449.06,Unlimited,SBD,M,
Boys,99.79,4,Bahi Elagami,Garland Rowlett,92.99,165.56,92.99,170.1,428.64,Unlimited,SBD,M,
Boys,109.77,1,Robert Hutchison,Garland Rowlett,102.06,106.59,92.99,142.88,342.46,Unlimited,SBD,M,
Boys,124.74,1,Jesus Barron,South Garland,116.03,229.06,115.67,190.51,535.24,Unlimited,SBD,M,
Boys,124.74,2,Andres DeLaCruz,South Garland,111.67,183.7,106.59,192.78,483.08,Unlimited,SBD,M,
Boys,124.74,3,Bruce Gomez Funes,Dallas Conrad,109.86,138.35,77.11,156.49,371.95,Unlimited,SBD,M,
Boys,139.71,1,Leandro Escobar,Garland Naaman Forest,139.71,265.35,165.56,210.92,641.83,Unlimited,SBD,M,
Boys,139.71,2,Edgar Fallad,Dallas Conrad,135.26,158.76,95.25,142.88,396.89,Unlimited,SBD,M,
Boys,139.71+,1,Saul Jauregui,South Garland,147.6,217.72,124.74,213.19,555.65,Unlimited,SBD,M,
