Division,WeightClassKg,Place,Name,Team,BodyweightKg,Best3SquatKg,Best3BenchKg,Best3DeadliftKg,TotalKg,Equipment,Event,Sex,BirthDate
Boys,51.71,1,Xavier Ellis,Kress,51.26,147.42,86.18,181.44,415.04,Unlimited,SBD,M,
Boys,51.71,2,Ricardo Barron,Perryton,50.58,99.79,72.57,115.67,288.03,Unlimited,SBD,M,
Boys,55.79,1,Michael Bautista,Friona,53.84,167.83,99.79,170.1,437.72,Unlimited,SBD,M,
Boys,55.79,2,Edgar Ramos,Perryton,53.57,149.69,90.72,124.74,365.14,Unlimited,SBD,M,
Boys,55.79,3,Colton Grubb,Kress,55.61,88.45,88.45,122.47,299.37,Unlimited,SBD,M,
Boys,55.79,DQ,Joshua Lawrence,Dumas,54.93,165.56,,,,Unlimited,SBD,M,
Boys,59.87,1,Jeremiah Norigea,Kress,59.15,172.37,95.25,167.83,435.45,Unlimited,SBD,M,
Boys,59.87,2,Sam DeSantiago,Perryton,59.24,174.63,106.59,154.22,435.45,Unlimited,SBD,M,
Boys,59.87,3,Azriel Flores,Friona,57.29,133.81,74.84,142.88,351.53,Unlimited,SBD,M,
Boys,59.87,4,Adrian Castillo,Kress,58.47,124.74,88.45,131.54,344.73,Unlimited,SBD,M,
Boys,59.87,5,Johnny Aguilar,Kress,59.69,129.27,58.97,154.22,342.46,Unlimited,SBD,M,
Boys,59.87,6,Leo Rojas,Kress,59.33,113.4,70.31,142.88,326.59,Unlimited,SBD,M,
Boys,59.87,7,Miguel Alvarez,Kress,58.97,111.13,61.23,151.95,324.32,Unlimited,SBD,M,
Boys,59.87,8,Zay Reyes,Kress,56.2,117.93,61.23,142.88,322.05,Unlimited,SBD,M,
Boys,59.87,9,Landon Cousins,Vega,58.38,95.25,49.9,108.86,254.01,Unlimited,SBD,M,
Boys,59.87,10,Rj Rodriguez,Tulia,59.28,77.11,54.43,108.86,240.4,Unlimited,SBD,M,
Boys,59.87,11,Kavien Knox,Kress,58.38,61.23,40.82,95.25,197.31,Unlimited,SBD,M,
Boys,59.87,DQ,Nickolas Cervantes,Lockney,56.7,,,,,Unlimited,SBD,M,
Boys,67.13,1,Jeremiah Rosales,Lockney,66,226.8,122.47,165.56,514.83,Unlimited,SBD,M,
Boys,67.13,2,Jorge Garcia,Friona,62.23,185.97,111.13,190.51,487.61,Unlimited,SBD,M,
Boys,67.13,3,Abel Lucero,Perryton,66.95,174.63,117.93,183.7,476.27,Unlimited,SBD,M,
Boys,67.13,4,Carlos Parra,Dumas,60.1,188.24,97.52,183.7,469.47,Unlimited,SBD,M,
Boys,67.13,5,Erik Estrada,Friona,66.27,167.83,83.91,183.7,435.45,Unlimited,SBD,M,
Boys,67.13,6,Aaron Rosales,Friona,65.23,192.78,95.25,131.54,419.57,Unlimited,SBD,M,
Boys,67.13,7,Christian Gonzalez,Dumas,64.23,156.49,92.99,149.69,399.16,Unlimited,SBD,M,
Boys,67.13,8,Jose Vargas #1,Dumas,64.5,142.88,90.72,138.35,371.95,Unlimited,SBD,M,
Boys,67.13,9,Devion Ellis,Kress,62.14,133.81,72.57,149.69,356.07,Unlimited,SBD,M,
Boys,67.13,10,Ethaniel Trevino,Tulia,61.05,108.86,68.04,165.56,342.46,Unlimited,SBD,M,
Boys,67.13,11,Jayston Lovvern,Kress,64.36,102.06,68.04,117.93,288.03,Unlimited,SBD,M,
Boys,67.13,DQ,Andrey Gonzalez,Dumas,66.68,,,,,Unlimited,SBD,M,
Boys,74.84,1,Kason Amador,Kress,72.39,192.78,136.08,210.92,539.77,Unlimited,SBD,M,
Boys,74.84,2,Sean Newton,Perryton,74.3,179.17,120.2,158.76,458.13,Unlimited,SBD,M,
Boys,74.84,3,Xane Garcia,Kress,72.21,172.37,83.91,197.31,453.59,Unlimited,SBD,M,
Boys,74.84,4,Shooter Coon,Dumas,71.94,192.78,108.86,149.69,451.32,Unlimited,SBD,M,
Boys,74.84,5,Darrin Jimenez,Lockney,72.71,183.7,102.06,154.22,439.98,Unlimited,SBD,M,
Boys,74.84,6,Cason Lamm,Vega,70.4,147.42,88.45,140.61,376.48,Unlimited,SBD,M,
Boys,74.84,7,Marcus Lewis,Tulia,70.35,92.99,74.84,131.54,299.37,Unlimited,SBD,M,
Boys,74.84,DQ,Oliver Garcia,Dumas,74.84,229.06,111.13,,,Unlimited,SBD,M,
Boys,74.84,DQ,Ramon Ortiz,Friona,69.31,206.38,106.59,,,Unlimited,SBD,M,
Boys,82.1,1,Angel Becerril,Perryton,82.01,215.46,124.74,215.46,555.65,Unlimited,SBD,M,
Boys,82.1,2,Eidan Loera,Dumas,79.79,217.72,136.08,174.63,528.44,Unlimited,SBD,M,
Boys,82.1,3,Cash Black,Vega,78.34,195.04,115.67,192.78,503.49,Unlimited,SBD,M,
Boys,82.1,4,Walker te Velde,Vega,79.79,161.03,111.13,161.03,433.18,Unlimited,SBD,M,
Boys,82.1,5,Julius Rosales,Lockney,79.51,142.88,83.91,147.42,374.21,Unlimited,SBD,M,
Boys,82.1,6,Kaleb Bice,Tulia,80.92,102.06,81.65,145.15,328.85,Unlimited,SBD,M,
Boys,82.1,7,Elijah Crawford,Vega,76.61,131.54,61.23,122.47,315.25,Unlimited,SBD,M,
Boys,89.81,1,Karson Thompson,Canadian,83.51,204.12,129.27,233.6,566.99,Unlimited,SBD,M,
Boys,89.81,2,Aidan Mendoza,Muleshoe,87.72,199.58,124.74,183.7,508.02,Unlimited,SBD,M,
Boys,89.81,3,Isaac Huerta,Dumas,88.22,183.7,106.59,188.24,478.54,Unlimited,SBD,M,
Boys,89.81,4,Angel Saucedo,Friona,86.77,176.9,102.06,165.56,444.52,Unlimited,SBD,M,
Boys,89.81,5,Ty Bice,Tulia,83.51,147.42,90.72,165.56,403.7,Unlimited,SBD,M,
Boys,89.81,6,Mason Larkin,Vega,83.6,129.27,68.04,138.35,335.66,Unlimited,SBD,M,
Boys,99.79,1,Frank Perez,Friona,98.75,249.48,161.03,215.46,625.96,Unlimited,SBD,M,
Boys,99.79,2,Mario Garcia,Friona,99.25,244.94,151.95,217.72,614.62,Unlimited,SBD,M,
Boys,99.79,3,Adrian Hernandez,Lockney,98.84,260.82,165.56,179.17,605.55,Unlimited,SBD,M,
Boys,99.79,4,Jisiah Lara,Lockney,96.75,233.6,124.74,195.04,553.38,Unlimited,SBD,M,
Boys,99.79,5,Aaron Rodriguez,Friona,92.94,213.19,120.2,170.1,503.49,Unlimited,SBD,M,
Boys,99.79,6,Xathan Chasco,Tulia,95.62,154.22,127.01,217.72,498.95,Unlimited,SBD,M,
Boys,99.79,7,Jaime Barron,Perryton,98.75,188.24,131.54,165.56,485.34,Unlimited,SBD,M,
Boys,99.79,8,Timothy Steinbaugh,Tulia,97.66,129.27,88.45,136.08,353.8,Unlimited,SBD,M,
Boys,99.79,9,Abraham Sosa,Perryton,98.61,115.67,83.91,124.74,324.32,Unlimited,SBD,M,
Boys,99.79,DQ,Bryan Alvarado,Dumas,98.93,,,,,Unlimited,SBD,M,
Boys,109.77,1,Ishmael Flores,Friona,104.78,260.82,183.7,235.87,680.39,Unlimited,SBD,M,
Boys,109.77,2,Eden Mills,Friona,107.77,188.24,115.67,176.9,480.81,Unlimited,SBD,M,
Boys,124.74,1,Keegan Ireland,Dumas,113.9,317.51,192.78,294.84,805.13,Unlimited,SBD,M,
Boys,124.74,2,Rudy Jimenez,Lockney,118.34,249.48,181.44,244.94,675.85,Unlimited,SBD,M,
Boys,124.74,3,Masen Rehkopf,Lockney,116.75,242.67,156.49,183.7,582.87,Unlimited,SBD,M,
Boys,124.74,4,Jacinto Briones,Tulia,123.06,226.8,127.01,226.8,580.6,Unlimited,SBD,M,
Boys,124.74,5,Miguel Gonzalez,Vega,111.13,201.85,115.67,185.97,503.49,Unlimited,SBD,M,
Boys,124.74,6,Jordan Burns,Kress,113.49,158.76,142.88,161.03,462.66,Unlimited,SBD,M,
Boys,124.74,7,Elias Becerril,Perryton,119.84,176.9,111.13,156.49,444.52,Unlimited,SBD,M,
Boys,124.74,8,Paul Cody,Kress,110.81,147.42,113.4,176.9,437.72,Unlimited,SBD,M,
Boys,124.74,9,Landry Anderson #1,Perryton,123.97,122.47,95.25,145.15,362.87,Unlimited,SBD,M,
Boys,124.74,DQ,Edward Longoria,Lockney,112.17,,,,,Unlimited,SBD,M,
Boys,139.71,1,Jose Salazar,Lockney,125.55,183.7,92.99,131.54,408.23,Unlimited,SBD,M,
Boys,139.71,2,Brandon Trujillo,Vega,128.28,145.15,79.38,129.27,353.8,Unlimited,SBD,M,
Boys,139.71,DQ,Jason Reyna,Lockney,126.92,,,,,Unlimited,SBD,M,
Boys,139.71+,1,Tiden Temple,Dumas,163.25,185.97,142.88,181.44,510.29,Unlimited,SBD,M,
Boys,139.71+,DQ,Caden Pritchard,Lockney,150.05,240.4,,,,Unlimited,SBD,M,
