Place,Name,BirthDate,Sex,BirthYear,Age,Country,State,Equipment,Division,BodyweightKg,WeightClassKg,Squat1Kg,Squat2Kg,Squat3Kg,Best3SquatKg,Bench1Kg,Bench2Kg,Bench3Kg,Best3BenchKg,Deadlift1Kg,Deadlift2Kg,Deadlift3Kg,Best3DeadliftKg,TotalKg,Event
DQ,Salvatore D'Acunto,,M,1989,35,USA,WA,Raw,MR-O,117.80,120,,,,,-185.00,-195.00,,,,,,,,B
1,Vladyslava Shaporda,,F,2006,18,USA,WA,Raw,FR-Jr,63.80,69,135.0,145.00,-150.00,145.0,65.00,70.00,-77.50,70.00,150.00,165.00,-170.00,165.00,380,SBD
1,Rylie Leon,,F,2004,20,USA,OR,Raw,FR-Jr,83.50,84,102.5,-110.00,110.00,110.0,62.50,67.50,70.00,70.00,107.50,115.00,122.50,122.50,303,SBD
2,Brooklyn Ramsey,,F,2003,21,USA,OR,Raw,FR-Jr,81.60,84,92.5,97.50,102.50,102.5,60.00,62.50,65.00,65.00,107.50,115.00,120.00,120.00,288,SBD
1,Rina Shapiro,,F,1982,43,USA,OR,Raw,FR-M1,58.00,63,105.0,110.00,-115.00,110.0,57.50,-60.00,60.00,60.00,125.00,132.50,-140.00,132.50,303,SBD
1,Naomi Asselin,,F,1985,39,USA,OR,Raw,FR-M1,71.40,76,85.0,90.00,95.00,95.0,50.00,52.50,55.00,55.00,102.50,107.50,112.50,112.50,263,SBD
1,Lauren Kolb,,F,1981,43,USA,OR,Raw,FR-M1,79.30,84,92.5,100.00,107.50,107.5,55.00,60.00,62.50,62.50,110.00,120.00,127.50,127.50,298,SBD
1,Susan Sivek,,F,1980,44,USA,WA,Raw,FR-M1,91.00,84+,85.0,90.00,95.00,95.0,47.50,50.00,52.50,52.50,110.00,115.00,122.50,122.50,270,SBD
1,Marcia Homer,,F,1966,58,USA,OR,Raw,FR-M2,82.60,84,102.5,-110.00,110.00,110.0,55.00,57.50,-60.00,57.50,130.00,137.50,140.00,140.00,308,SBD
2,Shanti Murphy,,F,1973,51,USA,OR,Raw,FR-M2,83.00,84,85.0,90.00,95.00,95.0,50.00,52.50,55.00,55.00,-100.00,100.00,112.50,112.50,263,SBD
3,Robin Bernstein,,F,1968,57,USA,OR,Raw,FR-M2,77.70,84,-70.0,72.50,77.50,77.5,42.50,45.00,47.50,47.50,90.00,95.00,105.00,105.00,230,SBD
1,Sheila Hoover,,F,1965,59,USA,OR,Raw,FR-M3,77.80,84,102.5,110.00,115.00,115.0,52.50,55.00,57.50,57.50,115.00,120.00,127.50,127.50,300,SBD
1,Joanne Sterling,,F,1944,80,USA,OR,Raw,FR-M4,83.10,84,,,,,25.00,27.50,-30.00,27.50,47.50,52.50,55.00,55.00,83,BD
2,Morgan Talley,,F,1996,28,USA,TN,Raw,FR-O,62.00,63,100.0,105.00,-110.00,105.0,-65.00,65.00,67.50,67.50,105.00,112.50,120.00,120.00,293,SBD
3,Karla Canton,,F,1997,28,USA,OR,Raw,FR-O,61.70,63,97.5,-102.50,-102.50,97.5,50.00,52.50,55.00,55.00,120.00,-127.50,127.50,127.50,280,SBD
4,Hadley Brooks,,F,1991,33,USA,OR,Raw,FR-O,58.00,63,-77.5,80.00,85.00,85.0,37.50,40.00,42.50,42.50,92.50,97.50,107.50,107.50,235,SBD
1,Rina Shapiro,,F,1982,43,USA,OR,Raw,FR-O,58.00,63,105.0,110.00,-115.00,110.0,57.50,-60.00,60.00,60.00,125.00,132.50,-140.00,132.50,303,SBD
1,Autumn Loscar,,F,1995,29,USA,OR,Raw,FR-O,67.60,69,137.5,145.00,-152.50,145.0,55.00,60.00,-65.00,60.00,147.50,155.00,162.50,162.50,368,SBD
2,Monica Elizondo,,F,1991,33,USA,OR,Raw,FR-O,64.80,69,112.5,120.00,-122.50,120.0,60.00,65.00,70.00,70.00,112.50,120.00,125.00,125.00,315,SBD
1,Katelyn Barbaria,,F,1988,36,USA,OR,Raw,FR-O,70.90,76,112.5,120.00,125.00,125.0,57.50,62.50,-65.00,62.50,140.00,147.50,155.00,155.00,343,SBD
2,Eliza Thompson,,F,1994,30,USA,OR,Raw,FR-O,75.30,76,75.0,80.00,85.00,85.0,50.00,57.50,60.00,60.00,105.00,112.50,120.00,120.00,265,SBD
3,Naomi Asselin,,F,1985,39,USA,OR,Raw,FR-O,71.40,76,85.0,90.00,95.00,95.0,50.00,52.50,55.00,55.00,102.50,107.50,112.50,112.50,263,SBD
1,Sarah Bartels,,F,1993,31,USA,OR,Raw,FR-O,82.60,84,137.5,145.00,152.50,152.5,75.00,77.50,80.00,80.00,147.50,152.50,157.50,157.50,390,SBD
2,Natalie Shaw,,F,1993,31,USA,OR,Raw,FR-O,76.70,84,110.0,117.50,122.50,122.5,52.50,57.50,60.00,60.00,105.00,112.50,-115.00,112.50,295,SBD
3,Brooklyn Ramsey,,F,2003,21,USA,OR,Raw,FR-O,81.60,84,92.5,97.50,102.50,102.5,60.00,62.50,65.00,65.00,107.50,115.00,120.00,120.00,288,SBD
4,Arielle Yarwood,,F,1990,34,USA,OR,Raw,FR-O,78.60,84,80.0,85.00,92.50,92.5,42.50,45.00,47.50,47.50,112.50,120.00,125.00,125.00,265,SBD
1,Lucy Mcavoy,,F,1994,30,USA,OR,Raw,FR-O,126.00,84+,182.5,195.00,200.00,200.0,82.50,87.50,92.50,92.50,182.50,195.00,200.00,200.00,493,SBD
2,Emily Chapman #2,,F,1991,33,USA,OR,Raw,FR-O,112.30,84+,155.0,162.50,175.00,175.0,80.00,85.00,92.50,92.50,147.50,155.00,160.00,160.00,428,SBD
3,Jordyn Hagan,,F,1993,32,USA,OR,Raw,FR-O,93.10,84+,102.5,107.50,115.00,115.0,55.00,60.00,62.50,62.50,125.00,130.00,137.50,137.50,315,SBD
4,Amanda Stroka,,F,1992,32,USA,OR,Raw,FR-O,87.20,84+,90.0,97.50,102.50,102.5,50.00,-52.50,55.00,55.00,115.00,125.00,-132.50,125.00,283,SBD
5,Rachel Hand,,F,1992,32,USA,OR,Raw,FR-O,107.20,84+,102.5,-110.00,110.00,110.0,55.00,57.50,-60.00,57.50,100.00,107.50,112.50,112.50,280,SBD
6,Abigail Dillion,,F,1998,26,USA,OR,Raw,FR-O,91.00,84+,82.5,95.00,97.50,97.5,-52.50,52.50,-57.50,52.50,112.50,120.00,125.00,125.00,275,SBD
1,Hugo Trujillo Guzman,,M,2003,21,USA,OR,Raw,MR-Jr,119.30,120,215.0,247.50,265.00,265.0,157.50,182.50,-192.50,182.50,217.50,235.00,257.50,257.50,705,SBD
2,Adan Baires,,M,2005,19,USA,WA,Raw,MR-Jr,113.10,120,192.5,205.00,227.50,227.5,132.50,140.00,145.00,145.00,175.00,185.00,195.00,195.00,568,SBD
1,Carlos Reynoso,,M,1984,40,USA,OR,Raw,MR-M1,88.40,93,112.5,120.00,125.00,125.0,92.50,97.50,-102.50,97.50,130.00,137.50,145.00,145.00,368,SBD
1,Sean Fountain,,M,1981,43,USA,OR,Raw,MR-M1,100.70,105,-180.0,180.00,190.00,190.0,95.00,105.00,-110.00,105.00,195.00,205.00,215.00,215.00,510,SBD
2,Cort Dorn-Medeiros,,M,1977,47,USA,OR,Raw,MR-M1,100.60,105,137.5,142.50,-147.50,142.5,70.00,75.00,77.50,77.50,145.00,160.00,170.00,170.00,390,SBD
1,Doug Diller,,M,1970,54,USA,OR,Raw,MR-M2,90.50,93,102.5,107.50,112.50,112.5,85.00,90.00,-92.50,90.00,125.00,137.50,142.50,142.50,345,SBD
1,Christopher Ptacek,,M,1975,50,USA,OR,Raw,MR-M2,160.70,120+,230.0,242.50,252.50,252.5,-180.00,180.00,190.00,190.00,240.00,257.50,272.50,272.50,715,SBD
1,Robert Long,,M,1963,61,USA,OR,Raw,MR-M3,103.80,105,110.0,-117.50,120.00,120.0,90.00,97.50,-102.50,97.50,-150.00,155.00,160.00,160.00,378,SBD
1,Garry Britt,,M,1965,59,USA,OR,Raw,MR-M3,126.40,120+,170.0,-180.00,180.00,180.0,80.00,87.50,-95.00,87.50,190.00,197.50,205.00,205.00,473,SBD
G,Akihiro Shimizu,,M,1997,27,,,Raw,MR-G,91.90,93,250.0,265.00,272.50,272.5,155.00,165.00,-172.50,165.00,260.00,280.00,292.50,292.50,730,SBD
1,Nicholas Tiller,,M,1987,37,USA,OR,Raw,MR-O,87.80,93,180.0,187.50,200.00,200.0,122.50,130.00,135.00,135.00,190.00,200.00,-212.50,200.00,535,SBD
2,Kevin Schock,,M,1989,35,USA,OR,Raw,MR-O,90.40,93,172.5,182.50,190.00,190.0,102.50,-107.50,-107.50,102.50,202.50,220.00,-232.50,220.00,513,SBD
3,Griffin McCalla,,M,1996,29,USA,CA,Raw,MR-O,93.00,93,155.0,167.50,177.50,177.5,115.00,122.50,127.50,127.50,170.00,185.00,197.50,197.50,503,SBD
4,Ryan Yambra,,M,1994,30,USA,OR,Raw,MR-O,90.50,93,155.0,162.50,172.50,172.5,102.50,110.00,112.50,112.50,165.00,182.50,192.50,192.50,478,SBD
5,Doug Diller,,M,1970,54,USA,OR,Raw,MR-O,90.50,93,102.5,107.50,112.50,112.5,85.00,90.00,-92.50,90.00,125.00,137.50,142.50,142.50,345,SBD
1,Cameron Davidson #1,,M,2001,23,USA,WA,Raw,MR-O,103.80,105,215.0,222.5,227.5,227.5,135.0,140.0,142.5,142.5,250.0,-265.0,265.0,265.0,635,SBD
2,Timothy Thorsen,,M,1991,33,USA,OR,Raw,MR-O,99.80,105,157.5,167.5,175.0,175.0,130.0,140.0,-142.5,140.0,180.0,190.0,200.0,200.0,515,SBD
3,Tony Dovidio,,M,1986,38,USA,OR,Raw,MR-O,103.80,105,160.0,170.0,180.0,180.0,102.5,110.0,115.0,115.0,185.0,200.0,212.5,212.5,508,SBD
4,Daniel Giggy,,M,1988,36,USA,OR,Raw,MR-O,98.40,105,120.0,130.0,140.0,140.0,85.0,90.0,-95.0,90.0,140.0,150.0,165.0,165.0,395,SBD
5,Sikender Ashraf,,M,1998,26,USA,OR,Raw,MR-O,100.20,105,117.5,125.0,130.0,130.0,82.5,87.5,92.5,92.5,130.0,140.0,147.5,147.5,370,SBD
1,Narayan Khalsa,,M,1994,30,USA,OR,Raw,MR-O,105.10,120,197.5,207.5,217.5,217.5,130.0,135.0,137.5,137.5,212.5,225.0,235.0,235.0,590,SBD
2,Eric Fyke,,M,1987,37,USA,OR,Raw,MR-O,110.40,120,160.0,170.0,175.0,175.0,120.0,122.5,-127.5,122.5,180.0,192.5,200.0,200.0,498,SBD
3,Mike Wiens,,M,1988,36,USA,OR,Raw,MR-O,111.30,120,135.0,160.0,-167.5,160.0,77.5,90.0,-92.5,90.0,135.0,160.0,165.0,165.0,415,SBD
1,Derek Dominquez,,M,1991,33,USA,OR,Raw,MR-O,142.40,120+,195.0,215.0,225.0,225.0,155.0,-170.0,-170.0,155.0,210.0,225.0,245.0,245.0,625,SBD
1,Xander Lane,,M,2010,14,USA,OR,Raw,MR-Sj,78.10,83,97.5,105.0,110.0,110.0,57.5,62.5,65.0,65.0,110.0,115.0,117.5,117.5,293,SBD
1,Cyrus Stenzel,,M,2008,16,USA,OR,Raw,MR-Sj,115.40,120,200.0,210.0,225.0,225.0,97.5,102.5,107.5,107.5,180.0,190.0,-200.0,190.0,523,SBD