Division,WeightClassKg,Place,Name,Team,BodyweightKg,Best3SquatKg,Best3BenchKg,Best3DeadliftKg,TotalKg,Equipment,Event,Sex,BirthDate
Boys,51.71,1,Merrick Byars,Vernon,49.85,81.65,56.7,95.25,233.6,Unlimited,SBD,M,
Boys,55.79,1,Israel Espinoza,Vernon,55.61,136.08,90.72,151.95,378.75,Unlimited,SBD,M,
Boys,59.87,1,Justin Hurst,Fort Worth Western Hills,58.97,124.74,70.31,124.74,319.78,Unlimited,SBD,M,
Boys,59.87,2,Emmanuel Colmenero,Fort Worth Polytechnic,59.28,102.06,61.23,136.08,299.37,Unlimited,SBD,M,
Boys,59.87,3,Braxton Jones,Royse City,58.33,102.06,81.65,111.13,294.84,Unlimited,SBD,M,
Boys,67.13,1,Jesus Guzman,Fort Worth Diamond Hill-Jarvis,64.05,127.01,74.84,142.88,344.73,Unlimited,SBD,M,
Boys,67.13,2,Ronnie Mujanovic,Royse City,63.96,72.57,61.23,83.91,217.72,Unlimited,SBD,M,
Boys,74.84,1,Lincoln Heilman,Royse City,74.84,172.37,117.93,201.85,492.15,Unlimited,SBD,M,
Boys,74.84,2,Bowie Eakin,Vernon,68.95,161.03,90.72,172.37,424.11,Unlimited,SBD,M,
Boys,74.84,3,Zero Nine,Vernon,72.21,165.56,79.38,176.9,421.84,Unlimited,SBD,M,
Boys,74.84,4,Evan Mejia,Fort Worth Polytechnic,74.21,165.56,97.52,127.01,390.09,Unlimited,SBD,M,
Boys,74.84,5,Orylyn Crockett,Fort Worth Western Hills,68.49,142.88,92.99,149.69,385.55,Unlimited,SBD,M,
Boys,74.84,6,James Queen,Fort Worth Polytechnic,68.58,140.61,83.91,151.95,376.48,Unlimited,SBD,M,
Boys,74.84,7,Eric Smith,Fort Worth Western Hills,69.85,102.06,92.99,131.54,326.59,Unlimited,SBD,M,
Boys,74.84,8,Ethan Gilbert,Royse City,73.3,124.74,72.57,124.74,322.05,Unlimited,SBD,M,
Boys,74.84,DQ,John Paul Esquivel,Royse City,72.48,,106.59,170.1,,Unlimited,SBD,M,
Boys,82.1,1,Clayton Rodriguez,Royse City,80.88,197.31,136.08,167.83,501.22,Unlimited,SBD,M,
Boys,82.1,2,Mason Ballard,Vernon,82.1,192.78,102.06,206.38,501.22,Unlimited,SBD,M,
Boys,82.1,3,Christian Gallegos,Vernon,81.6,163.29,111.13,181.44,455.86,Unlimited,SBD,M,
Boys,82.1,4,Ali Vazquez,Fort Worth Polytechnic,75.02,142.88,68.04,142.88,353.8,Unlimited,SBD,M,
Boys,89.81,1,Jacob Bryant,Fort Worth Western Hills,84.82,181.44,124.74,226.8,532.97,Unlimited,SBD,M,
Boys,89.81,2,Kurene Mano,Royse City,88.45,183.7,117.93,208.65,510.29,Unlimited,SBD,M,
Boys,89.81,3,Emmanuel Carrillo,Royse City,87.45,156.49,106.59,165.56,428.64,Unlimited,SBD,M,
Boys,89.81,4,Jamerion Willie,Vernon,83.19,156.49,90.72,174.63,421.84,Unlimited,SBD,M,
Boys,89.81,5,Dom Davis,Fort Worth Diamond Hill-Jarvis,89.63,147.42,83.91,174.63,405.97,Unlimited,SBD,M,
Boys,89.81,6,Mu Soe,Vernon,86.14,151.95,97.52,154.22,403.7,Unlimited,SBD,M,
Boys,89.81,7,Jayvien Martinez,Fort Worth Polytechnic,83.32,149.69,86.18,154.22,390.09,Unlimited,SBD,M,
Boys,89.81,8,Malahki Scott,Vernon,83.46,131.54,95.25,154.22,381.02,Unlimited,SBD,M,
Boys,89.81,9,Dshaun Elder,Fort Worth Western Hills,88.45,145.15,70.31,142.88,358.34,Unlimited,SBD,M,
Boys,89.81,10,Carlos García,Fort Worth Diamond Hill-Jarvis,89.13,129.27,88.45,136.08,353.8,Unlimited,SBD,M,
Boys,89.81,11,Madoxx Mondragon,Royse City,83.14,,102.06,156.49,258.55,Unlimited,BD,M,
Boys,89.81,12,Ivan Rodriguez,Fort Worth Diamond Hill-Jarvis,85.91,131.54,,,131.54,Unlimited,S,M,
Boys,89.81,DQ,Jakobi Mcintyre,Fort Worth Eastern Hills,89.81,,,,,Unlimited,SBD,M,
Boys,99.79,1,Colby Langham,Royse City,99.74,210.92,147.42,192.78,551.11,Unlimited,SBD,M,
Boys,99.79,2,Yael Ramirez,Fort Worth Polytechnic,96.21,185.97,108.86,199.58,494.42,Unlimited,SBD,M,
Boys,99.79,3,Josiah Pena,Fort Worth Western Hills,91.63,170.1,111.13,183.7,464.93,Unlimited,SBD,M,
Boys,99.79,4,Kingston Rodgers,Royse City,96.75,158.76,131.54,113.4,403.7,Unlimited,SBD,M,
Boys,99.79,5,Daryll Sanchez,Fort Worth Eastern Hills,99.74,106.59,61.23,156.49,324.32,Unlimited,SBD,M,
Boys,109.77,1,Josh Raga,Fort Worth Western Hills,102.51,247.21,136.08,208.65,591.94,Unlimited,SBD,M,
Boys,109.77,2,Daniel Nyakundi,Fort Worth Eastern Hills,103.42,208.65,129.27,206.38,544.31,Unlimited,SBD,M,
Boys,109.77,3,Brayden Booth,Vernon,109.54,206.38,120.2,206.38,532.97,Unlimited,SBD,M,
Boys,109.77,4,Jordan Murray,Fort Worth Eastern Hills,107.14,172.37,111.13,208.65,492.15,Unlimited,SBD,M,
Boys,109.77,5,Jacob Brown,Vernon,104.73,170.1,113.4,204.12,487.61,Unlimited,SBD,M,
Boys,109.77,6,Christopher Hernandez Perez,Fort Worth Polytechnic,102.74,149.69,102.06,183.7,435.45,Unlimited,SBD,M,
Boys,109.77,7,Hector Jimenez,Fort Worth Diamond Hill-Jarvis,106.23,131.54,83.91,165.56,381.02,Unlimited,SBD,M,
Boys,124.74,1,Kevin Cruz,Fort Worth Western Hills,118.84,294.84,195.04,229.06,718.94,Unlimited,SBD,M,
Boys,124.74,2,Anthony Rodrguez,Fort Worth Western Hills,113.4,183.7,138.35,192.78,514.83,Unlimited,SBD,M,
Boys,124.74,3,Mauricio Martinez,Fort Worth Western Hills,113.4,183.7,131.54,185.97,501.22,Unlimited,SBD,M,
Boys,124.74,4,Joshua Romero,Fort Worth Polytechnic,122.65,142.88,79.38,142.88,365.14,Unlimited,SBD,M,
Boys,124.74,5,Nick Short,Royse City,119.79,124.74,68.04,129.27,322.05,Unlimited,SBD,M,
Boys,139.71,1,Kody Manning,Fort Worth Polytechnic,131.77,217.72,136.08,217.72,571.53,Unlimited,SBD,M,
Boys,139.71,2,Manny Ochoa,Vernon,138.71,204.12,122.47,217.72,544.31,Unlimited,SBD,M,
Boys,139.71,3,Xavier Tovar,Fort Worth Western Hills,125.19,165.56,74.84,183.7,424.11,Unlimited,SBD,M,
