Place,Name,Sex,BirthDate,Age,Country,State,Equipment,Division,BodyweightKg,WeightClassKg,Squat1Kg,Squat2Kg,Squat3Kg,Best3SquatKg,Bench1Kg,Bench2Kg,Bench3Kg,Best3BenchKg,Deadlift1Kg,Deadlift2Kg,Deadlift3Kg,Best3DeadliftKg,TotalKg,Event,Tested
1,Emily Nyce,F,1996-12-03,27,USA,PA,Raw,Open,50.4,52,55,62.5,65,65,25,30,32.5,32.5,70,77.5,85,85,182.5,SBD,Yes
1,Jennifer Miiller,F,1997-10-28,26,USA,PA,Raw,Open,65.4,67.5,102.5,107.5,112.5,112.5,57.5,62.5,-65,62.5,132.5,142.5,147.5,147.5,322.5,SBD,Yes
1,Gwen Remaley,F,1996-02-03,28,USA,PA,Raw,Open,95.4,100,147.5,160,165,165,80,87.5,-90,87.5,150,165,175.5,175.5,428,SBD,Yes
1,Kiersten Guzman,F,1988-06-08,36,USA,PA,Raw,S35-39,67.6,75,62.5,65,67.5,67.5,50,52.5,55,55,85,87.5,90,90,212.5,SBD,Yes
1,Jennifer Washburn,F,1975-01-04,49,USA,PA,Raw,M45-49,54.5,56,75,82.5,-87.5,82.5,-57.5,57.5,62.5,62.5,115,122.5,130,130,275,SBD,Yes
1,Kristi Talley,F,1946-07-18,78,USA,PA,Raw,M75-79,55.8,56,50,52.5,55,55,-32.5,35,37.5,37.5,75,80,85,85,177.5,SBD,Yes
2,Linda Giovinco,F,1949-07-19,75,USA,PA,Raw,M75-79,54,56,40,42.5,45,45,27.5,-35,-35,27.5,72.5,75,80,80,152.5,SBD,Yes
1,Jamie Carpenter,F,1973-03-31,51,USA,PA,Raw,M50-54,82.3,82.5,70,75,-85,75,45,50,-55,50,82.5,92.5,102.5,102.5,227.5,SBD,Yes
1,Jodie Rosenthal-Young,F,1965-02-01,59,USA,PA,Raw,M55-59,87.7,90,85,-90,-90,85,40,45,47.5,47.5,135,142.5,147.5,147.5,280,SBD,Yes
1,Noah Wentz,M,2009-03-20,15,USA,PA,Raw,T13-15,65.5,67.5,107.5,117.5,122.5,122.5,75,83,85,85,140,-150,150,150,357.5,SBD,Yes
1,Tyler Petroff,M,2001-10-23,23,USA,PA,Raw,J20-23,73.4,75,185,195,200,200,117.5,125,-130,125,237.5,250,-255,250,575,SBD,Yes
1,Timothy Song,M,2001-04-23,23,USA,PA,Raw,J20-23,90,90,215,227.5,232.5,232.5,110,120,125,125,240,262.5,275,275,632.5,SBD,Yes
DQ,Jack Conrad,M,2002-04-05,22,USA,PA,Raw,J20-23,89.8,90,227.5,237.5,-242.5,237.5,-167.5,-177.5,-177.5,-167.5,290,310,317.5,317.5,,SBD,Yes
1,Leandro Tavarez,M,2005-04-28,19,USA,PA,Raw,T18-19,97.2,100,210,230,250,250,140,150,-165,150,210,235,250,250,650,SBD,Yes
1,Ethan James Terrano,M,2002-04-09,22,USA,PA,Raw,J20-23,107.9,110,212.5,222.5,-227.5,222.5,130,137.5,-140,137.5,215,227.5,232.5,232.5,592.5,SBD,Yes
1,Xander Duerksen,M,2000-11-21,23,USA,PA,Raw,J20-23,121.6,125,232.5,247.5,255,255,177.5,190,-195,190,250,267.5,272.5,272.5,717.5,SBD,Yes
1,Joshua Polite,M,2000-05-10,24,USA,NJ,Raw,Open,71.5,75,25,,,25,132.5,137.5,-145,137.5,210,-220,-220,210,372.5,SBD,Yes
1,Thomas Ferguson,M,1990-10-19,34,USA,PA,Raw,Open,87.4,90,167.5,185,,185,167.5,182.5,187.5,187.5,205,227.5,-237.5,227.5,600,SBD,Yes
DQ,John Card,M,1984-10-02,40,USA,PA,Raw,Open,89.2,90,-170,170,187.5,187.5,140,150,-155,150,,,,,,SBD,Yes
1,Leandro Tavarez,M,2005-04-28,19,USA,PA,Raw,Open,97.2,100,210,230,250,250,140,150,-165,150,210,235,250,250,650,SBD,Yes
1,Joseph Michael,M,1989-08-24,35,USA,PA,Raw,Open,108,110,255,277.5,290,290,170,-182.5,,170,290,302.5,-317.5,302.5,762.5,SBD,Yes
2,Ethan James Terrano,M,2002-04-09,22,USA,PA,Raw,Open,107.9,110,212.5,222.5,-227.5,222.5,130,137.5,-140,137.5,215,227.5,232.5,232.5,592.5,SBD,Yes
1,Matthew Gibbs-Buss,M,1997-02-12,27,USA,PA,Raw,Open,111.2,125,-257.5,262.5,-282.5,262.5,142.5,155,162.5,162.5,240,262.5,-272.5,262.5,687.5,SBD,Yes
1,Frank Williams Jr,M,1983-02-10,41,USA,PA,Raw,M40-44,79.8,82.5,155,-175,,155,107.5,115,-122.5,115,185,192.5,-205,192.5,462.5,SBD,Yes
DQ,John Card,M,1984-10-02,40,USA,PA,Raw,M40-44,89.2,90,-170,170,187.5,187.5,140,150,-155,150,,,,,,SBD,Yes
1,Rich Corcoran,M,1975-12-21,48,USA,PA,Raw,M45-49,87.7,90,152.5,162.5,-167.5,162.5,105,112.5,-117.5,112.5,195,207.5,-217.5,207.5,482.5,SBD,Yes
DQ,Reid Huntsinger,M,1965-03-03,59,USA,PA,Raw,M55-59,112.5,125,-180,-180,-180,-180,115,120,125,125,212.5,220,225,225,,SBD,Yes
1,Joe Macomber,M,1977-03-21,47,USA,PA,Wraps,M45-49,96.8,100,185,-197.5,-200,185,107.5,112.5,115,115,215,227.5,232.5,232.5,532.5,SBD,Yes
1,Grace Jenchura,F,1948-10-01,76,USA,PA,Raw,M75-79,77.1,82.5,,,,,40,42.5,-45,42.5,,,,,42.5,B,Yes
1,Jodie Rosenthal-Young,F,1965-02-01,59,USA,PA,Raw,M55-59,87.7,90,,,,,40,45,47.5,47.5,,,,,47.5,B,Yes
1,Jodie Rosenthal-Young,F,1965-02-01,59,USA,PA,Raw,M55-59,87.7,90,,,,,,,,,135,142.5,147.5,147.5,147.5,D,Yes
