Division,WeightClassKg,Place,Name,Team,BodyweightKg,Best3SquatKg,Best3BenchKg,Best3DeadliftKg,TotalKg,Equipment,Event,Sex,BirthDate
Boys,51.71,1,Gabriel Morse,Keller Central,50.8,106.59,63.5,102.06,272.16,Unlimited,SBD,M,
Boys,55.79,1,Antonio Medina,Keller Timber Creek,55.79,161.03,79.38,161.03,401.43,Unlimited,SBD,M,
Boys,55.79,2,Aiden Garza,Keller,55.79,77.11,56.7,99.79,233.6,Unlimited,SBD,M,
Boys,59.87,1,Jaxx Marsden,Keller Timber Creek,59.6,161.03,106.59,174.63,442.25,Unlimited,SBD,M,
Boys,59.87,2,William Sgroi,Keller Timber Creek,56.25,142.88,68.04,129.27,340.19,Unlimited,SBD,M,
Boys,59.87,3,Phillip Locke,Keller Central,59.87,145.15,72.57,120.2,337.93,Unlimited,SBD,M,
Boys,59.87,4,Alex Dragon,Keller Timber Creek,58.42,92.99,58.97,102.06,254.01,Unlimited,SBD,M,
Boys,59.87,5,Tasneem Ahsan,Keller Fossil Ridge,56.25,58.97,40.82,104.33,204.12,Unlimited,SBD,M,
Boys,67.13,1,Nathan Giddens,Keller Timber Creek,66.77,183.7,115.67,192.78,492.15,Unlimited,SBD,M,
Boys,67.13,2,Nick Luangrath,Keller Central,65.77,199.58,111.13,176.9,487.61,Unlimited,SBD,M,
Boys,67.13,3,Kendreich Scheving,Keller Fossil Ridge,65.77,142.88,106.59,176.9,426.38,Unlimited,SBD,M,
Boys,67.13,4,Devon Marceron,Keller Central,66.22,167.83,113.4,142.88,424.11,Unlimited,SBD,M,
Boys,67.13,5,Dustin Ford,Keller Central,66.68,176.9,92.99,151.95,421.84,Unlimited,SBD,M,
Boys,67.13,6,Guy Gonzalez,Keller,63.55,156.49,83.91,151.95,392.36,Unlimited,SBD,M,
Boys,67.13,7,Vincent Nguyen,Keller Fossil Ridge,61.23,145.15,81.65,151.95,378.75,Unlimited,SBD,M,
Boys,67.13,8,Kaleb Pozzani,Keller Timber Creek,63.59,142.88,74.84,138.35,356.07,Unlimited,SBD,M,
Boys,67.13,9,Jayden Nguyen,Keller Fossil Ridge,64.86,136.08,68.04,145.15,349.27,Unlimited,SBD,M,
Boys,67.13,10,Jarren Hamilton,Keller Timber Creek,67.13,124.74,74.84,138.35,337.93,Unlimited,SBD,M,
Boys,67.13,DQ,Ivan Dominguez,Keller Fossil Ridge,67.13,124.74,65.77,129.27,,Unlimited,SBD,M,
Boys,67.13,DQ,Dejuan White,Keller Timber Creek,66.86,111.13,70.31,133.81,,Unlimited,SBD,M,
Boys,74.84,1,Brody Craft,Keller Central,74.84,204.12,136.08,192.78,532.97,Unlimited,SBD,M,
Boys,74.84,2,Christian Perez,Keller Central,74.39,183.7,142.88,183.7,510.29,Unlimited,SBD,M,
Boys,74.84,3,Ben Haines,Keller Central,73.48,197.31,104.33,206.38,508.02,Unlimited,SBD,M,
Boys,74.84,4,Nicholas Krause,Keller Central,74.39,217.72,108.86,174.63,501.22,Unlimited,SBD,M,
Boys,74.84,5,Daniel Reynolds,Keller,73.44,195.04,115.67,183.7,494.42,Unlimited,SBD,M,
Boys,74.84,6,Chance David,Keller Central,73.48,165.56,115.67,183.7,464.93,Unlimited,SBD,M,
Boys,74.84,7,Javier Pierre,Keller,74.75,142.88,108.86,170.1,421.84,Unlimited,SBD,M,
Boys,74.84,8,Logan Deal,Keller,69.9,151.95,102.06,154.22,408.23,Unlimited,SBD,M,
Boys,74.84,9,Alexander Anderson,Keller Central,70.76,138.35,106.59,161.03,405.97,Unlimited,SBD,M,
Boys,74.84,10,Jaxon Peters,Keller,71.58,147.42,99.79,147.42,394.63,Unlimited,SBD,M,
Boys,74.84,11,Tony Hoagland,Keller Timber Creek,71.94,156.49,79.38,156.49,392.36,Unlimited,SBD,M,
Boys,74.84,12,Xavier Lee,Keller Timber Creek,70.03,136.08,92.99,142.88,371.95,Unlimited,SBD,M,
Boys,74.84,13,Tyrell Taylor,Keller Timber Creek,68.76,102.06,72.57,151.95,326.59,Unlimited,SBD,M,
Boys,74.84,14,Cole Andes,Keller Timber Creek,68.04,120.2,61.23,129.27,310.71,Unlimited,SBD,M,
Boys,74.84,15,Logan Pruitt,Keller Fossil Ridge,74.84,124.74,49.9,129.27,303.91,Unlimited,SBD,M,
Boys,74.84,DQ,Nicholas Muegge,Keller Central,74.39,158.76,90.72,190.51,,Unlimited,SBD,M,
Boys,82.1,1,Anthony Torres,Keller Central,77.56,170.1,106.59,210.92,487.61,Unlimited,SBD,M,
Boys,82.1,2,Isaac Maldonado,Keller Central,80.74,195.04,108.86,183.7,487.61,Unlimited,SBD,M,
Boys,82.1,3,Pierce Solodow,Keller,76.88,174.63,102.06,176.9,453.59,Unlimited,SBD,M,
Boys,82.1,4,Winston Ayesu,Keller Fossil Ridge,81.42,142.88,97.52,142.88,383.29,Unlimited,SBD,M,
Boys,82.1,5,Alejandro Lopez,Keller Fossil Ridge,77.11,83.91,68.04,113.4,265.35,Unlimited,SBD,M,
Boys,82.1,DQ,William Siripanyo,Keller Fossil Ridge,80.74,129.27,102.06,142.88,,Unlimited,SBD,M,
Boys,82.1,DQ,Christian Martinez,Keller Timber Creek,80.42,113.4,77.11,102.06,,Unlimited,SBD,M,
Boys,89.81,1,Gabe DeKok,Keller,89.22,235.87,133.81,231.33,601.01,Unlimited,SBD,M,
Boys,89.81,2,Noah Read,Keller,87.27,197.31,102.06,188.24,487.61,Unlimited,SBD,M,
Boys,89.81,3,Martin Wiker,Keller Timber Creek,88.63,183.7,102.06,174.63,460.4,Unlimited,SBD,M,
Boys,89.81,4,William Dedic,Keller,84.96,151.95,102.06,183.7,437.72,Unlimited,SBD,M,
Boys,89.81,5,Angelo Tucker,Keller Timber Creek,82.28,124.74,86.18,167.83,378.75,Unlimited,SBD,M,
Boys,89.81,6,Josh Mareth,Keller Timber Creek,88,131.54,74.84,167.83,374.21,Unlimited,SBD,M,
Boys,99.79,1,Anden Castle,Keller Timber Creek,97.43,238.14,183.7,226.8,648.64,Unlimited,SBD,M,
Boys,99.79,2,Mohammed Monsour,Keller,93.76,174.63,88.45,165.56,428.64,Unlimited,SBD,M,
Boys,99.79,3,Ronnie Edwards,Keller Timber Creek,93.26,161.03,113.4,142.88,417.3,Unlimited,SBD,M,
Boys,99.79,4,Sam Crane,Keller,96.39,142.88,88.45,170.1,401.43,Unlimited,SBD,M,
Boys,99.79,5,Simon McQuhae,Keller Timber Creek,97.79,102.06,52.16,127.01,281.23,Unlimited,SBD,M,
Boys,109.77,1,Ethan Starr,Keller,102.83,224.53,117.93,210.92,553.38,Unlimited,SBD,M,
Boys,109.77,2,Jamarcus Molina,Keller Fossil Ridge,103.19,183.7,102.06,183.7,469.47,Unlimited,SBD,M,
Boys,109.77,3,Carlos Gonzalez,Keller Fossil Ridge,108.86,192.78,122.47,145.15,460.4,Unlimited,SBD,M,
Boys,109.77,4,Gideon Milam,Keller,102.19,161.03,122.47,170.1,453.59,Unlimited,SBD,M,
Boys,109.77,DQ,Dreyton Nelson,Keller Fossil Ridge,104.33,233.6,158.76,204.12,,Unlimited,SBD,M,
Boys,124.74,1,Will Scalf,Keller,110.95,183.7,120.2,183.7,487.61,Unlimited,SBD,M,
Boys,124.74,2,Ian Davidson,Keller Central,124.74,161.03,127.01,181.44,469.47,Unlimited,SBD,M,
Boys,124.74,DQ,Shaun Linnear,Keller,123.33,151.95,95.25,140.61,,Unlimited,SBD,M,
Boys,124.74,DQ,Barrett Smith,Keller Timber Creek,115.67,158.76,72.57,142.88,,Unlimited,SBD,M,
Boys,124.74,DQ,Zayne Allison,Keller Timber Creek,124.74,124.74,86.18,115.67,,Unlimited,SBD,M,
Boys,139.71,1,Edward Zavala,Keller Fossil Ridge,136.08,308.44,154.22,215.46,678.12,Unlimited,SBD,M,
Boys,139.71,2,Jacob Gearhart,Keller Fossil Ridge,138.35,129.27,108.86,158.76,396.89,Unlimited,SBD,M,
