Division,WeightClassKg,Place,Name,Team,BodyweightKg,Best3SquatKg,Best3BenchKg,Best3DeadliftKg,TotalKg,Equipment,Event,Sex,BirthDate
Girls,44.23,1,Olivia Jackson,Nixon Smiley,42.82,72.57,43.09,77.11,192.78,Unlimited,SBD,F,
Girls,44.23,2,Kendall Hemler,Nixon Smiley,41.46,52.16,29.48,61.23,142.88,Unlimited,SBD,F,
Girls,47.85,1,Emma Farrell,Floresville,46.99,74.84,49.9,90.72,215.46,Unlimited,SBD,F,
Girls,47.85,2,Addison Long,San Antonio Cole,45.63,79.38,34.02,70.31,183.7,Unlimited,SBD,F,
Girls,47.85,3,Jadie Apolinario,Jourdanton,46.9,65.77,29.48,86.18,181.44,Raw,SBD,F,
Girls,47.85,4,Skyler Sexton,Jourdanton,44.45,40.82,27.22,68.04,136.08,Raw,SBD,F,
Girls,47.85,5,Kaylin Smith,Jourdanton,47.36,43.09,20.41,56.7,120.2,Raw,SBD,F,
Girls,51.94,1,Madison Weeks,Karnes City,51.8,97.52,61.23,99.79,258.55,Unlimited,SBD,F,
Girls,51.94,2,Keirah Mowry,San Antonio Cole,49.53,95.25,47.63,99.79,242.67,Unlimited,SBD,F,
Girls,51.94,3,Talia Martinez,Pleasanton,51.8,97.52,47.63,97.52,242.67,Unlimited,SBD,F,
Girls,51.94,4,Payton Austing,Floresville,49.17,92.99,52.16,90.72,235.87,Unlimited,SBD,F,
Girls,51.94,5,Maggie Farrell,Floresville,48.81,83.91,49.9,99.79,233.6,Unlimited,SBD,F,
Girls,56.02,1,Amelie Hungerford,Karnes City,53.43,115.67,72.57,113.4,301.64,Unlimited,SBD,F,
Girls,56.02,2,Katrina Rodriguez,Karnes City,54.7,88.45,61.23,99.79,249.48,Unlimited,SBD,F,
Girls,56.02,3,Jayla Rivas,Floresville,55.25,92.99,49.9,102.06,244.94,Unlimited,SBD,F,
Girls,56.02,4,Piper Keen,Nixon Smiley,53.34,65.77,45.36,70.31,181.44,Unlimited,SBD,F,
Girls,56.02,5,Andria Gonzales,Jourdanton,53.34,63.5,29.48,83.91,176.9,Raw,SBD,F,
Girls,60.1,1,Madalynn Weeks,Karnes City,56.7,99.79,54.43,111.13,265.35,Unlimited,SBD,F,
Girls,60.1,2,Yasmine Diop,Pleasanton,57.61,99.79,49.9,115.67,265.35,Unlimited,SBD,F,
Girls,60.1,3,Kendra Savoie,Nixon Smiley,56.7,97.52,43.09,102.06,242.67,Unlimited,SBD,F,
Girls,60.1,4,Emelia Garcia,Jourdanton,58.24,83.91,36.29,115.67,235.87,Raw,SBD,F,
Girls,60.1,5,Marianna Pinto,Floresville,56.06,88.45,40.82,92.99,222.26,Unlimited,SBD,F,
Girls,60.1,6,Amaya Loza,Jourdanton,56.43,68.04,29.48,83.91,181.44,Raw,SBD,F,
Girls,67.36,1,Zulema Rodriguez,Nixon Smiley,65.59,158.76,92.99,131.54,383.29,Unlimited,SBD,F,
Girls,67.36,2,Addison Gatica,Karnes City,62.41,124.74,81.65,115.67,322.05,Unlimited,SBD,F,
Girls,67.36,3,Sofia Southiseng,Floresville,62.41,92.99,47.63,111.13,251.74,Unlimited,SBD,F,
Girls,67.36,4,Marley Fogleman,Floresville,62.05,88.45,52.16,97.52,238.14,Unlimited,SBD,F,
Girls,67.36,5,Kelsey Alvarado,Karnes City,62.05,86.18,43.09,104.33,233.6,Unlimited,SBD,F,
Girls,67.36,6,Lindsay Velasquez,Jourdanton,64.86,102.06,47.63,81.65,231.33,Unlimited,SBD,F,
Girls,67.36,7,Angelina Acevedo,Pleasanton,64.68,92.99,38.56,92.99,224.53,Unlimited,SBD,F,
Girls,67.36,8,Cara Rodriguez,Pleasanton,62.32,83.91,38.56,92.99,215.46,Unlimited,SBD,F,
Girls,67.36,9,Zadie Sultenfuss,Floresville,62.87,74.84,36.29,86.18,197.31,Unlimited,SBD,F,
Girls,67.36,DQ,Kaylynn Calderon,Jourdanton,64.59,113.4,,,,Unlimited,SBD,F,
Girls,67.36,DQ,Stephanie Avila,Nixon Smiley,60.69,92.99,,,,Unlimited,SBD,F,
Girls,67.36,DQ,Amor Aranda,Karnes City,67.04,97.52,,,,Unlimited,SBD,F,
Girls,75.07,1,Elena Merced,Floresville,67.59,131.54,74.84,145.15,351.53,Unlimited,SBD,F,
Girls,75.07,2,Frida Casas,Nixon Smiley,69.85,138.35,79.38,129.27,347,Unlimited,SBD,F,
Girls,75.07,3,Wendy Rodriguez,Nixon Smiley,74.75,111.13,70.31,120.2,301.64,Unlimited,SBD,F,
Girls,75.07,4,Marina Rodriguez,Karnes City,72.21,95.25,58.97,104.33,258.55,Unlimited,SBD,F,
Girls,75.07,5,Joselyn Avila,Floresville,69.13,92.99,61.23,97.52,251.74,Unlimited,SBD,F,
Girls,75.07,6,Kaleigh Serenil,Karnes City,74.84,97.52,49.9,102.06,249.48,Unlimited,SBD,F,
Girls,75.07,DQ,Nayeli Munoz,Jourdanton,73.84,83.91,,,,Unlimited,SBD,F,
Girls,82.33,1,Raquel Alvarado,Karnes City,80.01,117.93,58.97,129.27,306.17,Unlimited,SBD,F,
Girls,82.33,2,Kaelynn Mendiola,Nixon Smiley,78.11,117.93,63.5,111.13,292.57,Unlimited,SBD,F,
Girls,82.33,3,Ava Cunningham,San Antonio Cole,81.28,117.93,65.77,106.59,290.3,Unlimited,SBD,F,
Girls,82.33,4,Nadia Bonilla,San Antonio Cole,79.02,92.99,54.43,104.33,251.74,Unlimited,SBD,F,
Girls,82.33,5,Madison Conner,Pleasanton,78.74,79.38,52.16,79.38,210.92,Unlimited,SBD,F,
Girls,82.33,6,Sophia Martinez,San Antonio Holy Cross,82.28,61.23,31.75,70.31,163.29,Unlimited,SBD,F,
Girls,82.33,7,Carly Sanchez,Jourdanton,77.11,22.68,27.22,61.23,111.13,Raw,SBD,F,
Girls,82.33,8,Layla Lozano,Jourdanton,77.75,24.95,27.22,31.75,83.91,Raw,SBD,F,
Girls,90.04,1,Andrea Cintron,San Antonio Cole,83.55,83.91,54.43,111.13,249.48,Raw,SBD,F,
Girls,90.04,2,Azaria Cunard,San Antonio Cole,85.28,79.38,45.36,102.06,226.8,Raw,SBD,F,
Girls,90.04,3,Hayden Schuchman,Jourdanton,89.45,74.84,36.29,106.59,217.72,Raw,SBD,F,
Girls,90.04,4,Gianna Granado,San Antonio Holy Cross,82.92,56.7,31.75,102.06,190.51,Unlimited,SBD,F,
Girls,90.04,DQ,Paris Esparza,Karnes City,88.63,,,,,Unlimited,SBD,F,
Girls,100.02,1,Gabriella Contreras,Floresville,93.35,106.59,68.04,115.67,290.3,Unlimited,SBD,F,
Girls,100.02,2,Trinity Tristan,Karnes City,96.8,88.45,47.63,83.91,219.99,Unlimited,SBD,F,
Girls,110,1,Gabrielle Honesto,Floresville,104.6,140.61,72.57,138.35,351.53,Unlimited,SBD,F,
Girls,110,2,Adelina Mann,San Antonio Holy Cross,107.95,120.2,45.36,117.93,283.5,Unlimited,SBD,F,
Girls,110,3,Ally Nelson,Pleasanton,101.33,88.45,58.97,106.59,254.01,Unlimited,SBD,F,
Girls,110,4,Jenna Bustos,Nixon Smiley,106.87,77.11,47.63,102.06,226.8,Unlimited,SBD,F,
