Place,Name,State,WeightClassKg,BodyweightKg,BirthDate,Age,Squat1Kg,Squat2Kg,Squat3Kg,Best3SquatKg,Bench1Kg,Bench2Kg,Bench3Kg,Best3BenchKg,Deadlift1Kg,Deadlift2Kg,Deadlift3Kg,Best3DeadliftKg,TotalKg,Deadlift4Kg,Event,Equipment,Sex,Division
1,Davina Tolle,MT,60,59.4,,25,80,90,-95,90,52.5,-57.5,57.5,57.5,95,105,115,115,262.5,,SBD,Raw,F,Open
1,Laura Fairbanks,MT,67.5,63.6,,42,125,127.5,130,130,50,55,-60,55,127.5,132.5,137.5,137.5,322.5,,SBD,Raw,F,Masters 40-44
1,William Bell,MT,90,82.9,,36,185,200,207.5,207.5,-110,120,122.5,122.5,245,260,270,270,600,,SBD,Raw,M,Submasters 35-39
1,Sean Fairbanks,MT,100,97.6,,47,190,200,210,210,130,140,150,150,215,230,252.5,252.5,612.5,,SBD,Raw,M,Masters 45-49
1,David Dunlop,MT,100,97.5,,58,205,-217.5,217.5,217.5,140,152.5,-165.5,152.5,210,217.5,225,225,595,,SBD,Raw,M,Masters 55-59
1,David Dunlop,MT,100,97.5,,58,,,,,140,152.5,-165.5,152.5,,,,,152.5,,B,Raw,M,Masters 55-59
1,Scott Webb,MT,125,118,,66,,,,,117.5,-125,-125,117.5,,,,,117.5,,B,Raw,M,Masters 65-69
1,David Dunlop,MT,100,97.5,,58,,,,,,,,,210,217.5,225,225,225,,D,Raw,M,Masters 55-59
1,Scott Webb,MT,125,118,,66,,,,,,,,,122.5,132.5,140,140,140,150.0,D,Raw,M,Masters 65-69
